{
  "_id": "U7WoBCEG5FBftSnI",
  "name": "Enlightened Construct",
  "permission": {
    "default": 0
  },
  "type": "feat",
  "data": {
    "description": {
      "value": "<p><strong>Acquired/Inherited Template</strong>&nbsp;Acquired<br><strong>Simple Template</strong>&nbsp;No<br><strong>Usable with Summons</strong>&nbsp;No<br><br>Infused with powerful psychic energy, enlightened constructs have access to strange and deadly mental powers. Highly intelligent and secretive, these constructs typically serve as henchmen to powerful psychics or sorcerous cabals.<br><br>“Enlightened construct” is an acquired template that can be added to any construct, referred to hereafter as the base creature. An enlightened construct retains all the base creature’s statistics and special abilities except as noted here.<br><br><strong>Challenge Rating:</strong> If the base creature had 4 or fewer HD, base creature’s CR + 1; HD 5–10, base creature’s CR + 2; HD 11 or more, base creature’s CR + 3.<br><br><strong>Alignment: </strong>An enlightened construct’s alignment is no more than one step away from that of its creator.<br><br><strong>Type:</strong> An enlightened construct gains the augmented subtype.<br><br><strong>Senses: </strong>An enlightened construct gains lifesense out to 60 feet.<br><br><strong>Weaknesses: </strong>An enlightened construct gains the following weakness.<br><br><em>Susceptible to Mind-Affecting Effects (Ex):</em> An enlightened construct is susceptible to mind-affecting effects, even though it is a construct. Although they can be magically charmed or compelled, enlightened constructs are particularly resistant to enchantments and receive a +4 bonus on Will saves to resist these effects.<br><br><strong>Special Attacks: </strong>An enlightened construct gains the following special abilities.<br><br><em>Mind Thrust (Sp):</em> An enlightened construct can use&nbsp;<a href=\"https://aonprd.com/SpellDisplay.aspx?ItemName=mind%20thrust\">mind thrust</a>&nbsp;as a spell-like ability a number of times per day equal to 2 + the enlightened construct’s Intelligence modifier. The version of&nbsp;<a href=\"https://aonprd.com/SpellDisplay.aspx?ItemName=mind%20thrust\">mind thrust</a>&nbsp;available to an enlightened construct is determined by its Hit Dice: HD Spell</p>\n<hr>\n<table class=\"inner\" style=\"border-color: white; color: #ffffff; font-family: 'Century Gothic', CenturyGothic, AppleGothic, sans-serif; font-size: 15px; background-color: #0f0f0f;\">\n<tbody style=\"margin-top: 0px;\">\n<tr style=\"margin-top: 0px;\">\n<td style=\"margin: 0px; border: 1px solid white; padding: 1px 5px; text-align: center;\"><strong style=\"margin-top: 0px;\">HD</strong></td>\n<td style=\"border: 1px solid white; padding: 1px 5px; margin: 0px; text-align: center;\"><strong style=\"margin-top: 0px;\">Spell</strong></td>\n</tr>\n<tr style=\"background: #3e3e3e;\">\n<td style=\"margin: 0px; border: 1px solid white; padding: 1px 5px; text-align: center;\">1-2</td>\n<td style=\"border: 1px solid white; padding: 1px 5px; margin: 0px; text-align: center;\"><a style=\"margin-top: 0px; color: inherit;\" href=\"https://aonprd.com/SpellDisplay.aspx?ItemName=Mind%20Thrust%20I\"><em style=\"margin-top: 0px;\">Mind thrust I</em></a></td>\n</tr>\n<tr>\n<td style=\"margin: 0px; border: 1px solid white; padding: 1px 5px; text-align: center;\">3-4</td>\n<td style=\"border: 1px solid white; padding: 1px 5px; margin: 0px; text-align: center;\"><a style=\"margin-top: 0px; color: inherit;\" href=\"https://aonprd.com/SpellDisplay.aspx?ItemName=Mind%20Thrust%20I\"><em style=\"margin-top: 0px;\">Mind thrust II</em></a></td>\n</tr>\n<tr style=\"background: #3e3e3e;\">\n<td style=\"margin: 0px; border: 1px solid white; padding: 1px 5px; text-align: center;\">5-7</td>\n<td style=\"border: 1px solid white; padding: 1px 5px; margin: 0px; text-align: center;\"><a style=\"margin-top: 0px; color: inherit;\" href=\"https://aonprd.com/SpellDisplay.aspx?ItemName=Mind%20Thrust%20I\"><em style=\"margin-top: 0px;\">Mind thrust III</em></a></td>\n</tr>\n<tr>\n<td style=\"margin: 0px; border: 1px solid white; padding: 1px 5px; text-align: center;\">8-10</td>\n<td style=\"border: 1px solid white; padding: 1px 5px; margin: 0px; text-align: center;\"><a style=\"margin-top: 0px; color: inherit;\" href=\"https://aonprd.com/SpellDisplay.aspx?ItemName=Mind%20Thrust%20I\"><em style=\"margin-top: 0px;\">Mind thrust IV</em></a></td>\n</tr>\n<tr style=\"background: #3e3e3e;\">\n<td style=\"margin: 0px; border: 1px solid white; padding: 1px 5px; text-align: center;\">11-15</td>\n<td style=\"border: 1px solid white; padding: 1px 5px; margin: 0px; text-align: center;\"><a style=\"margin-top: 0px; color: inherit;\" href=\"https://aonprd.com/SpellDisplay.aspx?ItemName=Mind%20Thrust%20I\"><em style=\"margin-top: 0px;\">Mind thrust V</em></a></td>\n</tr>\n<tr>\n<td style=\"margin: 0px; border: 1px solid white; padding: 1px 5px; text-align: center;\">16-20</td>\n<td style=\"border: 1px solid white; padding: 1px 5px; margin: 0px; text-align: center;\"><a style=\"margin-top: 0px; color: inherit;\" href=\"https://aonprd.com/SpellDisplay.aspx?ItemName=Mind%20Thrust%20I\"><em style=\"margin-top: 0px;\">Mind thrust VI</em></a></td>\n</tr>\n</tbody>\n</table>\n<p>&nbsp;</p>\n<hr>\n<p><br style=\"color: #ffffff; font-family: 'Century Gothic', CenturyGothic, AppleGothic, sans-serif; font-size: 15px; background-color: #0f0f0f;\"><strong>Spell-Like Abilities (Sp):</strong> An enlightened construct gains a number of spell-like abilities set by its Hit Dice. It gains the spell-like abilities listed in the entry for its Hit Dice on the table below, as well as all listed spell-like abilities for prior entries. Unless otherwise noted, each ability is usable 1/day. The caster level for these abilities is equal to the enlightened construct’s Hit Dice (or the caster level of the base construct’s spell-like abilities, whichever is higher). The DC for a saving throw against the enlightened construct’s spell-like ability is equal to 10 + the spell’s level + the enlightened construct’s Intelligence modifier.</p>\n<hr>\n<table class=\"inner\" style=\"border-color: white; color: #ffffff; font-family: 'Century Gothic', CenturyGothic, AppleGothic, sans-serif; font-size: 15px; background-color: #0f0f0f;\">\n<tbody style=\"margin-top: 0px;\">\n<tr style=\"margin-top: 0px;\">\n<td style=\"margin: 0px; border: 1px solid white; padding: 1px 5px; text-align: center;\"><strong style=\"margin-top: 0px;\">HD</strong></td>\n<td style=\"border: 1px solid white; padding: 1px 5px; margin: 0px; text-align: center;\"><strong style=\"margin-top: 0px;\">Spell-Like Abilities</strong></td>\n</tr>\n<tr style=\"background: #3e3e3e;\">\n<td style=\"margin: 0px; border: 1px solid white; padding: 1px 5px; text-align: center;\">1-2</td>\n<td style=\"border: 1px solid white; padding: 1px 5px; margin: 0px; text-align: center;\"><a style=\"margin-top: 0px; color: inherit;\" href=\"https://aonprd.com/SpellDisplay.aspx?ItemName=Mindlink\"><em style=\"margin-top: 0px;\">Mindlink</em></a>&nbsp;3/day</td>\n</tr>\n<tr>\n<td style=\"margin: 0px; border: 1px solid white; padding: 1px 5px; text-align: center;\">3-4</td>\n<td style=\"border: 1px solid white; padding: 1px 5px; margin: 0px; text-align: center;\"><a style=\"margin-top: 0px; color: inherit;\" href=\"https://aonprd.com/SpellDisplay.aspx?ItemName=Mental%20block\"><em style=\"margin-top: 0px;\">Mental block</em></a></td>\n</tr>\n<tr style=\"background: #3e3e3e;\">\n<td style=\"margin: 0px; border: 1px solid white; padding: 1px 5px; text-align: center;\">5-6</td>\n<td style=\"border: 1px solid white; padding: 1px 5px; margin: 0px; text-align: center;\"><a style=\"margin-top: 0px; color: inherit;\" href=\"https://aonprd.com/SpellDisplay.aspx?ItemName=Mind%20probe\"><em style=\"margin-top: 0px;\">Mind probe</em></a>&nbsp;3/day</td>\n</tr>\n<tr>\n<td style=\"margin: 0px; border: 1px solid white; padding: 1px 5px; text-align: center;\">7-8</td>\n<td style=\"border: 1px solid white; padding: 1px 5px; margin: 0px; text-align: center;\"><a style=\"margin-top: 0px; color: inherit;\" href=\"https://aonprd.com/SpellDisplay.aspx?ItemName=Telekinesis\"><em style=\"margin-top: 0px;\">Telekinesis</em></a>&nbsp;3/day</td>\n</tr>\n<tr style=\"background: #3e3e3e;\">\n<td style=\"margin: 0px; border: 1px solid white; padding: 1px 5px; text-align: center;\">9-10</td>\n<td style=\"border: 1px solid white; padding: 1px 5px; margin: 0px; text-align: center;\"><a style=\"margin-top: 0px; color: inherit;\" href=\"https://aonprd.com/SpellDisplay.aspx?ItemName=Dimensional%20lock\"><em style=\"margin-top: 0px;\">Dimensional lock</em></a>&nbsp;3/day</td>\n</tr>\n<tr>\n<td style=\"margin: 0px; border: 1px solid white; padding: 1px 5px; text-align: center;\">11-12</td>\n<td style=\"border: 1px solid white; padding: 1px 5px; margin: 0px; text-align: center;\"><a style=\"margin-top: 0px; color: inherit;\" href=\"https://aonprd.com/SpellDisplay.aspx?ItemName=Dimension%20door\"><em style=\"margin-top: 0px;\">Dimension door</em></a>&nbsp;3/day</td>\n</tr>\n<tr style=\"background: #3e3e3e;\">\n<td style=\"margin: 0px; border: 1px solid white; padding: 1px 5px; text-align: center;\">13-14</td>\n<td style=\"border: 1px solid white; padding: 1px 5px; margin: 0px; text-align: center;\"><a style=\"margin-top: 0px; color: inherit;\" href=\"https://aonprd.com/SpellDisplay.aspx?ItemName=synesthesia,%20mass\"><em style=\"margin-top: 0px;\">Mass synesthesia</em></a></td>\n</tr>\n<tr>\n<td style=\"margin: 0px; border: 1px solid white; padding: 1px 5px; text-align: center;\">15-16</td>\n<td style=\"border: 1px solid white; padding: 1px 5px; margin: 0px; text-align: center;\"><a style=\"margin-top: 0px; color: inherit;\" href=\"https://aonprd.com/SpellDisplay.aspx?ItemName=Antimagic%20field\"><em style=\"margin-top: 0px;\">Antimagic field</em></a></td>\n</tr>\n<tr style=\"background: #3e3e3e;\">\n<td style=\"margin: 0px; border: 1px solid white; padding: 1px 5px; text-align: center;\">17-18</td>\n<td style=\"border: 1px solid white; padding: 1px 5px; margin: 0px; text-align: center;\"><a style=\"margin-top: 0px; color: inherit;\" href=\"https://aonprd.com/SpellDisplay.aspx?ItemName=Telekinetic%20storm\"><em style=\"margin-top: 0px;\">Telekinetic storm</em></a></td>\n</tr>\n<tr>\n<td style=\"margin: 0px; border: 1px solid white; padding: 1px 5px; text-align: center;\">19-20</td>\n<td style=\"border: 1px solid white; padding: 1px 5px; margin: 0px; text-align: center;\"><a style=\"margin-top: 0px; color: inherit;\" href=\"https://aonprd.com/SpellDisplay.aspx?ItemName=Power%20word%20kill\"><em style=\"margin-top: 0px;\">Power word kill</em></a></td>\n</tr>\n</tbody>\n</table>\n<hr>\n<p><br style=\"color: #ffffff; font-family: 'Century Gothic', CenturyGothic, AppleGothic, sans-serif; font-size: 15px; background-color: #0f0f0f;\"><strong>Ability Scores:</strong> If the base creature had an Intelligence score of 9 or less, roll 2d6+4 to determine the enlightened construct’s new Intelligence score. If the base creature had an Intelligence score of 10 or greater, increase its Intelligence score by 6. Additionally, increase the enlightened construct’s Charisma score by 2d6.<br><br><strong>Feats:</strong> Since it has an Intelligence score, an enlightened construct gains feats as normal for a creature of its Hit Dice.<br><br><strong>Skills:</strong> An enlightened construct gains skill points according to its new Intelligence score, which are assigned appropriately for its function, as determined by the GM.<br><br><strong>Languages: </strong>An enlightened construct speaks one language that its creator spoke, plus a number of additional languages that its creator knew equal to the enlightened construct’s Intelligence bonus (if any). The enlightened construct can also communicate by telepathy up to a range of 100 feet.<br><br><strong>Special Qualities: </strong>An enlightened construct gains the following special qualities.<br><br><em>Artificial Soul (Su):</em> Though not the true soul of a living creature, the enlightened construct’s artificial soul provides it with a unique personality and a spark of sentience. Unlike most constructs, the enlightened construct is not immune to necromantic effects. Enlightened constructs are still immune to death effects and they cannot be raised or resurrected. Enlightened construct golems are still immune to magic as described in their entries.<br><br><em>Phrenic Stone (Su):</em> An enlightened construct has a stone infused with supernatural mental energy embedded into its head or chest that is the source of its awakened intellect. If an enlightened construct is destroyed but this phrenic stone remains intact, it can be used to create another enlightened construct, using the same cost as augmenting a new enlightened construct (see Construction below). When a phrenic stone is used to create a new enlightened construct, the personality and memories of the previous enlightened construct are lost. A phrenic stone has hardness 10, 20 hit points, and a break DC of 30.</p>",
      "chat": "",
      "unidentified": ""
    },
    "tags": [],
    "activation": {
      "cost": 1,
      "type": ""
    },
    "unchainedAction": {
      "activation": {
        "cost": 1,
        "type": ""
      }
    },
    "duration": {
      "value": null,
      "units": ""
    },
    "target": {
      "value": ""
    },
    "range": {
      "value": null,
      "units": "",
      "maxIncrements": 1,
      "minValue": null,
      "minUnits": "",
      "long": null
    },
    "uses": {
      "value": 0,
      "max": 0,
      "per": null,
      "autoDeductCharges": true,
      "autoDeductChargesCost": "1"
    },
    "measureTemplate": {
      "type": "",
      "size": "0",
      "overrideColor": false,
      "customColor": "",
      "overrideTexture": false,
      "customTexture": ""
    },
    "attackName": "",
    "actionType": "",
    "attackBonus": "",
    "critConfirmBonus": "",
    "damage": {
      "parts": [],
      "critParts": [],
      "nonCritParts": []
    },
    "attackParts": [],
    "formula": "",
    "ability": {
      "attack": null,
      "damage": null,
      "damageMult": 1,
      "critRange": 20,
      "critMult": 2
    },
    "save": {
      "dc": 0,
      "type": "",
      "description": ""
    },
    "effectNotes": "",
    "attackNotes": "",
    "soundEffect": "",
    "changes": [],
    "changeFlags": {
      "loseDexToAC": false,
      "noStr": false,
      "noDex": false,
      "oneInt": false,
      "oneWis": false,
      "oneCha": false,
      "noEncumbrance": false,
      "mediumArmorFullSpeed": false,
      "heavyArmorFullSpeed": false
    },
    "contextNotes": [],
    "links": {
      "children": [],
      "charges": []
    },
    "tag": "",
    "useCustomTag": false,
    "armorProf": {
      "value": [],
      "custom": ""
    },
    "weaponProf": {
      "value": [],
      "custom": ""
    },
    "featType": "template",
    "associations": {
      "classes": []
    },
    "showInQuickbar": false,
    "nonlethal": false,
    "abilityType": "none",
    "crOffset": "(@attributes.hd.total >= 11) ? 3 : ((@attributes.hd.total > 4 && @attributes.hd.total < 11) ? 2 : 1)",
    "attack": {
      "parts": []
    }
  },
  "flags": {},
  "img": "systems/pf1/icons/skills/violet_07.jpg",
  "effects": []
}