{
  "_id": "rhqQSn51sbKynq7Z",
  "name": "Recycled Construct",
  "permission": {
    "default": 0
  },
  "type": "feat",
  "data": {
    "description": {
      "value": "<p><strong>Acquired/Inherited Template</strong>&nbsp;Acquired<br><strong>Simple Template&nbsp;</strong>No<br><strong>Usable with Summons</strong>&nbsp;No<br><br>A skilled artificer can revitalize a ruined construct by jury-rigging the pieces left intact. The patchwork nature of a recycled construct renders it fragile and leaves key circuitry exposed. reducing its bonus hit points by 5.<br><br>“Recycled construct” is an acquired template that can be added to a construct with 3 or more Hit Dice made predominantly of solid material. A recycled construct uses all the base creature’s statistics and special abilities except as noted here.<br><br><strong>Challenge Rating: </strong>Base creature’s CR – 1.<br><br><strong>Defensive Abilities:</strong> Reduce any damage reduction or hardness by 5. Replace any immunity to magic with spell resistance equal to the base creature’s CR + 11. Any exceptions to the base creature’s immunity to magic automatically bypass the recycled construct’s spell resistance and function as described for the base creature.<br><br><strong>Weaknesses: </strong>A recycled construct gains the following weakness.<br><br><em>Malfunction (Ex):</em> A recycled construct that takes precision damage or extra damage from a critical hit becomes staggered for 1 round and immediately triggers a malfunction. To determine the nature of this malfunction, roll 1d10 and consult the table on page 52 (CL = the base creature’s HD; save DC = 10 + the base creature’s HD). A creature can use a move action to attempt a special Disable Device check before dealing precision damage to a recycled construct (DC = 20 + the base creature’s HD). On a success, the attacking creature can roll twice and choose the malfunction result.</p>\n<hr>\n<table class=\"inner\" style=\"border-color: white; color: #ffffff; font-family: 'Century Gothic', CenturyGothic, AppleGothic, sans-serif; font-size: 15px; background-color: #0f0f0f;\">\n<tbody style=\"margin-top: 0px;\">\n<tr style=\"margin-top: 0px;\">\n<td style=\"margin: 0px; border: 1px solid white; padding: 1px 5px; text-align: center;\"><strong style=\"margin-top: 0px;\">d10</strong></td>\n<td style=\"border: 1px solid white; padding: 1px 5px; margin: 0px; text-align: center;\"><strong style=\"margin-top: 0px;\">Malfunction</strong></td>\n</tr>\n<tr style=\"background: #3e3e3e;\">\n<td style=\"margin: 0px; border: 1px solid white; padding: 1px 5px; text-align: center;\">1</td>\n<td style=\"border: 1px solid white; padding: 1px 5px; margin: 0px; text-align: center;\">No additional effect</td>\n</tr>\n<tr>\n<td style=\"margin: 0px; border: 1px solid white; padding: 1px 5px; text-align: center;\">2</td>\n<td style=\"border: 1px solid white; padding: 1px 5px; margin: 0px; text-align: center;\">Sparks fly from the construct, dazzling each adjacent creature that can see it (Fortitude negates).</td>\n</tr>\n<tr style=\"background: #3e3e3e;\">\n<td style=\"margin: 0px; border: 1px solid white; padding: 1px 5px; text-align: center;\">3</td>\n<td style=\"border: 1px solid white; padding: 1px 5px; margin: 0px; text-align: center;\">The construct flails wildly, making one melee attack against each adjacent creature. If the construct is wielding only a ranged weapon, it uses that weapon as an improvised bludgeoning weapon.</td>\n</tr>\n<tr>\n<td style=\"margin: 0px; border: 1px solid white; padding: 1px 5px; text-align: center;\">4</td>\n<td style=\"border: 1px solid white; padding: 1px 5px; margin: 0px; text-align: center;\">The construct leaks lubricant, affecting itself and all adjacent squares as if with a&nbsp;<a style=\"margin-top: 0px; color: inherit;\" href=\"https://aonprd.com/SpellDisplay.aspx?ItemName=grease\"><em style=\"margin-top: 0px;\">grease</em></a>&nbsp;spell for 1d4+1 rounds.</td>\n</tr>\n<tr style=\"background: #3e3e3e;\">\n<td style=\"margin: 0px; border: 1px solid white; padding: 1px 5px; text-align: center;\">5</td>\n<td style=\"border: 1px solid white; padding: 1px 5px; margin: 0px; text-align: center;\">The attack causes the construct to seize violently, functioning as a free disarm combat maneuver check against the weapon that triggered the malfunction. On a success, the weapon is thrown 1d4×10 feet in a random direction. A natural weapon instead provokes a free grapple combat maneuver attempt against the attacking creature for 1 round. This malfunction has no effect on ammunition.</td>\n</tr>\n<tr>\n<td style=\"margin: 0px; border: 1px solid white; padding: 1px 5px; text-align: center;\">6</td>\n<td style=\"border: 1px solid white; padding: 1px 5px; margin: 0px; text-align: center;\">Acrid smoke, steam, or mist pours from the construct, as if from a&nbsp;<a style=\"margin-top: 0px; color: inherit;\" href=\"https://aonprd.com/SpellDisplay.aspx?ItemName=pyrotechnics\"><em style=\"margin-top: 0px;\">pyrotechnics</em></a>&nbsp;smoke cloud.</td>\n</tr>\n<tr style=\"background: #3e3e3e;\">\n<td style=\"margin: 0px; border: 1px solid white; padding: 1px 5px; text-align: center;\">7</td>\n<td style=\"border: 1px solid white; padding: 1px 5px; margin: 0px; text-align: center;\">Shrapnel explodes from the construct in all directions, dealing 1d6 points of slashing damage per Hit Die of the construct to each creature within 20 feet (Reflex half).</td>\n</tr>\n<tr>\n<td style=\"margin: 0px; border: 1px solid white; padding: 1px 5px; text-align: center;\">8</td>\n<td style=\"border: 1px solid white; padding: 1px 5px; margin: 0px; text-align: center;\">The construct emits an earsplitting screech, deafening all creatures within 20 feet (Fortitude negates).</td>\n</tr>\n<tr style=\"background: #3e3e3e;\">\n<td style=\"margin: 0px; border: 1px solid white; padding: 1px 5px; text-align: center;\">9</td>\n<td style=\"border: 1px solid white; padding: 1px 5px; margin: 0px; text-align: center;\">Disruptive energy pulses from the construct, functioning as&nbsp;<a style=\"margin-top: 0px; color: inherit;\" href=\"https://aonprd.com/SpellDisplay.aspx?ItemName=dispel%20magic\"><em style=\"margin-top: 0px;\">dispel magic</em></a>&nbsp;targeting every creature within 20 feet.</td>\n</tr>\n<tr>\n<td style=\"margin: 0px; border: 1px solid white; padding: 1px 5px; text-align: center;\">10</td>\n<td style=\"border: 1px solid white; padding: 1px 5px; margin: 0px; text-align: center;\">The construct goes berserk, as a&nbsp;<a style=\"margin-top: 0px; color: inherit;\" href=\"https://aonprd.com/MonsterDisplay.aspx?ItemName=Clay%20Golem\">clay golem</a>.</td>\n</tr>\n</tbody>\n</table>\n<hr>\n<p><br><strong>Attacks:</strong> If the base creature has more than one natural attack, remove one natural attack. The creator can replace the lost attack with a light, one-handed, or ranged weapon of at least masterwork quality and a size appropriate for the base creature.</p>",
      "chat": "",
      "unidentified": ""
    },
    "tags": [],
    "activation": {
      "cost": 1,
      "type": ""
    },
    "unchainedAction": {
      "activation": {
        "cost": 1,
        "type": ""
      }
    },
    "duration": {
      "value": null,
      "units": ""
    },
    "target": {
      "value": ""
    },
    "range": {
      "value": null,
      "units": "",
      "maxIncrements": 1,
      "minValue": null,
      "minUnits": "",
      "long": null
    },
    "uses": {
      "value": 0,
      "max": 0,
      "per": null,
      "autoDeductCharges": true,
      "autoDeductChargesCost": "1"
    },
    "measureTemplate": {
      "type": "",
      "size": "0",
      "overrideColor": false,
      "customColor": "",
      "overrideTexture": false,
      "customTexture": ""
    },
    "attackName": "",
    "actionType": "",
    "attackBonus": "",
    "critConfirmBonus": "",
    "damage": {
      "parts": [],
      "critParts": [],
      "nonCritParts": []
    },
    "attackParts": [],
    "formula": "",
    "ability": {
      "attack": null,
      "damage": null,
      "damageMult": 1,
      "critRange": 20,
      "critMult": 2
    },
    "save": {
      "dc": 0,
      "type": "",
      "description": ""
    },
    "effectNotes": "",
    "attackNotes": "",
    "soundEffect": "",
    "changes": [],
    "changeFlags": {
      "loseDexToAC": false,
      "noStr": false,
      "noDex": false,
      "oneInt": false,
      "oneWis": false,
      "oneCha": false,
      "noEncumbrance": false,
      "mediumArmorFullSpeed": false,
      "heavyArmorFullSpeed": false
    },
    "contextNotes": [],
    "links": {
      "children": [],
      "charges": []
    },
    "tag": "",
    "useCustomTag": false,
    "armorProf": {
      "value": [],
      "custom": ""
    },
    "weaponProf": {
      "value": [],
      "custom": ""
    },
    "featType": "template",
    "associations": {
      "classes": []
    },
    "showInQuickbar": false,
    "nonlethal": false,
    "abilityType": "none",
    "crOffset": "-1",
    "attack": {
      "parts": []
    }
  },
  "flags": {},
  "img": "systems/pf1/icons/skills/violet_07.jpg",
  "effects": []
}