{
  "_id": "9CyU0311Ga0lFkDr",
  "name": "Shadowbound Creature",
  "permission": {
    "default": 0
  },
  "type": "feat",
  "data": {
    "description": {
      "value": "<p><strong>Acquired/Inherited Template</strong>&nbsp;Acquired<br><strong>Simple Template</strong>&nbsp;Yes<br><strong>Usable with Summons&nbsp;</strong>No<br><br>A shadowbound creature has lost its color and capacity for joy and pleasure.&nbsp;Quick Rules: darkvision 120 ft.; +1 to AC; +2 on rolls based on Con; +2 hp/HD; light blindness; can’t gain morale bonuses; regretful gaze (shaken 1 round, 30 ft., Will save negates, DC = 10 + 1/2 HD + Cha modifier); after taking 3 points of damage per HD in a single attack, gain a +2 profane bonus on attack rolls, damage rolls, saving throws, and skill checks for 1 round.<br><br><strong>Rebuild Rules:</strong>&nbsp;</p>\n<p><strong>Senses&nbsp;</strong>darkvision 120 ft.;&nbsp;</p>\n<p><strong>AC&nbsp;</strong>gain a deflection bonus to AC equal to 1/4 CR (minimum 1);&nbsp;</p>\n<p><strong>Weaknesses&nbsp;</strong>light blindness, can’t gain morale bonuses;&nbsp;</p>\n<p><strong>Special Attacks&nbsp;</strong>regretful gaze (shaken 1 round, 30 ft., Will negates, DC = 10 + 1/2 HD + Cha modifier); after taking 3 points of damage per HD in a single attack, gain a +2 profane bonus on attack rolls, damage rolls, saving throws, and skill checks for 1 round;</p>\n<p><strong>Ability Scores </strong>+4 Con.</p>",
      "chat": "",
      "unidentified": ""
    },
    "tags": [],
    "activation": {
      "cost": 1,
      "type": ""
    },
    "unchainedAction": {
      "activation": {
        "cost": 1,
        "type": ""
      }
    },
    "duration": {
      "value": null,
      "units": ""
    },
    "target": {
      "value": ""
    },
    "range": {
      "value": null,
      "units": "",
      "maxIncrements": 1,
      "minValue": null,
      "minUnits": "",
      "long": null
    },
    "uses": {
      "value": 0,
      "max": 0,
      "per": null,
      "autoDeductCharges": true,
      "autoDeductChargesCost": "1"
    },
    "measureTemplate": {
      "type": "",
      "size": "0",
      "overrideColor": false,
      "customColor": "",
      "overrideTexture": false,
      "customTexture": ""
    },
    "attackName": "",
    "actionType": "",
    "attackBonus": "",
    "critConfirmBonus": "",
    "damage": {
      "parts": [],
      "critParts": [],
      "nonCritParts": []
    },
    "attackParts": [],
    "formula": "",
    "ability": {
      "attack": null,
      "damage": null,
      "damageMult": 1,
      "critRange": 20,
      "critMult": 2
    },
    "save": {
      "dc": 0,
      "type": "",
      "description": ""
    },
    "effectNotes": "",
    "attackNotes": "",
    "soundEffect": "",
    "changes": [
      {
        "_id": "us3qj1su",
        "formula": "max(1, floor(@details.cr.total/4))",
        "operator": "+",
        "target": "ac",
        "subTarget": "ac",
        "modifier": "deflection",
        "priority": 0,
        "value": 0
      },
      {
        "_id": "5ab9w1cd",
        "formula": "4",
        "operator": "+",
        "target": "ability",
        "subTarget": "con",
        "modifier": "untyped",
        "priority": 0,
        "value": 0
      }
    ],
    "changeFlags": {
      "loseDexToAC": false,
      "noStr": false,
      "noDex": false,
      "oneInt": false,
      "oneWis": false,
      "oneCha": false,
      "noEncumbrance": false,
      "mediumArmorFullSpeed": false,
      "heavyArmorFullSpeed": false
    },
    "contextNotes": [],
    "links": {
      "children": [],
      "charges": []
    },
    "tag": "",
    "useCustomTag": false,
    "armorProf": {
      "value": [],
      "custom": ""
    },
    "weaponProf": {
      "value": [],
      "custom": ""
    },
    "featType": "template",
    "associations": {
      "classes": []
    },
    "showInQuickbar": false,
    "nonlethal": false,
    "abilityType": "none",
    "crOffset": "1",
    "attack": {
      "parts": []
    }
  },
  "flags": {},
  "img": "systems/pf1/icons/skills/violet_07.jpg",
  "effects": []
}