{
  "_id": "sMHXS804w3UdTVKH",
  "name": "Triaxian",
  "permission": {
    "default": 0
  },
  "type": "race",
  "data": {
    "description": {
      "value": "<h2>Standard Racial Traits</h2>\n<ul>\n<li style=\"box-sizing: border-box;\"><span style=\"box-sizing: border-box; font-weight: bold;\">Ability Score Modifiers</span>&nbsp;Triaxians are a hardy and wily race, as befits their constantly changing environment, but their lean forms have trouble maintaining large amounts of muscle mass. They gain +2&nbsp;<a href=\"https://www.d20pfsrd.com/basics-ability-scores/ability-scores#TOC-Constitution-Con-\">Constitution</a>, +2&nbsp;<a href=\"https://www.d20pfsrd.com/basics-ability-scores/ability-scores#TOC-Wisdom-Wis-\">Wisdom</a>, –2&nbsp;<a href=\"https://www.d20pfsrd.com/basics-ability-scores/ability-scores#TOC-Strength-Str-\">Strength</a></li>\n<li style=\"box-sizing: border-box;\"><span style=\"box-sizing: border-box; font-weight: bold;\">Size</span>: Triaxians are Medium creatures and have no bonuses or penalties due to their size.</li>\n<li style=\"box-sizing: border-box;\"><span style=\"box-sizing: border-box; font-weight: bold;\">Speed</span>: Triaxians have a base speed of 30 ft.</li>\n<li style=\"box-sizing: border-box;\"><span style=\"box-sizing: border-box; font-weight: bold;\">Languages</span>: Triaxians speak Triaxian. Triaxians with high&nbsp;<a href=\"https://www.d20pfsrd.com/basics-ability-scores/ability-scores#TOC-Intelligence-Int-\">Intelligence</a>&nbsp;scores can choose any languages (except secret languages, such as Druidic).</li>\n<li><strong>Bonus Feat:</strong> Triaxians select one extra feat at 1st level.</li>\n</ul>\n<h3>Senses</h3>\n<ul>\n<li><strong>Low-Light Vision:</strong> Triaxians can see twice as far as humans in dim light.</li>\n</ul>\n<h3>Skill Racial Abilities</h3>\n<ul>\n<li><strong>Keen Senses:</strong> Triaxians’ unique ear construction grants them a +2 bonus on&nbsp;<a href=\"https://www.d20pfsrd.com/skills/perception\">Perception</a> checks.</li>\n</ul>\n<h3>Other Racial Traits</h3>\n<ul>\n<li><strong>Seasoned (Ex)</strong>&nbsp;Choose summer or winter. If summer is chosen, the triaxian can exist comfortably in conditions between 90 and 110 degrees Fahrenheit without having to attempt&nbsp;<a href=\"https://www.d20pfsrd.com/gamemastering/combat#TOC-Fortitude\">Fortitude</a>&nbsp;saves due to the environment. If winter is chosen, the triaxian can exist comfortably in conditions between 40 and 0 degrees Fahrenheit without having to attempt&nbsp;<a href=\"https://www.d20pfsrd.com/gamemastering/combat#TOC-Fortitude\">Fortitude</a>&nbsp;saves. When in conditions of severe cold or heat, Triaxians have to attempt&nbsp;<a href=\"https://www.d20pfsrd.com/gamemastering/combat#TOC-Fortitude\">Fortitude</a>&nbsp;saves only once per hour instead of once every 10 minutes. Transitional Triaxians do not have this ability.</li>\n</ul>",
      "chat": "",
      "unidentified": ""
    },
    "tags": [],
    "changes": [
      {
        "_id": "zdvycq07",
        "formula": "2",
        "operator": "+",
        "target": "ability",
        "subTarget": "con",
        "modifier": "racial",
        "priority": 0,
        "value": 0
      },
      {
        "_id": "4p2gqgch",
        "formula": "2",
        "operator": "+",
        "target": "ability",
        "subTarget": "wis",
        "modifier": "racial",
        "priority": 0,
        "value": 0
      },
      {
        "_id": "vow0ptat",
        "formula": "-2",
        "operator": "+",
        "target": "ability",
        "subTarget": "str",
        "modifier": "racial",
        "priority": 0,
        "value": 0
      },
      {
        "_id": "d2jkq9od",
        "formula": "2",
        "operator": "+",
        "target": "skill",
        "subTarget": "skill.per",
        "modifier": "racial",
        "priority": 0,
        "value": 0
      }
    ],
    "changeFlags": {
      "loseDexToAC": false,
      "noStr": false,
      "noDex": false,
      "oneInt": false,
      "oneWis": false,
      "oneCha": false,
      "noEncumbrance": false,
      "mediumArmorFullSpeed": false,
      "heavyArmorFullSpeed": false
    },
    "contextNotes": [],
    "links": {
      "children": []
    },
    "armorProf": {
      "value": [],
      "custom": ""
    },
    "weaponProf": {
      "value": [],
      "custom": ""
    },
    "creatureType": "humanoid",
    "subTypes": [
      [
        "Triaxian"
      ]
    ],
    "damage": {
      "parts": []
    }
  },
  "flags": {},
  "img": "systems/pf1/icons/skills/blue_37.jpg",
  "effects": []
}