{
  "_id": "ULs1jzXVbMt9magg",
  "name": "Glaive-Guisarme",
  "permission": {
    "default": 0
  },
  "type": "weapon",
  "data": {
    "description": {
      "value": "<p><em>This polearm combines the blade of a glaive with a wicked hook.</em></p>\n<p>A mounted opponent hit by a glaive-guisarme takes a –2 penalty on her&nbsp;<a href=\"https://www.d20pfsrd.com/skills/ride/\">Ride</a>&nbsp;check to stay mounted.</p>",
      "chat": "",
      "unidentified": ""
    },
    "tags": [],
    "quantity": 1,
    "weight": 10,
    "price": 12,
    "identified": true,
    "hp": {
      "max": 10,
      "value": 10
    },
    "hardness": 5,
    "carried": true,
    "unidentified": {
      "price": 0,
      "name": ""
    },
    "identifiedName": "",
    "cl": 0,
    "aura": {
      "custom": false,
      "school": ""
    },
    "changes": [],
    "changeFlags": {
      "loseDexToAC": false,
      "noStr": false,
      "noDex": false,
      "oneInt": false,
      "oneWis": false,
      "oneCha": false,
      "noEncumbrance": false,
      "mediumArmorFullSpeed": false,
      "heavyArmorFullSpeed": false
    },
    "contextNotes": [],
    "links": {
      "children": []
    },
    "equipped": true,
    "masterwork": false,
    "weaponType": "martial",
    "weaponSubtype": "2h",
    "properties": {
      "blc": false,
      "brc": true,
      "dbl": false,
      "dis": false,
      "fin": false,
      "frg": false,
      "imp": false,
      "mnk": false,
      "nnl": false,
      "prf": false,
      "rch": true,
      "thr": false,
      "trp": false
    },
    "enh": null,
    "weaponData": {
      "damageRoll": "1d10",
      "damageType": "S",
      "critRange": "20",
      "critMult": "2",
      "range": null,
      "attackFormula": "",
      "damageFormula": "",
      "size": "med",
      "maxRangeIncrements": 1
    },
    "broken": false,
    "bonus": {
      "value": 0,
      "_deprecated": true
    },
    "damageType": {
      "value": "",
      "_deprecated": true
    },
    "damage2": {
      "value": "",
      "_deprecated": true
    },
    "damage2Type": {
      "value": "",
      "_deprecated": true
    },
    "damage": {
      "parts": []
    }
  },
  "flags": {},
  "img": "systems/pf1/icons/items/weapons/glaive-guisarme.png",
  "effects": []
}