{
  "_id": "pSUwFnrg0b07Jcdf",
  "name": "Planson",
  "permission": {
    "default": 0
  },
  "type": "weapon",
  "data": {
    "description": {
      "value": "<p><em>This 5-foot tapered pole is bound in metal with a narrow metal spike projecting from the top. The planson can be used as a&nbsp;<a href=\"https://www.d20pfsrd.com/equipment/weapons/weapon-descriptions/club\">club</a>&nbsp;or as a sturdy, if top-heavy,&nbsp;<a href=\"https://www.d20pfsrd.com/equipment/weapons/weapon-descriptions/spear\">spear</a>&nbsp;to stop a charge.</em></p>",
      "chat": "",
      "unidentified": ""
    },
    "tags": [],
    "quantity": 1,
    "weight": 10,
    "price": 10,
    "identified": true,
    "hp": {
      "max": 10,
      "value": 10
    },
    "hardness": 5,
    "carried": true,
    "unidentified": {
      "price": 0,
      "name": ""
    },
    "identifiedName": "",
    "cl": 0,
    "aura": {
      "custom": false,
      "school": ""
    },
    "changes": [],
    "changeFlags": {
      "loseDexToAC": false,
      "noStr": false,
      "noDex": false,
      "oneInt": false,
      "oneWis": false,
      "oneCha": false,
      "noEncumbrance": false,
      "mediumArmorFullSpeed": false,
      "heavyArmorFullSpeed": false
    },
    "contextNotes": [],
    "links": {
      "children": []
    },
    "equipped": true,
    "masterwork": false,
    "weaponType": "martial",
    "weaponSubtype": "2h",
    "properties": {
      "blc": false,
      "brc": true,
      "dbl": false,
      "dis": false,
      "fin": false,
      "frg": false,
      "imp": false,
      "mnk": false,
      "nnl": false,
      "prf": false,
      "rch": false,
      "thr": false,
      "trp": false
    },
    "enh": null,
    "weaponData": {
      "damageRoll": "1d10",
      "damageType": "B or P",
      "critRange": "20",
      "critMult": "2",
      "range": null,
      "attackFormula": "",
      "damageFormula": "",
      "size": "med",
      "maxRangeIncrements": 1
    },
    "broken": false,
    "bonus": {
      "value": 0,
      "_deprecated": true
    },
    "damageType": {
      "value": "",
      "_deprecated": true
    },
    "damage2": {
      "value": "",
      "_deprecated": true
    },
    "damage2Type": {
      "value": "",
      "_deprecated": true
    },
    "damage": {
      "parts": []
    }
  },
  "flags": {},
  "img": "systems/pf1/icons/items/weapons/planson.png",
  "effects": []
}