{
  "_id": "u0m62wkXRMySE1eY",
  "name": "Thistle Arrow",
  "permission": {
    "default": 0
  },
  "type": "loot",
  "data": {
    "description": {
      "value": "<p>These arrows are a specialty of the Ekujae shamans, who craft the arrowheads out of the thistles of a toxic plant that most creatures find highly caustic. They deal normal damage but then become embedded in the wound and deal an additional 1 point of damage each round for 1d6 rounds from their irritating sap. Creatures immune to poison are immune to this extra damage. A creature can remove an embedded thistle arrow as a move action without provoking attacks of opportunity, but doing so deals an additional 1d3 points of damage as the thorny barbs are pulled free. A DC 12 Heal check (made as a standard action) can pull free a thistle arrow’s head without dealing any additional damage. A single thistle arrow costs 1 gp.</p>",
      "chat": "",
      "unidentified": ""
    },
    "tags": [],
    "quantity": 1,
    "weight": 0.15,
    "price": 1,
    "identified": true,
    "hp": {
      "max": 1,
      "value": 1
    },
    "hardness": 5,
    "carried": true,
    "unidentified": {
      "price": 0,
      "name": ""
    },
    "identifiedName": "Thistle Arrow",
    "cl": 0,
    "aura": {
      "custom": false,
      "school": ""
    },
    "changes": [],
    "changeFlags": {
      "loseDexToAC": false,
      "noStr": false,
      "noDex": false,
      "oneInt": false,
      "oneWis": false,
      "oneCha": false,
      "noEncumbrance": false,
      "mediumArmorFullSpeed": false,
      "heavyArmorFullSpeed": false
    },
    "contextNotes": [],
    "links": {
      "children": []
    },
    "subType": "ammo",
    "equipped": false,
    "damage": {
      "parts": [],
      "critParts": []
    }
  },
  "flags": {},
  "img": "systems/pf1/icons/items/weapons/arrow-special.PNG",
  "effects": []
}