{
  "_id": "tnrkkixraxbzsgce",
  "name": "Hourglass",
  "permission": {
    "default": 0
  },
  "type": "loot",
  "data": {
    "description": {
      "value": "\r\n<table border=\"1\" cellpadding=\"5\">\r\n<thead>\r\n<tr>\r\n<th class=\"text\">Type</th>\r\n<th class=\"text\">Price</th>\r\n<th class=\"text\">Weight</th>\r\n</tr>\r\n</thead>\r\n<tbody>\r\n<tr>\r\n<td class=\"text\">1 hour</td>\r\n<td class=\"money number\">25 gp</td>\r\n<td class=\"text\">1 lb.</td>\r\n</tr>\r\n<tr>\r\n<td class=\"text\">1 minute</td>\r\n<td class=\"money number\">20 gp</td>\r\n<td class=\"text\">1/2 lb.</td>\r\n</tr>\r\n<tr>\r\n<td class=\"text\">6 seconds</td>\r\n<td class=\"money number\">10 gp</td>\r\n<td class=\"marker\">&#8211;</td>\r\n</tr>\r\n</tbody>\r\n</table>\r\n<p>The standard hourglass takes 1 hour to empty the sand from the upper chamber; larger and smaller timers exist which mark off time in increments as short as 6 seconds.</p>\r\n\r\n",
      "chat": "",
      "unidentified": ""
    },
    "tags": [],
    "quantity": 1,
    "weight": 0,
    "price": 0,
    "identified": true,
    "hp": {
      "max": 10,
      "value": 10
    },
    "hardness": 0,
    "carried": true,
    "unidentified": {
      "price": 0,
      "name": ""
    },
    "identifiedName": "",
    "cl": 0,
    "aura": {
      "custom": false,
      "school": ""
    },
    "changes": [],
    "changeFlags": {
      "loseDexToAC": false,
      "noStr": false,
      "noDex": false,
      "oneInt": false,
      "oneWis": false,
      "oneCha": false,
      "noEncumbrance": false,
      "mediumArmorFullSpeed": false,
      "heavyArmorFullSpeed": false
    },
    "contextNotes": [],
    "links": {
      "children": []
    },
    "tag": "",
    "useCustomTag": false,
    "subType": "gear",
    "equipped": false,
    "damage": {
      "parts": []
    }
  },
  "flags": {},
  "img": "systems/pf1/icons/items/inventory/dice.jpg",
  "effects": []
}