{
  "_id": "ootkkdzkeouimwre",
  "name": "Kit, Tracker's",
  "permission": {
    "default": 0
  },
  "type": "loot",
  "data": {
    "description": {
      "value": "\r\n<p class=\"source\"><b>Source</b>: <a title=\"PZO9434\" href=\"http://www.amazon.com/gp/product/1601255268/ref=as_li_qf_sp_asin_il_tl?ie=UTF8&amp;camp=1789&amp;creative=9325&amp;creativeASIN=1601255268&amp;linkCode=as2&amp;tag=httpwwwd20pfs-20&amp;linkId=7EXQGV2FQUCT7FFS\" target=\"_blank\" rel=\"noopener\">PZO9434</a></p>\r\n<p><b>Price</b> 563 gp; <b>Weight</b> 33 lbs.</p>\r\n<p>The exact location of a <a href=\"https://www.d20pfsrd.com/bestiary/rules-for-monsters/creature-types#TOC-Dragon\">dragon's</a> lair must sometimes be learned through exploration. This kit provides tools helpful in tracking a <a href=\"https://www.d20pfsrd.com/bestiary/rules-for-monsters/creature-types#TOC-Dragon\">dragon</a> back to its lair and includes an area map, a climber's kit, an elixir of swimming, an everburning torch, a footprint book, a grappling hook, a hammer, eight pitons, four sacks, and 100 feet of silk rope.</p>\r\n\r\n",
      "chat": "",
      "unidentified": ""
    },
    "tags": [],
    "quantity": 1,
    "weight": 33,
    "price": 563,
    "identified": true,
    "hp": {
      "max": 10,
      "value": 10
    },
    "hardness": 0,
    "carried": true,
    "unidentified": {
      "price": 0,
      "name": ""
    },
    "identifiedName": "",
    "cl": 0,
    "aura": {
      "custom": false,
      "school": ""
    },
    "changes": [],
    "changeFlags": {
      "loseDexToAC": false,
      "noStr": false,
      "noDex": false,
      "oneInt": false,
      "oneWis": false,
      "oneCha": false,
      "noEncumbrance": false,
      "mediumArmorFullSpeed": false,
      "heavyArmorFullSpeed": false
    },
    "contextNotes": [],
    "links": {
      "children": []
    },
    "tag": "",
    "useCustomTag": false,
    "subType": "gear",
    "equipped": false,
    "damage": {
      "parts": []
    }
  },
  "flags": {},
  "img": "systems/pf1/icons/items/inventory/dice.jpg",
  "effects": []
}