{
  "_id": "qydsjbxkjjhnobah",
  "name": "Kit, Trapper's",
  "permission": {
    "default": 0
  },
  "type": "loot",
  "data": {
    "description": {
      "value": "\r\n<p class=\"source\"><b>Source</b>: <a title=\"PZO9430\" href=\"http://www.amazon.com/gp/product/1601255101/ref=as_li_qf_sp_asin_il_tl?ie=UTF8&amp;camp=1789&amp;creative=9325&amp;creativeASIN=1601255101&amp;linkCode=as2&amp;tag=httpwwwd20pfs-20\" target=\"_blank\" rel=\"noopener\">PZO9430</a></p>\r\n<p><b>Price</b> 263 gp; <b>Weight</b> 90 lbs.</p>\r\n<p>This kit is particularly useful for dungeon explorers who specialize in trapping or taming whatever vile quarry they find. A trapper's kit contains an average lock, a <a href=\"https://www.d20pfsrd.com/bestiary/monster-listings/animals/bear\">bear</a> <a href=\"https://www.d20pfsrd.com/gamemastering/traps-hazards-and-special-terrains/traps/\">trap</a>, a container of bone paste, a Small cage, a set of manacles, a bag of marbles, 50 feet of silk rope, two <a href=\"https://www.d20pfsrd.com/equipment/goods-and-services#TOC-Tanglefoot-Bag\">tanglefoot bags</a>, 50 feet of twine, and a wire</p>\r\n\r\n",
      "chat": "",
      "unidentified": ""
    },
    "tags": [],
    "quantity": 1,
    "weight": 90,
    "price": 263,
    "identified": true,
    "hp": {
      "max": 10,
      "value": 10
    },
    "hardness": 0,
    "carried": true,
    "unidentified": {
      "price": 0,
      "name": ""
    },
    "identifiedName": "",
    "cl": 0,
    "aura": {
      "custom": false,
      "school": ""
    },
    "changes": [],
    "changeFlags": {
      "loseDexToAC": false,
      "noStr": false,
      "noDex": false,
      "oneInt": false,
      "oneWis": false,
      "oneCha": false,
      "noEncumbrance": false,
      "mediumArmorFullSpeed": false,
      "heavyArmorFullSpeed": false
    },
    "contextNotes": [],
    "links": {
      "children": []
    },
    "tag": "",
    "useCustomTag": false,
    "subType": "gear",
    "equipped": false,
    "damage": {
      "parts": []
    }
  },
  "flags": {},
  "img": "systems/pf1/icons/items/inventory/dice.jpg",
  "effects": []
}