{
  "_id": "vndvdxjufqkkonjf",
  "name": "Kit, Courtesan's",
  "permission": {
    "default": 0
  },
  "type": "loot",
  "data": {
    "description": {
      "value": "\r\n<p class=\"source\"><b>Source</b>: <a title=\"PZO1129\" href=\"http://www.amazon.com/gp/product/160125671X/ref=as_li_qf_sp_asin_il_tl?ie=UTF8&amp;camp=1789&amp;creative=9325&amp;creativeASIN=160125671X&amp;linkCode=as2&amp;tag=httpwwwd20pfs-20&amp;linkId=HSOKQ6X2XAS2GTU6\" target=\"_blank\" rel=\"noopener\">PZO1129</a></p>\r\n<p><b>Price</b> 10 gp; <b>Weight</b> 5 lbs.</p>\r\n<p>This kit contains items to assist a courtesan in soothing the body and mind. For the body, the kit contains a razor, scented oils and salves, fragrances, a warming pot, and a variety of appealing outfits. Books of poetry, literature, and plays-often focusing on salacious topics and full of double entendres-entertain the mind.</p>\r\n\r\n",
      "chat": "",
      "unidentified": ""
    },
    "tags": [],
    "quantity": 1,
    "weight": 5,
    "price": 10,
    "identified": true,
    "hp": {
      "max": 10,
      "value": 10
    },
    "hardness": 0,
    "carried": true,
    "unidentified": {
      "price": 0,
      "name": ""
    },
    "identifiedName": "",
    "cl": 0,
    "aura": {
      "custom": false,
      "school": ""
    },
    "changes": [],
    "changeFlags": {
      "loseDexToAC": false,
      "noStr": false,
      "noDex": false,
      "oneInt": false,
      "oneWis": false,
      "oneCha": false,
      "noEncumbrance": false,
      "mediumArmorFullSpeed": false,
      "heavyArmorFullSpeed": false
    },
    "contextNotes": [],
    "links": {
      "children": []
    },
    "tag": "",
    "useCustomTag": false,
    "subType": "gear",
    "equipped": false,
    "damage": {
      "parts": []
    }
  },
  "flags": {},
  "img": "systems/pf1/icons/items/inventory/dice.jpg",
  "effects": []
}