{
  "_id": "subxvzzmuiihjhdf",
  "name": "Lab, Alchemist's",
  "permission": {
    "default": 0
  },
  "type": "loot",
  "data": {
    "description": {
      "value": "\r\n<p><b>Price</b> 200 gp; <b>Weight</b> 40 lbs.</p>\r\n<p>This lab is used for making alchemical items, and provides a +2 <a href=\"https://www.d20pfsrd.com/basics-ability-scores/glossary#TOC-Circumstance-Bonus\">circumstance bonus</a> on <a href=\"https://www.d20pfsrd.com/skills/craft\">Craft</a> (alchemy) checks. It has no bearing on the costs related to the <a href=\"https://www.d20pfsrd.com/skills/craft\">Craft</a> (alchemy) skill. Without this lab, a character with the <a href=\"https://www.d20pfsrd.com/skills/craft\">Craft</a> (alchemy) skill is assumed to have enough tools to use the skill but not enough to get the +2 bonus that the lab provides.</p>\r\n<ul>\r\n<li><i>Portable alchemist's lab</i>: This compact version of a full-sized alchemist's lab provides a +1 <a href=\"https://www.d20pfsrd.com/basics-ability-scores/glossary#TOC-Circumstance-Bonus\">circumstance bonus</a> on <a href=\"https://www.d20pfsrd.com/skills/craft\">Craft</a> (alchemy) checks.</li>\r\n</ul>\r\n<p><b>Portable alchemist's lab Price</b> 75 gp; <b>Weight</b> 20 lbs.</p>\r\n<p>Other Alchemical Tools</p>\r\n<p class=\"source\"><b>Source</b>: <a title=\"PZO9445\" href=\"http://www.amazon.com/gp/product/1601256051/ref=as_li_qf_sp_asin_il_tl?ie=UTF8&amp;camp=1789&amp;creative=9325&amp;creativeASIN=1601256051&amp;linkCode=as2&amp;tag=httpwwwd20pfs-20\" target=\"_blank\" rel=\"noopener\">PZO9445</a></p>\r\n<ul>\r\n<li><i><a name=\"crucible\"></a>Crucible</i> <b>Price</b> 20 gp; <b>Weight</b> 30 lbs. <b>Description</b> A crucible is a type of vessel that can be heated to extreme temperatures for the purpose of inducing special alchemical reactions. A portable crucible is a cylinder 12 inches tall and 18 inches in diameter that weighs 3 pounds; it has the same price as a full-sized crucible. Use of a crucible requires a heat source.</li>\r\n<li><i><a name=\"filter\"></a>Filter</i> <b>Price</b> 5 sp; <b>Weight</b> 1/2 lb. <b>Description</b> A specialized paper filter is used in alchemy because it can be adjusted to capture different substances according to the type of reagents used to prime it. Alchemical filters are single-use only.</li>\r\n<li><i><a name=\"retort\"></a>Retort</i> <b>Price</b> 2 gp; <b>Weight</b> 1/2 lb. <b>Description</b> A retort is a pair of flasks attached to one another by a bent connector called an alembic. When one flask is heated, gaseous products pass through the alembic and condense in the other flask.</li>\r\n</ul>\r\n\r\n",
      "chat": "",
      "unidentified": ""
    },
    "tags": [],
    "quantity": 1,
    "weight": 40,
    "price": 200,
    "identified": true,
    "hp": {
      "max": 10,
      "value": 10
    },
    "hardness": 0,
    "carried": true,
    "unidentified": {
      "price": 0,
      "name": ""
    },
    "identifiedName": "",
    "cl": 0,
    "aura": {
      "custom": false,
      "school": ""
    },
    "changes": [],
    "changeFlags": {
      "loseDexToAC": false,
      "noStr": false,
      "noDex": false,
      "oneInt": false,
      "oneWis": false,
      "oneCha": false,
      "noEncumbrance": false,
      "mediumArmorFullSpeed": false,
      "heavyArmorFullSpeed": false
    },
    "contextNotes": [],
    "links": {
      "children": []
    },
    "tag": "",
    "useCustomTag": false,
    "subType": "gear",
    "equipped": false,
    "damage": {
      "parts": []
    }
  },
  "flags": {},
  "img": "systems/pf1/icons/items/inventory/dice.jpg",
  "effects": []
}