{
  "_id": "lyllgnjptqpfqxlx",
  "name": "Rations, Halfling Trail",
  "permission": {
    "default": 0
  },
  "type": "loot",
  "data": {
    "description": {
      "value": "<h4><span id=\"Rations_Halfling_Trail\"><a name=\"TOC-Rations-Halfling-Trail\"></a>Rations, Halfling Trail</span></h4>\r\n<p><b>Price</b> 1 sp; <b>Weight</b> 1/2 lb.</p>\r\n<p>A day's worth of halfling trail rations is actually more than what a typical adventuring halfling eats in a day-a full belly strengthens a halfling's resolve. Common foods include sweetened dried fruit, aged sausage, hard sharp cheese, honey cakes, and a mixture of roasted grains, nuts, and molasses. If you are a halfling who subsists on nothing but these rations for at least 1 week, you reduce the penalty for the shaken condition from -2 to -1. This benefit lasts until you eat a meal other than the rations or go for a full day without eating a day's worth.</p>\r\n",
      "chat": "",
      "unidentified": ""
    },
    "tags": [],
    "quantity": 1,
    "weight": 0.5,
    "price": 0.1,
    "identified": true,
    "hp": {
      "max": 10,
      "value": 10
    },
    "hardness": 0,
    "carried": true,
    "unidentified": {
      "price": 0,
      "name": ""
    },
    "identifiedName": "Rations, Halfling Trail",
    "cl": 0,
    "aura": {
      "custom": false,
      "school": ""
    },
    "changes": [],
    "changeFlags": {
      "loseDexToAC": false,
      "noStr": false,
      "noDex": false,
      "oneInt": false,
      "oneWis": false,
      "oneCha": false,
      "noEncumbrance": false,
      "mediumArmorFullSpeed": false,
      "heavyArmorFullSpeed": false
    },
    "contextNotes": [],
    "links": {
      "children": []
    },
    "tag": "",
    "useCustomTag": false,
    "subType": "gear",
    "equipped": false,
    "damage": {
      "parts": []
    }
  },
  "flags": {},
  "img": "systems/pf1/icons/items/inventory/meat.jpg",
  "effects": []
}