{
  "_id": "swpcdhkuepvxknsb",
  "name": "Skates, Ice",
  "permission": {
    "default": 0
  },
  "type": "loot",
  "data": {
    "description": {
      "value": " \n<p><b>Price</b> 1 gp; <b>Weight</b> 2 lbs.</p> \n<p>Each of these calf-high boots bears a vertical blade on the bottom, allowing you to travel swiftly on ice. Wearing ice skates allows you to move on ice at normal speed with a successful DC 5 <a href=\"https://www.d20pfsrd.com/skills/acrobatics\">Acrobatics</a> check (including running and charging), but your movement is reduced to half speed on all other terrain. Donning or removing an ice skate is a <a href=\"https://www.d20pfsrd.com/gamemastering/combat#TOC-Full-Round-Actions\">full-round action</a>. Skating with only one is possible, but the DC of the <a href=\"https://www.d20pfsrd.com/skills/acrobatics\">Acrobatics</a> check rises to 15.</p> \n",
      "chat": "",
      "unidentified": ""
    },
    "tags": [],
    "quantity": 1,
    "weight": 2,
    "price": 1,
    "identified": true,
    "hp": {
      "max": 10,
      "value": 10
    },
    "hardness": 0,
    "carried": true,
    "unidentified": {
      "price": 0,
      "name": ""
    },
    "identifiedName": "",
    "cl": 0,
    "aura": {
      "custom": false,
      "school": ""
    },
    "changes": [],
    "changeFlags": {
      "loseDexToAC": false,
      "noStr": false,
      "noDex": false,
      "oneInt": false,
      "oneWis": false,
      "oneCha": false,
      "noEncumbrance": false,
      "mediumArmorFullSpeed": false,
      "heavyArmorFullSpeed": false
    },
    "contextNotes": [],
    "links": {
      "children": []
    },
    "tag": "",
    "useCustomTag": false,
    "subType": "gear",
    "equipped": false,
    "damage": {
      "parts": []
    }
  },
  "flags": {},
  "img": "systems/pf1/icons/items/inventory/dice.jpg",
  "effects": []
}