{
  "_id": "hmasjglurawgavfp",
  "name": "Surefoot Training Blocks",
  "permission": {
    "default": 0
  },
  "type": "loot",
  "data": {
    "description": {
      "value": "\r\n<p class=\"source\"><b>Source</b>: <a title=\"PZO9455\" href=\"http://www.amazon.com/gp/product/1601257325/ref=as_li_qf_sp_asin_il_tl?ie=UTF8&amp;camp=1789&amp;creative=9325&amp;creativeASIN=1601257325&amp;linkCode=as2&amp;tag=httpwwwd20pfs-20&amp;linkId=RTYNEYJM7WKLVCFB\" target=\"_blank\" rel=\"noopener\">PZO9455</a></p>\r\n<p><b>Price</b> 50 gp; <b>Weight</b> 25 lbs.</p>\r\n<p>This collection of eight heavy wooden or metal cones, cylinders, and spheres fills an ordinary <a href=\"https://www.d20pfsrd.com/equipment/goods-and-services/containers-bags-boxes-more#TOC-Backpack\">backpack</a>. None of the shapes is precisely regular, and when stacked atop each other, they teeter precariously and easily topple. Acrobats practice by stacking these blocks in unstable configurations and attempting to balance while standing upon them.</p>\r\n<p>Using surefoot training blocks to improve your balance requires 1 hour of practice and a DC 15 <a href=\"https://www.d20pfsrd.com/skills/acrobatics\">Acrobatics</a> check. If you succeed at the check, you gain a +2 <a href=\"https://www.d20pfsrd.com/basics-ability-scores/glossary#TOC-Circumstance-Bonus\">circumstance bonus</a> on <a href=\"https://www.d20pfsrd.com/skills/climb\">Climb</a> checks and on <a href=\"https://www.d20pfsrd.com/skills/acrobatics\">Acrobatics</a> checks to balance on narrow surfaces or uneven ground. This bonus lasts for 24 hours or until you fail a <a href=\"https://www.d20pfsrd.com/skills/climb\">Climb</a> or <a href=\"https://www.d20pfsrd.com/skills/acrobatics\">Acrobatics</a> check.</p>\r\n\r\n",
      "chat": "",
      "unidentified": ""
    },
    "tags": [],
    "quantity": 1,
    "weight": 25,
    "price": 50,
    "identified": true,
    "hp": {
      "max": 10,
      "value": 10
    },
    "hardness": 0,
    "carried": true,
    "unidentified": {
      "price": 0,
      "name": ""
    },
    "identifiedName": "",
    "cl": 0,
    "aura": {
      "custom": false,
      "school": ""
    },
    "changes": [],
    "changeFlags": {
      "loseDexToAC": false,
      "noStr": false,
      "noDex": false,
      "oneInt": false,
      "oneWis": false,
      "oneCha": false,
      "noEncumbrance": false,
      "mediumArmorFullSpeed": false,
      "heavyArmorFullSpeed": false
    },
    "contextNotes": [],
    "links": {
      "children": []
    },
    "tag": "",
    "useCustomTag": false,
    "subType": "gear",
    "equipped": false,
    "damage": {
      "parts": []
    }
  },
  "flags": {},
  "img": "systems/pf1/icons/items/inventory/dice.jpg",
  "effects": []
}