{
  "_id": "urnyegqxtbxjyokm",
  "name": "Tools, Thieves' (Common)",
  "permission": {
    "default": 0
  },
  "type": "loot",
  "data": {
    "description": {
      "value": "<p>This kit contains lockpicks and other tools you need to use the @Compendium[pf1.skills.CCy1fajKKU3K02iQ]{Disable Device} skill. Without these tools, you must use improvised tools, and you take a -2 circumstance penalty on @Compendium[pf1.skills.CCy1fajKKU3K02iQ]{Disable Device}&nbsp;checks.</p>",
      "chat": "",
      "unidentified": ""
    },
    "tags": [],
    "quantity": 1,
    "weight": 1,
    "price": 30,
    "identified": true,
    "hp": {
      "max": 10,
      "value": 10
    },
    "hardness": 0,
    "carried": true,
    "unidentified": {
      "price": 0,
      "name": ""
    },
    "identifiedName": "Tools, Thieves' (Common)",
    "cl": 0,
    "aura": {
      "custom": false,
      "school": ""
    },
    "changes": [],
    "changeFlags": {
      "loseDexToAC": false,
      "noStr": false,
      "noDex": false,
      "oneInt": false,
      "oneWis": false,
      "oneCha": false,
      "noEncumbrance": false,
      "mediumArmorFullSpeed": false,
      "heavyArmorFullSpeed": false
    },
    "contextNotes": [],
    "links": {
      "children": []
    },
    "tag": "",
    "useCustomTag": false,
    "subType": "gear",
    "equipped": false,
    "damage": {
      "parts": [],
      "critParts": [],
      "nonCritParts": []
    }
  },
  "flags": {},
  "img": "systems/pf1/icons/items/inventory/lockpick.jpg",
  "effects": []
}