{
  "_id": "kEyIWybPvUSSwT7w",
  "name": "Traveler's any-tool",
  "permission": {
    "default": 0
  },
  "type": "loot",
  "data": {
    "description": {
      "value": "<p>Source&nbsp;<a href=\"http://paizo.com/products/btpy8tmc?Pathfinder-Roleplaying-Game-Ultimate-Equipment\" target=\"_blank\" rel=\"noopener\">Ultimate Equipment pg. 323</a><br>Aura&nbsp;moderate transmutation;&nbsp;CL&nbsp;9th<br>Slot&nbsp;none;&nbsp;Price&nbsp;250 gp;&nbsp;Weight&nbsp;2 lbs.</p>\n<h3>Description</h3>\n<p>This implement at first seems to be nothing but a 12-inch iron bar lined with small plates and spikes. It can be folded, twisted, hinged, and bent, to form almost any known tool. Hammers, shovels, even a block and tackle (without rope) are possible. It can duplicate any tool the wielder can clearly visualize that contains only limited moving parts, such as a pair of scissors, but not a handloom. It cannot be used to replace missing or broken parts of machines or vehicles unless a mundane tool would have done the job just as well.<br><br>The any-tool counts as a set of masterwork artisan’s tools for most Craft or Profession skills (although very specialist crafts such as alchemy still require their own unique toolset). It is an ineffective weapon, always counting as an improvised weapon and never granting any masterwork bonus on attack rolls.</p>\n<h3>Construction</h3>\n<p>Requirements&nbsp;Craft Wondrous Item,&nbsp;major creation;&nbsp;Cost&nbsp;125 gp</p>",
      "chat": "",
      "unidentified": ""
    },
    "tags": [],
    "quantity": 1,
    "weight": 2,
    "price": 250,
    "identified": true,
    "hp": {
      "max": 10,
      "value": 10
    },
    "hardness": 0,
    "carried": true,
    "unidentified": {
      "price": 0,
      "name": ""
    },
    "identifiedName": "Traveler's any-tool",
    "cl": 0,
    "aura": {
      "custom": false,
      "school": ""
    },
    "changes": [],
    "changeFlags": {
      "loseDexToAC": false,
      "noStr": false,
      "noDex": false,
      "oneInt": false,
      "oneWis": false,
      "oneCha": false,
      "noEncumbrance": false,
      "mediumArmorFullSpeed": false,
      "heavyArmorFullSpeed": false
    },
    "contextNotes": [],
    "links": {
      "children": []
    },
    "tag": "",
    "useCustomTag": false,
    "subType": "gear",
    "equipped": false,
    "damage": {
      "parts": []
    }
  },
  "flags": {},
  "img": "systems/pf1/icons/items/inventory/dice.jpg",
  "effects": []
}