{
  "_id": "pWELX6ZgwkxnXcL8",
  "name": "Wire",
  "permission": {
    "default": 0
  },
  "type": "loot",
  "data": {
    "description": {
      "value": "<p>Source&nbsp;<a href=\"http://paizo.com/products/btpy8tmc?Pathfinder-Roleplaying-Game-Ultimate-Equipment\" target=\"_blank\" rel=\"noopener\">Ultimate Equipment pg. 58</a><br>Price&nbsp;5 gp;&nbsp;Weight&nbsp;1/2 lb.<br>Category&nbsp;Adventuring Gear</p>\n<h3>Description</h3>\n<p>This 6-foot length of copper wire is strong and flexible. By attaching it to two pitons or iron spikes across an area, you can create a simple tripwire trap.</p>\n<h3>Tripwire Trap - CR 1/3</h3>\n<p>Type&nbsp;mechanical;&nbsp;Perception&nbsp;DC 15;&nbsp;Disable Device&nbsp;DC 10</p>\n<h3>Effects</h3>\n<p>Trigger&nbsp;location;&nbsp;Reset&nbsp;automatic<br>Effect&nbsp;trip combat maneuver +5 (+10 if the target is running)</p>",
      "chat": "",
      "unidentified": ""
    },
    "tags": [],
    "quantity": 1,
    "weight": 0.5,
    "price": 5,
    "identified": true,
    "hp": {
      "max": 10,
      "value": 10
    },
    "hardness": 0,
    "carried": true,
    "unidentified": {
      "price": 0,
      "name": ""
    },
    "identifiedName": "Wire",
    "cl": 0,
    "aura": {
      "custom": false,
      "school": ""
    },
    "changes": [],
    "changeFlags": {
      "loseDexToAC": false,
      "noStr": false,
      "noDex": false,
      "oneInt": false,
      "oneWis": false,
      "oneCha": false,
      "noEncumbrance": false,
      "mediumArmorFullSpeed": false,
      "heavyArmorFullSpeed": false
    },
    "contextNotes": [],
    "links": {
      "children": []
    },
    "tag": "",
    "useCustomTag": false,
    "subType": "gear",
    "equipped": false,
    "damage": {
      "parts": []
    }
  },
  "flags": {},
  "img": "systems/pf1/icons/items/inventory/dice.jpg",
  "effects": []
}