{
  "_id": "zw7TnOnAdcXGjbck",
  "name": "Bear Aspect",
  "permission": {
    "default": 0
  },
  "type": "feat",
  "data": {
    "description": {
      "value": "<p><em>The aspect of the bear invokes a juggernaut of tireless endurance and furious power. Those who take this aspect are known for surviving severe wounds and delivering punishing blows in return.</em><br><br><strong>Minor Form: </strong>You gain a +2 enhancement bonus to your Constitution score.</p>\n<p>At 8th level, the bonus increases to +4, and at 15th level it increases to +6.<br><br><strong>Major Form:</strong> Your shape changes to that of a dire bear (Bestiary&nbsp;31). While in this form, you gain a base speed of 40 feet, low-light vision, scent (30 feet), a bite attack (1d8 damage), and two claw attacks (1d6 damage) with the grab ability.</p>\n<p>At 8th level, you gain Improved Natural Attack (Bestiary&nbsp;315) with your claws.</p>\n<p>At 15th level, the critical multiplier of your claw attack increases by 1 (×2 becomes ×3) to a maximum of ×4, and you gain the Awesome Blow feat (Bestiary&nbsp;314).<br><br><strong>Alternate Natural Attacks: </strong>Bite (B, P, S)</p>",
      "chat": "",
      "unidentified": ""
    },
    "tags": [],
    "activation": {
      "cost": 1,
      "type": ""
    },
    "unchainedAction": {
      "activation": {
        "cost": 1,
        "type": ""
      }
    },
    "duration": {
      "value": null,
      "units": ""
    },
    "target": {
      "value": ""
    },
    "range": {
      "value": null,
      "units": "",
      "maxIncrements": 1,
      "minValue": null,
      "minUnits": "",
      "long": null
    },
    "uses": {
      "value": 0,
      "max": 0,
      "per": null,
      "autoDeductCharges": true,
      "autoDeductChargesCost": "1"
    },
    "measureTemplate": {
      "type": "",
      "size": "",
      "overrideColor": false,
      "customColor": "",
      "overrideTexture": false,
      "customTexture": ""
    },
    "attackName": "",
    "actionType": "",
    "attackBonus": "",
    "critConfirmBonus": "",
    "damage": {
      "parts": [],
      "critParts": [],
      "nonCritParts": []
    },
    "attackParts": [],
    "formula": "",
    "ability": {
      "attack": null,
      "damage": null,
      "damageMult": 1,
      "critRange": 20,
      "critMult": 2
    },
    "save": {
      "dc": 0,
      "type": "",
      "description": ""
    },
    "effectNotes": "",
    "attackNotes": "",
    "soundEffect": "",
    "changes": [],
    "changeFlags": {
      "loseDexToAC": false,
      "noStr": false,
      "noDex": false,
      "oneInt": false,
      "oneWis": false,
      "oneCha": false,
      "noEncumbrance": false,
      "mediumArmorFullSpeed": false,
      "heavyArmorFullSpeed": false
    },
    "contextNotes": [],
    "links": {
      "children": [],
      "charges": []
    },
    "tag": "",
    "useCustomTag": false,
    "armorProf": {
      "value": [],
      "custom": ""
    },
    "weaponProf": {
      "value": [],
      "custom": ""
    },
    "featType": "classFeat",
    "associations": {
      "classes": [
        [
          "Shifter"
        ]
      ]
    },
    "showInQuickbar": false,
    "nonlethal": false,
    "abilityType": "none",
    "crOffset": "",
    "attack": {
      "parts": []
    }
  },
  "flags": {},
  "img": "systems/pf1/icons/skills/blue_29.jpg",
  "effects": []
}