{
  "_id": "pEeqEUa2kznrhmzM",
  "name": "Death Domain",
  "permission": {
    "default": 0
  },
  "type": "feat",
  "data": {
    "description": {
      "value": "<p><strong>Granted Powers:</strong> You can cause the living to bleed at a touch, and find comfort in the presence of the dead.</p>\n<p><strong>Domain Spells:</strong></p>\n<ul>\n<li>1st—@Compendium[pf1.spells.9tww9fc9049h6iqc]{Cause Fear}</li>\n<li>2nd—@Compendium[pf1.spells.k0k8gvqyy3rd5gke]{Death Knell}</li>\n<li>3rd—@Compendium[pf1.spells.8uwmrygxgih1fb57]{Animate Dead}</li>\n<li>4th—@Compendium[pf1.spells.e0rlki4hwu76l5ya]{Death Ward}</li>\n<li>5th—@Compendium[pf1.spells.dg3mrasygkm83c3e]{Slay Living}</li>\n<li>6th—@Compendium[pf1.spells.c1e7f0ct04k270wy]{Create Undead}</li>\n<li>7th—@Compendium[pf1.spells.rlfd7f64wgjfvg6e]{Destruction}</li>\n<li>8th—@Compendium[pf1.spells.j209j280fyqccq61]{Create Greater Undead}</li>\n<li>9th—@Compendium[pf1.spells.wplgawb6aznjx7se]{Wail of the Banshee}</li>\n</ul>\n<p><strong>Pharasma-Friendly Death Domain</strong>&nbsp;(Source:&nbsp;<a href=\"http://paizo.com/paizo/blog/v5748dyo5lbvp\">Paizo Blog</a>, PFS-Legal):</p>\n<ul>\n<li>3rd-level domain spell: Replace @Compendium[pf1.spells.8uwmrygxgih1fb57]{Animate Dead}&nbsp;with @Compendium[pf1.spells.byn5q46du0ck592a]{Speak with Dead}.</li>\n<li>6th-level domain spell: Replace @Compendium[pf1.spells.c1e7f0ct04k270wy]{Create Undead}&nbsp;with @Compendium[pf1.spells.76t09cafayrw13ux]{Antilife Shell}.</li>\n<li>8th-level domain spell: Replace @Compendium[pf1.spells.j209j280fyqccq61]{Create Greater Undead}&nbsp;with @Compendium[pf1.spells.g0x2fnktg1553wv1]{Symbol of Death}.</li>\n</ul>",
      "chat": "",
      "unidentified": ""
    },
    "tags": [],
    "activation": {
      "cost": 1,
      "type": ""
    },
    "unchainedAction": {
      "activation": {
        "cost": 1,
        "type": ""
      }
    },
    "duration": {
      "value": null,
      "units": ""
    },
    "target": {
      "value": ""
    },
    "range": {
      "value": null,
      "units": "",
      "maxIncrements": 1,
      "minValue": null,
      "minUnits": "",
      "long": null
    },
    "uses": {
      "value": 0,
      "max": 0,
      "per": null,
      "autoDeductCharges": true,
      "autoDeductChargesCost": "1"
    },
    "measureTemplate": {
      "type": "",
      "size": "0",
      "overrideColor": false,
      "customColor": "",
      "overrideTexture": false,
      "customTexture": ""
    },
    "attackName": "",
    "actionType": "",
    "attackBonus": "",
    "critConfirmBonus": "",
    "damage": {
      "parts": [],
      "critParts": [],
      "nonCritParts": []
    },
    "attackParts": [],
    "formula": "",
    "ability": {
      "attack": null,
      "damage": null,
      "damageMult": 1,
      "critRange": 20,
      "critMult": 2
    },
    "save": {
      "dc": 0,
      "type": "",
      "description": ""
    },
    "effectNotes": "",
    "attackNotes": "",
    "soundEffect": "",
    "changes": [],
    "changeFlags": {
      "loseDexToAC": false,
      "noStr": false,
      "noDex": false,
      "oneInt": false,
      "oneWis": false,
      "oneCha": false,
      "noEncumbrance": false,
      "mediumArmorFullSpeed": false,
      "heavyArmorFullSpeed": false
    },
    "contextNotes": [],
    "links": {
      "children": [],
      "charges": []
    },
    "tag": "",
    "useCustomTag": false,
    "armorProf": {
      "value": [],
      "custom": ""
    },
    "weaponProf": {
      "value": [],
      "custom": ""
    },
    "featType": "classFeat",
    "associations": {
      "classes": [
        [
          "Cleric"
        ]
      ]
    },
    "showInQuickbar": false,
    "nonlethal": false,
    "abilityType": "none",
    "crOffset": "",
    "attack": {
      "parts": []
    }
  },
  "flags": {},
  "img": "systems/pf1/icons/skills/affliction_08.jpg",
  "effects": []
}