{
  "_id": "nSjHbJwpLlKZsHrH",
  "name": "Friend of Fire",
  "permission": {
    "default": 0
  },
  "type": "feat",
  "data": {
    "description": {
      "value": "<p>At 3rd level, you gain<a href=\"https://www.d20pfsrd.com/gamemastering/special-abilities/#TOC-Energy-Immunity-and-Vulnerability\">&nbsp;fire resistance</a>&nbsp;10. At 5th level, when in contact with flame or a burning object (including a&nbsp;<a href=\"https://www.d20pfsrd.com/magic-items/magic-weapons/magic-weapon-special-abilities/flaming/\">flaming</a>&nbsp;weapon, lantern, or torch), add 1 per die to any healing effect of which you are the target. At 9th level, your&nbsp;<a href=\"https://www.d20pfsrd.com/gamemastering/special-abilities/#TOC-Energy-Immunity-and-Vulnerability\">fire resistance</a>&nbsp;increases to 20. At 20th level, you gain&nbsp;<a href=\"https://www.d20pfsrd.com/gamemastering/special-abilities/#TOC-Energy-Immunity-and-Vulnerability\">immunity</a>&nbsp;to fire.</p>",
      "chat": "",
      "unidentified": ""
    },
    "tags": [],
    "activation": {
      "cost": 1,
      "type": "passive"
    },
    "unchainedAction": {
      "activation": {
        "cost": 1,
        "type": "passive"
      }
    },
    "duration": {
      "value": null,
      "units": ""
    },
    "target": {
      "value": ""
    },
    "range": {
      "value": null,
      "units": "",
      "maxIncrements": 1,
      "minValue": null,
      "minUnits": "",
      "long": null
    },
    "uses": {
      "value": 0,
      "max": 0,
      "per": "",
      "autoDeductCharges": true,
      "autoDeductChargesCost": "1"
    },
    "measureTemplate": {
      "type": "",
      "size": "0",
      "overrideColor": false,
      "customColor": "",
      "overrideTexture": false,
      "customTexture": ""
    },
    "attackName": "",
    "actionType": "",
    "attackBonus": "",
    "critConfirmBonus": "",
    "damage": {
      "parts": [],
      "critParts": [],
      "nonCritParts": []
    },
    "attackParts": [],
    "formula": "",
    "ability": {
      "attack": null,
      "damage": null,
      "damageMult": 1,
      "critRange": 20,
      "critMult": 2
    },
    "save": {
      "dc": 0,
      "type": "",
      "description": ""
    },
    "effectNotes": "",
    "attackNotes": "",
    "soundEffect": "",
    "changes": [],
    "changeFlags": {
      "loseDexToAC": false,
      "noStr": false,
      "noDex": false,
      "oneInt": false,
      "oneWis": false,
      "oneCha": false,
      "noEncumbrance": false,
      "mediumArmorFullSpeed": false,
      "heavyArmorFullSpeed": false
    },
    "contextNotes": [],
    "links": {
      "children": [],
      "charges": []
    },
    "tag": "",
    "useCustomTag": false,
    "armorProf": {
      "value": [],
      "custom": ""
    },
    "weaponProf": {
      "value": [],
      "custom": ""
    },
    "featType": "classFeat",
    "associations": {
      "classes": [
        [
          "Sorcerer"
        ]
      ]
    },
    "showInQuickbar": false,
    "nonlethal": false,
    "abilityType": "su",
    "crOffset": "",
    "attack": {
      "parts": []
    }
  },
  "flags": {},
  "img": "systems/pf1/icons/spells/enchant-red-3.jpg",
  "effects": []
}