{
  "_id": "lqCm6Fy7JVezprqU",
  "name": "Healing",
  "permission": {
    "default": 0
  },
  "type": "feat",
  "data": {
    "description": {
      "value": "<p><strong>Granted Powers:</strong> Your touch staves off pain and death, and your healing magic is particularly vital and potent.</p>\n<p><strong>Domain Spells:</strong> 1st—@Compendium[pf1.spells.xoc3vhg3btmfjauq]{Cure Light Wounds}, 2nd—@Compendium[pf1.spells.e67esdjp4nojtbr7]{Cure Moderate Wounds}, 3rd—@Compendium[pf1.spells.norn02g8zdsspf2j]{Cure Serious Wounds} 4th—@Compendium[pf1.spells.sa076xymi52eq3to]{Cure Critical Wounds}, 5th—@Compendium[pf1.spells.qiiis9ekgy3syu7j]{Breath Of Life}, 6th—@Compendium[pf1.spells.4re1j2w8wkvsvnsi]{Heal}, 7th—regenerate, 8th—@Compendium[pf1.spells.6346rs0f4sra9gt4]{Cure Critical Wounds, Mass}, 9th—@Compendium[pf1.spells.klcvk9ct1l7mhjwp]{Heal, Mass}.</p>",
      "chat": "",
      "unidentified": ""
    },
    "tags": [],
    "activation": {
      "cost": 1,
      "type": ""
    },
    "unchainedAction": {
      "activation": {
        "cost": 1,
        "type": ""
      }
    },
    "duration": {
      "value": null,
      "units": ""
    },
    "target": {
      "value": ""
    },
    "range": {
      "value": null,
      "units": "",
      "maxIncrements": 1,
      "minValue": null,
      "minUnits": "",
      "long": null
    },
    "uses": {
      "value": 0,
      "max": 0,
      "per": null,
      "autoDeductCharges": true,
      "autoDeductChargesCost": "1"
    },
    "measureTemplate": {
      "type": "",
      "size": "0",
      "overrideColor": false,
      "customColor": "",
      "overrideTexture": false,
      "customTexture": ""
    },
    "attackName": "",
    "actionType": "",
    "attackBonus": "",
    "critConfirmBonus": "",
    "damage": {
      "parts": [],
      "critParts": [],
      "nonCritParts": []
    },
    "attackParts": [],
    "formula": "",
    "ability": {
      "attack": null,
      "damage": null,
      "damageMult": 1,
      "critRange": 20,
      "critMult": 2
    },
    "save": {
      "dc": 0,
      "type": "",
      "description": ""
    },
    "effectNotes": "",
    "attackNotes": "",
    "soundEffect": "",
    "changes": [],
    "changeFlags": {
      "loseDexToAC": false,
      "noStr": false,
      "noDex": false,
      "oneInt": false,
      "oneWis": false,
      "oneCha": false,
      "noEncumbrance": false,
      "mediumArmorFullSpeed": false,
      "heavyArmorFullSpeed": false
    },
    "contextNotes": [],
    "links": {
      "children": [],
      "charges": []
    },
    "tag": "",
    "useCustomTag": false,
    "armorProf": {
      "value": [],
      "custom": ""
    },
    "weaponProf": {
      "value": [],
      "custom": ""
    },
    "featType": "classFeat",
    "associations": {
      "classes": [
        [
          "Cleric"
        ]
      ]
    },
    "showInQuickbar": false,
    "nonlethal": false,
    "abilityType": "none",
    "crOffset": "",
    "attack": {
      "parts": []
    }
  },
  "flags": {},
  "img": "systems/pf1/icons/spells/light-blue-2.jpg",
  "effects": []
}