{
  "_id": "qI4IouTn4uvDPSXv",
  "name": "Judgment",
  "permission": {
    "default": 0
  },
  "type": "feat",
  "data": {
    "description": {
      "value": "<p>Starting at 1st level, an inquisitor can pronounce judgment upon her foes as a swift action. Starting when the judgment is made, the inquisitor receives a bonus or special ability based on the type of judgment made.<br><br>At 1st level, an inquisitor can use this ability once per day. At 4th level and every three levels thereafter, the inquisitor can use this ability one additional time per day. Once activated, this ability lasts until the combat ends, at which point all of the bonuses immediately end. The inquisitor must participate in the combat to gain these bonuses. If she is frightened, panicked, paralyzed, stunned, unconscious, or otherwise prevented from participating in the combat, the ability does not end, but the bonuses do not resume until she can participate in the combat again.<br><br>When the inquisitor uses this ability, she must select one type of judgment to make. As a swift action, she can change this judgment to another type. If the inquisitor is evil, she receives profane bonuses instead of sacred, as appropriate. Neutral inquisitors must select profane or sacred bonuses. Once made, this choice cannot be changed.<br><br><em>Destruction: </em>The inquisitor is filled with divine wrath, gaining a +1 sacred bonus on all weapon damage rolls. This bonus increases by +1 for every three inquisitor levels she possesses.<br><br><em>Healing:</em> The inquisitor is surrounded by a healing light, gaining fast healing 1. This causes the inquisitor to heal 1 point of damage each round as long as the inquisitor is alive and the judgment lasts. The amount of healing increases by 1 point for every three inquisitor levels she possesses.<br><br><em>Justice:</em> This judgment spurs the inquisitor to seek justice, granting a +1 sacred bonus on all attack rolls. This bonus increases by +1 for every five inquisitor levels she possesses. At 10th level, this bonus is doubled on all attack rolls made to confirm critical hits.<br><br><em>Piercing: </em>This judgment gives the inquisitor great focus and makes her spells more potent. This benefit grants a +1 sacred bonus on concentration checks and caster level checks made to overcome a target’s spell resistance. This bonus increases by +1 for every three inquisitor levels she possesses.<br><br><em>Protection:</em> The inquisitor is surrounded by a protective aura, granting a +1 sacred bonus to Armor Class. This bonus increases by +1 for every five inquisitor levels she possesses. At 10th level, this bonus is doubled against attack rolls made to confirm critical hits against the inquisitor.<br><br><em>Purity:</em> The inquisitor is protected from the vile taint of her foes, gaining a +1 sacred bonus on all saving throws. This bonus increases by +1 for every five inquisitor levels she possesses. At 10th level, the bonus is doubled against curses, diseases, and poisons.<br><br><em>Resiliency:</em> This judgment makes the inquisitor resistant to harm, granting DR 1/magic. This DR increases by 1 for every five levels she possesses. At 10th level, this DR changes from magic to an alignment (chaotic, evil, good, or lawful) that is opposite the inquisitor’s. If she is neutral, the inquisitor does not receive this increase.<br><br><em>Resistance:</em> The inquisitor is shielded by a flickering aura, gaining 2 points of energy resistance against one energy type (acid, cold, electricity, fire, or sonic) chosen when the judgment is declared. The protection increases by 2 for every three inquisitor levels she possesses.<br><br><em>Smiting:</em> This judgment bathes the inquisitor’s weapons in a divine light. The inquisitor’s weapons count as magic for the purposes of bypassing damage reduction. At 6th level, the inquisitor’s weapons also count as one alignment type (chaotic, evil, good, or lawful) for the purpose of bypassing damage reduction. The type selected must match one of the inquisitor’s alignments. If the inquisitor is neutral, she does not receive this bonus. At 10th level, the inquisitor’s weapons also count as adamantine for the purpose of overcoming damage reduction (but not for reducing hardness).</p>",
      "chat": "",
      "unidentified": ""
    },
    "tags": [],
    "activation": {
      "cost": 1,
      "type": "swift"
    },
    "unchainedAction": {
      "activation": {
        "cost": 1,
        "type": "action"
      }
    },
    "duration": {
      "value": null,
      "units": "seeText"
    },
    "target": {
      "value": "self"
    },
    "range": {
      "value": null,
      "units": "personal",
      "maxIncrements": 1,
      "minValue": null,
      "minUnits": "",
      "long": null
    },
    "uses": {
      "value": 0,
      "max": 0,
      "per": "day",
      "autoDeductCharges": true,
      "autoDeductChargesCost": "1",
      "maxFormula": "1 + floor((@classes.inquisitor.level - 1) / 3)"
    },
    "measureTemplate": {
      "type": "",
      "size": "0",
      "overrideColor": false,
      "customColor": "",
      "overrideTexture": false,
      "customTexture": ""
    },
    "attackName": "",
    "actionType": "",
    "attackBonus": "",
    "critConfirmBonus": "",
    "damage": {
      "parts": [],
      "critParts": [],
      "nonCritParts": []
    },
    "attackParts": [],
    "formula": "",
    "ability": {
      "attack": null,
      "damage": null,
      "damageMult": 1,
      "critRange": 20,
      "critMult": 2
    },
    "save": {
      "dc": 0,
      "type": "",
      "description": ""
    },
    "effectNotes": "",
    "attackNotes": "",
    "soundEffect": "",
    "changes": [],
    "changeFlags": {
      "loseDexToAC": false,
      "noStr": false,
      "noDex": false,
      "oneInt": false,
      "oneWis": false,
      "oneCha": false,
      "noEncumbrance": false,
      "mediumArmorFullSpeed": false,
      "heavyArmorFullSpeed": false
    },
    "contextNotes": [],
    "links": {
      "children": [],
      "charges": []
    },
    "tag": "",
    "useCustomTag": false,
    "armorProf": {
      "value": [],
      "custom": ""
    },
    "weaponProf": {
      "value": [],
      "custom": ""
    },
    "featType": "classFeat",
    "associations": {
      "classes": [
        [
          "Inquisitor"
        ]
      ]
    },
    "showInQuickbar": false,
    "nonlethal": false,
    "abilityType": "su",
    "crOffset": "",
    "attack": {
      "parts": []
    }
  },
  "flags": {},
  "img": "systems/pf1/icons/skills/yellow_38.jpg",
  "effects": []
}