{
  "_id": "mSZ4PrieWFBh3Xpo",
  "name": "Martyred Bloodline",
  "permission": {
    "default": 0
  },
  "type": "feat",
  "data": {
    "description": {
      "value": "<p><em>One of your ancestors paid the ultimate price for her beliefs. This distant relative martyred herself out of her devout belief in a cause, and that sacrifice echoed down to her descendants, infusing them with arcane power. Your bloodline confers abilities that allow you to endure pain, resist torture, and inspire others.</em></p>\n<p><strong>Class Skill:</strong>&nbsp;<a href=\"https://www.d20pfsrd.com/skills/perform\">Perform</a>&nbsp;(oratory).</p>\n<p><strong>Bonus Spells:</strong></p>\n<ul>\n<li>@Compendium[pf1.spells.pau0ejk30fs1eebl]{Endure Elements}&nbsp;(3rd),</li>\n<li>@Compendium[pf1.spells.c81jnlmi4976g7sz]{Surmount Affliction}&nbsp;(5th),</li>\n<li>@Compendium[pf1.spells.vqfrp8t0c1lw1jna]{Heroism} (7th),</li>\n<li>@Compendium[pf1.spells.scyklgov72pvw884]{Blessing Of Fervor}&nbsp;(9th),</li>\n<li>@Compendium[pf1.spells.z0duc2v2n3ioynta]{Heroism, Greater}&nbsp;(13th),</li>\n<li>@Compendium[pf1.spells.2ip53auf03bqxkl1]{Joyful Rapture}&nbsp;(15th),</li>\n<li>@Compendium[pf1.spells.blvetbc929cfx4m8]{Mind Blank} (17th),</li>\n<li>@Compendium[pf1.spells.xuuzj9lr2xbwaim4]{Overwhelming Presence}&nbsp;(19th).</li>\n</ul>\n<p><strong>Bonus Feats:</strong></p>\n<ul>\n<li>@Compendium[pf1.feats.O0e0UCim27GPKFuW]{Diehard},</li>\n<li>@Compendium[pf1.feats.ehqx8txNRGMaNOPt]{Endurance},</li>\n<li>&nbsp;<a href=\"https://www.d20pfsrd.com/feats/general-feats/heroic-defiance\">Heroic Defiance</a>,</li>\n<li>&nbsp;<a href=\"https://www.d20pfsrd.com/feats/general-feats/heroic-recovery\">Heroic Recovery</a>,</li>\n<li>@Compendium[pf1.feats.R3a1OV18RwDJftvq]{Leadership},</li>\n<li>@Compendium[pf1.feats.L10V7jTzmMYz62zz]{Persuasive},</li>\n<li>@Compendium[pf1.feats.7zJTztNW7hdaqjKc]{Skill Focus}&nbsp;(<a href=\"https://www.d20pfsrd.com/skills/perform\">Perform</a>),</li>\n<li>@Compendium[pf1.feats.8snLqsJN4LLL00Nq]{Toughness}.</li>\n</ul>\n<p><strong>Bloodline Arcana:</strong> Whenever you take damage in battle, your effective&nbsp;<a href=\"https://www.d20pfsrd.com/magic#TOC-Caster-Level\">caster level</a>&nbsp;increases by 1 during your next turn. This effect does not apply more than once per round.</p>",
      "chat": "",
      "unidentified": ""
    },
    "tags": [],
    "activation": {
      "cost": 1,
      "type": ""
    },
    "unchainedAction": {
      "activation": {
        "cost": 1,
        "type": ""
      }
    },
    "duration": {
      "value": null,
      "units": ""
    },
    "target": {
      "value": ""
    },
    "range": {
      "value": null,
      "units": "",
      "maxIncrements": 1,
      "minValue": null,
      "minUnits": "",
      "long": null
    },
    "uses": {
      "value": 0,
      "max": 0,
      "per": null,
      "autoDeductCharges": true,
      "autoDeductChargesCost": "1"
    },
    "measureTemplate": {
      "type": "",
      "size": "0",
      "overrideColor": false,
      "customColor": "",
      "overrideTexture": false,
      "customTexture": ""
    },
    "attackName": "",
    "actionType": "",
    "attackBonus": "",
    "critConfirmBonus": "",
    "damage": {
      "parts": [],
      "critParts": [],
      "nonCritParts": []
    },
    "attackParts": [],
    "formula": "",
    "ability": {
      "attack": null,
      "damage": null,
      "damageMult": 1,
      "critRange": 20,
      "critMult": 2
    },
    "save": {
      "dc": 0,
      "type": "",
      "description": ""
    },
    "effectNotes": "",
    "attackNotes": "",
    "soundEffect": "",
    "changes": [],
    "changeFlags": {
      "loseDexToAC": false,
      "noStr": false,
      "noDex": false,
      "oneInt": false,
      "oneWis": false,
      "oneCha": false,
      "noEncumbrance": false,
      "mediumArmorFullSpeed": false,
      "heavyArmorFullSpeed": false
    },
    "contextNotes": [],
    "links": {
      "children": [],
      "charges": []
    },
    "tag": "",
    "useCustomTag": false,
    "armorProf": {
      "value": [],
      "custom": ""
    },
    "weaponProf": {
      "value": [],
      "custom": ""
    },
    "featType": "classFeat",
    "associations": {
      "classes": [
        [
          "Sorcerer"
        ]
      ]
    },
    "showInQuickbar": false,
    "nonlethal": false,
    "abilityType": "none",
    "crOffset": "",
    "attack": {
      "parts": []
    }
  },
  "flags": {},
  "img": "systems/pf1/icons/skills/affliction_07.jpg",
  "effects": []
}