{
  "_id": "xcbwys8JTF22w8oW",
  "name": "Nanite Bloodline",
  "permission": {
    "default": 0
  },
  "type": "feat",
  "data": {
    "description": {
      "value": "<p><em>Your conception was marked by alien influences.</em></p>\n<p><strong>Class Skill(s):</strong>&nbsp;<a href=\"https://www.d20pfsrd.com/skills/knowledge\">Knowledge</a>&nbsp;(engineering).</p>\n<p><strong>Bonus Spells:</strong></p>\n<ul>\n<li>@Compendium[pf1.spells.oj36nfak6jc2s5ky]{Disguise Self}&nbsp;(3rd),</li>\n<li>@Compendium[pf1.spells.22xn589bmr7ginow]{Defensive Shock}&nbsp;(5th),</li>\n<li>@Compendium[pf1.spells.mqdoexj35atgqafn]{Gaseous Form}&nbsp;(7th),</li>\n<li>@Compendium[pf1.spells.frp3ioj2ny5br5ti]{Miasmatic Form} (9th),</li>\n<li>@Compendium[pf1.spells.wuispaydz8jvw3io]{Echolocation}&nbsp;(11th),</li>\n<li>@Compendium[pf1.spells.h4nlrm44ubsyzuhz]{Fluid Form}&nbsp;(13th),</li>\n<li>@Compendium[pf1.spells.u0qadkpm7dglk6kz]{Magnetic Field}(15th),</li>\n<li>@Compendium[pf1.spells.mkrjbrp57yfdqrx0]{Iron Body}&nbsp;(17th),</li>\n<li>@Compendium[pf1.spells.n3lp01euzcdmtbw5]{Shapechange}&nbsp;(19th).</li>\n</ul>\n<p><strong>Bonus Feats:</strong></p>\n<ul>\n<li>@Compendium[pf1.feats.pmAO1Sni8xx71pLF]{Blind-Fight},</li>\n<li>@Compendium[pf1.feats.NFxHebU1XhEs5WJh]{Combat Expertise},</li>\n<li>@Compendium[pf1.feats.JreaiTHdyWFNj3Tb]{Dodge},</li>\n<li>&nbsp;<a href=\"https://www.d20pfsrd.com/feats/general-feats/eldritch-heritage\">Eldritch Heritage</a>,&nbsp;</li>\n<li><a href=\"https://www.d20pfsrd.com/feats/general-feats/expanded-arcana\">Expanded Arcana</a>,</li>\n<li>@Compendium[pf1.feats.711B9WNFgpdDKKf2]{Improved Disarm},</li>\n<li>@Compendium[pf1.feats.0bZf3SDkvVOe2ujH]{Lightning Reflexes},</li>\n<li>@Compendium[pf1.feats.7zJTztNW7hdaqjKc]{Skill Focus}&nbsp;(<a href=\"https://www.d20pfsrd.com/skills/knowledge\">Knowledge</a>&nbsp;[engineering]).</li>\n</ul>\n<p><strong>Bloodline Arcana:</strong> Whenever you cast a spell from the&nbsp;<a href=\"https://www.d20pfsrd.com/magic#TOC-Transmutation\">transmutation</a>&nbsp;school and target only yourself, increase the spell’s duration by 50%. This does not stack with&nbsp;<a href=\"https://www.d20pfsrd.com/feats/metamagic-feats\">metamagic feats</a> or abilities such as @Compendium[pf1.feats.btXWioB3SKJv8YEG]{Extend Spell}.</p>",
      "chat": "",
      "unidentified": ""
    },
    "tags": [],
    "activation": {
      "cost": 1,
      "type": ""
    },
    "unchainedAction": {
      "activation": {
        "cost": 1,
        "type": ""
      }
    },
    "duration": {
      "value": null,
      "units": ""
    },
    "target": {
      "value": ""
    },
    "range": {
      "value": null,
      "units": "",
      "maxIncrements": 1,
      "minValue": null,
      "minUnits": "",
      "long": null
    },
    "uses": {
      "value": 0,
      "max": 0,
      "per": null,
      "autoDeductCharges": true,
      "autoDeductChargesCost": "1"
    },
    "measureTemplate": {
      "type": "",
      "size": "0",
      "overrideColor": false,
      "customColor": "",
      "overrideTexture": false,
      "customTexture": ""
    },
    "attackName": "",
    "actionType": "",
    "attackBonus": "",
    "critConfirmBonus": "",
    "damage": {
      "parts": [],
      "critParts": [],
      "nonCritParts": []
    },
    "attackParts": [],
    "formula": "",
    "ability": {
      "attack": null,
      "damage": null,
      "damageMult": 1,
      "critRange": 20,
      "critMult": 2
    },
    "save": {
      "dc": 0,
      "type": "",
      "description": ""
    },
    "effectNotes": "",
    "attackNotes": "",
    "soundEffect": "",
    "changes": [],
    "changeFlags": {
      "loseDexToAC": false,
      "noStr": false,
      "noDex": false,
      "oneInt": false,
      "oneWis": false,
      "oneCha": false,
      "noEncumbrance": false,
      "mediumArmorFullSpeed": false,
      "heavyArmorFullSpeed": false
    },
    "contextNotes": [],
    "links": {
      "children": [],
      "charges": []
    },
    "tag": "",
    "useCustomTag": false,
    "armorProf": {
      "value": [],
      "custom": ""
    },
    "weaponProf": {
      "value": [],
      "custom": ""
    },
    "featType": "classFeat",
    "associations": {
      "classes": [
        [
          "Sorcerer"
        ]
      ]
    },
    "showInQuickbar": false,
    "nonlethal": false,
    "abilityType": "none",
    "crOffset": "",
    "attack": {
      "parts": []
    }
  },
  "flags": {},
  "img": "systems/pf1/icons/skills/violet_02.jpg",
  "effects": []
}