{
  "_id": "XW0kBaUMVklwlS0x",
  "name": "Nature Spirit Manifestation",
  "permission": {
    "default": 0
  },
  "type": "feat",
  "data": {
    "description": {
      "value": "<p><span id=\"ctl00_MainContent_DataListTypes_ctl00_LabelName\">Upon reaching 20th level, the shaman becomes a spirit of nature. Once per day, she can surround herself with an organic cocoon of silk as a full-round action. While enclosed in the cocoon, she’s considered helpless. Eight hours later, she emerges, having changed her type to plant, animal, or humanoid, and having gained superficial physical characteristics of the chosen type as appropriate (see&nbsp;Pathfinder RPG Bestiary). She must choose a type that is different from her current type. This effect change doesn’t alter her Hit Dice, hit points, saving throws, skill ranks, class skills, or proficiencies. The effect is permanent, until the shaman chooses to transform again. Each time the transformation is made, the shaman is cleansed of all poisons or diseases, restored to full hit points, and healed of all ability damage.</span></p>",
      "chat": "",
      "unidentified": ""
    },
    "tags": [],
    "activation": {
      "cost": 1,
      "type": "full"
    },
    "unchainedAction": {
      "activation": {
        "cost": 3,
        "type": "action"
      }
    },
    "duration": {
      "value": null,
      "units": ""
    },
    "target": {
      "value": ""
    },
    "range": {
      "value": null,
      "units": "",
      "maxIncrements": 1,
      "minValue": null,
      "minUnits": "",
      "long": null
    },
    "uses": {
      "value": 0,
      "max": 1,
      "per": "day",
      "autoDeductCharges": true,
      "autoDeductChargesCost": "1",
      "maxFormula": "1"
    },
    "measureTemplate": {
      "type": "",
      "size": "",
      "overrideColor": false,
      "customColor": "",
      "overrideTexture": false,
      "customTexture": ""
    },
    "attackName": "",
    "actionType": "",
    "attackBonus": "",
    "critConfirmBonus": "",
    "damage": {
      "parts": [],
      "critParts": [],
      "nonCritParts": []
    },
    "attackParts": [],
    "formula": "",
    "ability": {
      "attack": null,
      "damage": null,
      "damageMult": 1,
      "critRange": 20,
      "critMult": 2
    },
    "save": {
      "dc": 0,
      "type": "",
      "description": ""
    },
    "effectNotes": "",
    "attackNotes": "",
    "soundEffect": "",
    "changes": [],
    "changeFlags": {
      "loseDexToAC": false,
      "noStr": false,
      "noDex": false,
      "oneInt": false,
      "oneWis": false,
      "oneCha": false,
      "noEncumbrance": false,
      "mediumArmorFullSpeed": false,
      "heavyArmorFullSpeed": false
    },
    "contextNotes": [],
    "links": {
      "children": [],
      "charges": []
    },
    "tag": "",
    "useCustomTag": false,
    "armorProf": {
      "value": [],
      "custom": ""
    },
    "weaponProf": {
      "value": [],
      "custom": ""
    },
    "featType": "classFeat",
    "associations": {
      "classes": [
        [
          "Shaman"
        ]
      ]
    },
    "showInQuickbar": false,
    "nonlethal": false,
    "abilityType": "none",
    "crOffset": "",
    "attack": {
      "parts": []
    }
  },
  "flags": {},
  "img": "systems/pf1/icons/skills/violet_20.jpg",
  "effects": []
}