{
  "_id": "lnvYwhLVk80DM5kx",
  "name": "Pranked Curse",
  "permission": {
    "default": 0
  },
  "type": "feat",
  "data": {
    "description": {
      "value": "<p>Capricious fey constantly bedevil you, playing pranks on you such as tying your shoelaces together, hiding your gear, making inappropriate noises or smells at formal events, and mimicking your voice to tell embarrassing lies. In addition to any social consequences of such mischief, you take a –4 penalty on initiative checks. Furthermore, whenever you attempt to retrieve a stored item from your gear, there’s a 25% chance that you fail to find it with that action. Add @Compendium[pf1.spells.bl71og1gklwncmt7]{Faerie Fire} and @Compendium[pf1.spells.mtxqp85izkb20djq]{Ghost Sound} to your list of spells known.</p>\n<p>At 5th level, add @Compendium[pf1.spells.ec2zmvdzi4m3puh4]{Glitterdust} and @Compendium[pf1.spells.27o3msobhyghmfid]{Minor Image} to your list of spells known.</p>\n<p>At 10th level, add @Compendium[pf1.spells.n0bsyxchnigkkuqo]{Confusion} to your list of spells known as a 5th-level spell.</p>\n<p>At 15th level, add @Compendium[pf1.spells.0w3hvcp3gb2bhtv5]{Project Image} to your list of spells known. A possessed oracle can select this curse in place of the haunted curse.</p>",
      "chat": "",
      "unidentified": ""
    },
    "tags": [],
    "activation": {
      "cost": 1,
      "type": ""
    },
    "unchainedAction": {
      "activation": {
        "cost": 1,
        "type": ""
      }
    },
    "duration": {
      "value": null,
      "units": ""
    },
    "target": {
      "value": ""
    },
    "range": {
      "value": null,
      "units": "",
      "maxIncrements": 1,
      "minValue": null,
      "minUnits": "",
      "long": null
    },
    "uses": {
      "value": 0,
      "max": 0,
      "per": null,
      "autoDeductCharges": true,
      "autoDeductChargesCost": "1"
    },
    "measureTemplate": {
      "type": "",
      "size": "",
      "overrideColor": false,
      "customColor": "",
      "overrideTexture": false,
      "customTexture": ""
    },
    "attackName": "",
    "actionType": "",
    "attackBonus": "",
    "critConfirmBonus": "",
    "damage": {
      "parts": [],
      "critParts": [],
      "nonCritParts": []
    },
    "attackParts": [],
    "formula": "",
    "ability": {
      "attack": null,
      "damage": null,
      "damageMult": 1,
      "critRange": 20,
      "critMult": 2
    },
    "save": {
      "dc": 0,
      "type": "",
      "description": ""
    },
    "effectNotes": "",
    "attackNotes": "",
    "soundEffect": "",
    "changes": [],
    "changeFlags": {
      "loseDexToAC": false,
      "noStr": false,
      "noDex": false,
      "oneInt": false,
      "oneWis": false,
      "oneCha": false,
      "noEncumbrance": false,
      "mediumArmorFullSpeed": false,
      "heavyArmorFullSpeed": false
    },
    "contextNotes": [],
    "links": {
      "children": [],
      "charges": []
    },
    "tag": "",
    "useCustomTag": false,
    "armorProf": {
      "value": [],
      "custom": ""
    },
    "weaponProf": {
      "value": [],
      "custom": ""
    },
    "featType": "classFeat",
    "associations": {
      "classes": [
        [
          "Oracle"
        ]
      ]
    },
    "showInQuickbar": false,
    "nonlethal": false,
    "abilityType": "none",
    "crOffset": "",
    "attack": {
      "parts": []
    }
  },
  "flags": {},
  "img": "systems/pf1/icons/spells/horror-eerie-1.jpg",
  "effects": []
}