{
  "_id": "bJ53X6rilkK70whj",
  "name": "Psychedelia Discipline",
  "permission": {
    "default": 0
  },
  "type": "feat",
  "data": {
    "description": {
      "value": "<p>You ingest hallucinogens to expand your mind. Experimentation and study show you which ones will have the greatest effect. Your psychedelic forays put you into a different mental space from others, and normal people don’t really understand you.<br><br><strong>Phrenic Pool Ability:</strong> Wisdom<br><br><strong>Bonus Spells:</strong>&nbsp;</p>\n<ul>\n<li>@Compendium[pf1.spells.azyo7xhfwdtjchtm]{Polypurpose Panacea} (1st),&nbsp;</li>\n<li>@Compendium[pf1.spells.d4mp0m5xfnu9hbhn]{Mad Hallucination} (4th),&nbsp;</li>\n<li>@Compendium[pf1.spells.zk334ykycwiwb0gn]{Synesthesia} (6th),&nbsp;</li>\n<li>@Compendium[pf1.spells.n0bsyxchnigkkuqo]{Confusion} (8th),&nbsp;</li>\n<li>@Compendium[pf1.spells.82vi1xife3nlu8a0]{Mirage Arcana} (10th),&nbsp;</li>\n<li>@Compendium[pf1.spells.2ip53auf03bqxkl1]{Joyful Rapture} (12th),&nbsp;</li>\n<li>@Compendium[pf1.spells.ni0okhagwuk0jbe9]{Waves of Ecstasy} (14th),&nbsp;</li>\n<li>@Compendium[pf1.spells.xlzqpkl8fpm3sn4u]{Euphoric Tranquility} (16th),&nbsp;</li>\n<li>@Compendium[pf1.spells.lnahlmp5mih2ongh]{Astral Projection} (18th).</li>\n</ul>",
      "chat": "",
      "unidentified": ""
    },
    "tags": [],
    "activation": {
      "cost": 1,
      "type": ""
    },
    "unchainedAction": {
      "activation": {
        "cost": 1,
        "type": ""
      }
    },
    "duration": {
      "value": null,
      "units": ""
    },
    "target": {
      "value": ""
    },
    "range": {
      "value": null,
      "units": "",
      "maxIncrements": 1,
      "minValue": null,
      "minUnits": "",
      "long": null
    },
    "uses": {
      "value": 0,
      "max": 0,
      "per": null,
      "autoDeductCharges": true,
      "autoDeductChargesCost": "1"
    },
    "measureTemplate": {
      "type": "",
      "size": "",
      "overrideColor": false,
      "customColor": "",
      "overrideTexture": false,
      "customTexture": ""
    },
    "attackName": "",
    "actionType": "",
    "attackBonus": "",
    "critConfirmBonus": "",
    "damage": {
      "parts": [],
      "critParts": [],
      "nonCritParts": []
    },
    "attackParts": [],
    "formula": "",
    "ability": {
      "attack": null,
      "damage": null,
      "damageMult": 1,
      "critRange": 20,
      "critMult": 2
    },
    "save": {
      "dc": 0,
      "type": "",
      "description": ""
    },
    "effectNotes": "",
    "attackNotes": "",
    "soundEffect": "",
    "changes": [],
    "changeFlags": {
      "loseDexToAC": false,
      "noStr": false,
      "noDex": false,
      "oneInt": false,
      "oneWis": false,
      "oneCha": false,
      "noEncumbrance": false,
      "mediumArmorFullSpeed": false,
      "heavyArmorFullSpeed": false
    },
    "contextNotes": [],
    "links": {
      "children": [],
      "charges": []
    },
    "tag": "",
    "useCustomTag": false,
    "armorProf": {
      "value": [],
      "custom": ""
    },
    "weaponProf": {
      "value": [],
      "custom": ""
    },
    "featType": "classFeat",
    "associations": {
      "classes": [
        [
          "Psychic"
        ]
      ]
    },
    "showInQuickbar": false,
    "nonlethal": false,
    "abilityType": "none",
    "crOffset": "",
    "attack": {
      "parts": []
    }
  },
  "flags": {},
  "img": "systems/pf1/icons/spells/slice-spirit-3.jpg",
  "effects": []
}