{
  "_id": "dOs2PFKoLDEOELkC",
  "name": "Reflection of Weakness",
  "permission": {
    "default": 0
  },
  "type": "feat",
  "data": {
    "description": {
      "value": "<p>Psychic feedback causes an enemy to suffer from the same weakening effect it imposes on the subject. The mesmerist can trigger this trick when an attack or spell used by an enemy causes the subject to take ability damage, ability drain, bleed damage, or a minor or moderate condition listed under the touch treatment class feature. If the trick is triggered by ability damage, ability drain, or bleed damage, the amount of damage or drain the subject takes is reduced by 2 points (to a minimum of 0 points), and the creature that made the attack or cast the spell takes 2 points of ability damage to an ability score of the mesmerist’s choice. The monster can attempt a Will save to negate the ability damage. This ability can be used if the attacker inflicts a curse, disease, or poison that deals ability damage or drain, but only if it deals that damage immediately, with no onset time. If the trick is triggered by the subject gaining a condition, the subject is still affected by the condition, but the attacker takes a condition of the mesmerist’s choice for 1 round. This condition must come from the minor condition or moderate condition lists of the touch treatment class feature. The enemy can attempt a Will save to avoid gaining the condition.</p>\n<p>The mesmerist doesn’t need to have touch treatment to select or use this trick.</p>",
      "chat": "",
      "unidentified": ""
    },
    "tags": [],
    "activation": {
      "cost": 1,
      "type": ""
    },
    "unchainedAction": {
      "activation": {
        "cost": 1,
        "type": ""
      }
    },
    "duration": {
      "value": null,
      "units": ""
    },
    "target": {
      "value": ""
    },
    "range": {
      "value": null,
      "units": "",
      "maxIncrements": 1,
      "minValue": null,
      "minUnits": "",
      "long": null
    },
    "uses": {
      "value": 0,
      "max": 0,
      "per": null,
      "autoDeductCharges": true,
      "autoDeductChargesCost": "1"
    },
    "measureTemplate": {
      "type": "",
      "size": "",
      "overrideColor": false,
      "customColor": "",
      "overrideTexture": false,
      "customTexture": ""
    },
    "attackName": "",
    "actionType": "",
    "attackBonus": "",
    "critConfirmBonus": "",
    "damage": {
      "parts": [],
      "critParts": [],
      "nonCritParts": []
    },
    "attackParts": [],
    "formula": "",
    "ability": {
      "attack": null,
      "damage": null,
      "damageMult": 1,
      "critRange": 20,
      "critMult": 2
    },
    "save": {
      "dc": 0,
      "type": "",
      "description": ""
    },
    "effectNotes": "",
    "attackNotes": "",
    "soundEffect": "",
    "changes": [],
    "changeFlags": {
      "loseDexToAC": false,
      "noStr": false,
      "noDex": false,
      "oneInt": false,
      "oneWis": false,
      "oneCha": false,
      "noEncumbrance": false,
      "mediumArmorFullSpeed": false,
      "heavyArmorFullSpeed": false
    },
    "contextNotes": [],
    "links": {
      "children": [],
      "charges": []
    },
    "tag": "",
    "useCustomTag": false,
    "armorProf": {
      "value": [],
      "custom": ""
    },
    "weaponProf": {
      "value": [],
      "custom": ""
    },
    "featType": "classFeat",
    "associations": {
      "classes": [
        [
          "Mesmerist"
        ]
      ]
    },
    "showInQuickbar": false,
    "nonlethal": false,
    "abilityType": "none",
    "crOffset": "",
    "attack": {
      "parts": []
    }
  },
  "flags": {},
  "img": "systems/pf1/icons/skills/violet_26.jpg",
  "effects": []
}