{
  "_id": "eROVW8PzBztdcMd6",
  "name": "Repose Domain",
  "permission": {
    "default": 0
  },
  "type": "feat",
  "data": {
    "description": {
      "value": "<p><strong>Granted Powers:</strong> You see death not as something to be feared, but as a final rest and reward for a life well spent. The taint of undeath is a mockery of what you hold dear.</p>\n<p><strong>Domain Spells:</strong></p>\n<ul>\n<li>1st—@Compendium[pf1.spells.1hjxxr3k62rcpb5c]{Deathwatch}</li>\n<li>2nd—@Compendium[pf1.spells.vdmsaodgnbo8wjfx]{Gentle Repose}</li>\n<li>3rd—@Compendium[pf1.spells.byn5q46du0ck592a]{Speak with Dead}</li>\n<li>4th—@Compendium[pf1.spells.e0rlki4hwu76l5ya]{Death Ward}</li>\n<li>5th—@Compendium[pf1.spells.dg3mrasygkm83c3e]{Slay Living}</li>\n<li>6th—@Compendium[pf1.spells.lllhr9py6w44cxjm]{Undeath to Death}</li>\n<li>7th—@Compendium[pf1.spells.rlfd7f64wgjfvg6e]{Destruction}</li>\n<li>8th—@Compendium[pf1.spells.9f3hf9h3j8q8062b]{Waves of Exhaustion}</li>\n<li>9th—@Compendium[pf1.spells.wplgawb6aznjx7se]{Wail of the Banshee}</li>\n</ul>",
      "chat": "",
      "unidentified": ""
    },
    "tags": [],
    "activation": {
      "cost": 1,
      "type": ""
    },
    "unchainedAction": {
      "activation": {
        "cost": 1,
        "type": ""
      }
    },
    "duration": {
      "value": null,
      "units": ""
    },
    "target": {
      "value": ""
    },
    "range": {
      "value": null,
      "units": "",
      "maxIncrements": 1,
      "minValue": null,
      "minUnits": "",
      "long": null
    },
    "uses": {
      "value": 0,
      "max": 0,
      "per": null,
      "autoDeductCharges": true,
      "autoDeductChargesCost": "1"
    },
    "measureTemplate": {
      "type": "",
      "size": "0",
      "overrideColor": false,
      "customColor": "",
      "overrideTexture": false,
      "customTexture": ""
    },
    "attackName": "",
    "actionType": "",
    "attackBonus": "",
    "critConfirmBonus": "",
    "damage": {
      "parts": [],
      "critParts": [],
      "nonCritParts": []
    },
    "attackParts": [],
    "formula": "",
    "ability": {
      "attack": null,
      "damage": null,
      "damageMult": 1,
      "critRange": 20,
      "critMult": 2
    },
    "save": {
      "dc": 0,
      "type": "",
      "description": ""
    },
    "effectNotes": "",
    "attackNotes": "",
    "soundEffect": "",
    "changes": [],
    "changeFlags": {
      "loseDexToAC": false,
      "noStr": false,
      "noDex": false,
      "oneInt": false,
      "oneWis": false,
      "oneCha": false,
      "noEncumbrance": false,
      "mediumArmorFullSpeed": false,
      "heavyArmorFullSpeed": false
    },
    "contextNotes": [],
    "links": {
      "children": [],
      "charges": []
    },
    "tag": "",
    "useCustomTag": false,
    "armorProf": {
      "value": [],
      "custom": ""
    },
    "weaponProf": {
      "value": [],
      "custom": ""
    },
    "featType": "classFeat",
    "associations": {
      "classes": [
        [
          "Cleric"
        ]
      ]
    },
    "showInQuickbar": false,
    "nonlethal": false,
    "abilityType": "none",
    "crOffset": "",
    "attack": {
      "parts": []
    }
  },
  "flags": {},
  "img": "systems/pf1/icons/skills/affliction_05.jpg",
  "effects": []
}