{
  "_id": "bdC2jN3FmpObGjqy",
  "name": "Rift Fog",
  "permission": {
    "default": 0
  },
  "type": "feat",
  "data": {
    "description": {
      "value": "<p>As a standard action, the arcanist can spend 1 point from his arcane reservoir to create a 5-foot-radius vortex of chilling fog adjacent to him. Hints of leering, fiendish faces whirl within the mist. As a move action, the arcanist can direct the cloud of rift fog to move in any direction at a speed of 30 feet to a maximum range of 60 feet from the arcanist. The fog may ascend or jump up to 30 feet to strike a target. Once the fog ends its movement, coils of its otherworldly mist surround any targets that are wholly or partially in its area. The fog’s supernaturally cold temperature causes 1d6 points of cold damage to affected creatures. A creature damaged by rift fog becomes slowed (as per the @Compendium[pf1.spells.jcr72piqo6g549e1]{Slow}&nbsp;spell) for the following round if it fails a Will save. Once created, rift fog persists for 1 round per 2 arcanist levels (minimum of 1 round), or until the arcanist activates a new exploit.</p>",
      "chat": "",
      "unidentified": ""
    },
    "tags": [],
    "activation": {
      "cost": 1,
      "type": "standard"
    },
    "unchainedAction": {
      "activation": {
        "cost": 2,
        "type": "action"
      }
    },
    "duration": {
      "value": "floor(@classes.arcanist.level / 2)",
      "units": "round"
    },
    "target": {
      "value": ""
    },
    "range": {
      "value": null,
      "units": "",
      "maxIncrements": 1,
      "minValue": null,
      "minUnits": "",
      "long": null
    },
    "uses": {
      "value": 0,
      "max": 0,
      "per": "",
      "autoDeductCharges": true,
      "autoDeductChargesCost": "1"
    },
    "measureTemplate": {
      "type": "",
      "size": "",
      "overrideColor": false,
      "customColor": "",
      "overrideTexture": false,
      "customTexture": ""
    },
    "attackName": "",
    "actionType": "",
    "attackBonus": "",
    "critConfirmBonus": "",
    "damage": {
      "parts": [],
      "critParts": [],
      "nonCritParts": []
    },
    "attackParts": [],
    "formula": "",
    "ability": {
      "attack": null,
      "damage": null,
      "damageMult": 1,
      "critRange": 20,
      "critMult": 2
    },
    "save": {
      "dc": 0,
      "type": "",
      "description": ""
    },
    "effectNotes": "",
    "attackNotes": "",
    "soundEffect": "",
    "changes": [],
    "changeFlags": {
      "loseDexToAC": false,
      "noStr": false,
      "noDex": false,
      "oneInt": false,
      "oneWis": false,
      "oneCha": false,
      "noEncumbrance": false,
      "mediumArmorFullSpeed": false,
      "heavyArmorFullSpeed": false
    },
    "contextNotes": [],
    "links": {
      "children": [],
      "charges": []
    },
    "tag": "",
    "useCustomTag": false,
    "armorProf": {
      "value": [],
      "custom": ""
    },
    "weaponProf": {
      "value": [],
      "custom": ""
    },
    "featType": "classFeat",
    "associations": {
      "classes": [
        [
          "Arcanist"
        ]
      ]
    },
    "showInQuickbar": false,
    "nonlethal": false,
    "abilityType": "su",
    "crOffset": "",
    "attack": {
      "parts": []
    }
  },
  "flags": {},
  "img": "systems/pf1/icons/spells/runes-blue-2.jpg",
  "effects": []
}