{
  "_id": "k1OBZUPyNyodotBI",
  "name": "School Understanding",
  "permission": {
    "default": 0
  },
  "type": "feat",
  "data": {
    "description": {
      "value": "<p>The arcanist can select one&nbsp;<a href=\"https://www.aonprd.com/WizardSchools.aspx\">arcane school</a>&nbsp;from any of the schools available to a character with the arcane school wizard class feature, but does not have to select any opposition schools. The arcanist gains one ability of that arcane school as though she were a 1st-level wizard, using her Charisma modifier in place of her Intelligence modifier for this ability. The ability must be one gained at 1st level and is limited in its use per day to 3 + the arcanist’s Charisma modifier. As a swift action, the arcanist can expend 1 point from her arcane reservoir to bolster her understanding, allowing her to treat her arcanist level as her wizard level for the purpose of using this ability for a number of rounds equal to her Charisma modifier (minimum 1). During this time, she also gains use of the other ability gained at 1st level for her selected school. She does not gain any other abilities when using this exploit in this way, such as those gained at 8th level.<br><br>If the arcanist already has an arcane school (or gains one later), taking this exploit instead allows her arcanist levels to stack with the levels of the class that granted the arcane school when determining the powers and abilities of her arcane school.</p>",
      "chat": "",
      "unidentified": ""
    },
    "tags": [],
    "activation": {
      "cost": 1,
      "type": "swift"
    },
    "unchainedAction": {
      "activation": {
        "cost": 1,
        "type": "action"
      }
    },
    "duration": {
      "value": "@abilities.cha.mod",
      "units": "minute"
    },
    "target": {
      "value": ""
    },
    "range": {
      "value": null,
      "units": "",
      "maxIncrements": 1,
      "minValue": null,
      "minUnits": "",
      "long": null
    },
    "uses": {
      "value": 0,
      "max": 3,
      "per": "day",
      "autoDeductCharges": true,
      "autoDeductChargesCost": "1",
      "maxFormula": "3 + @abilities.cha.mod"
    },
    "measureTemplate": {
      "type": "",
      "size": "",
      "overrideColor": false,
      "customColor": "",
      "overrideTexture": false,
      "customTexture": ""
    },
    "attackName": "",
    "actionType": "",
    "attackBonus": "",
    "critConfirmBonus": "",
    "damage": {
      "parts": [],
      "critParts": [],
      "nonCritParts": []
    },
    "attackParts": [],
    "formula": "",
    "ability": {
      "attack": null,
      "damage": null,
      "damageMult": 1,
      "critRange": 20,
      "critMult": 2
    },
    "save": {
      "dc": 0,
      "type": "",
      "description": ""
    },
    "effectNotes": "",
    "attackNotes": "",
    "soundEffect": "",
    "changes": [],
    "changeFlags": {
      "loseDexToAC": false,
      "noStr": false,
      "noDex": false,
      "oneInt": false,
      "oneWis": false,
      "oneCha": false,
      "noEncumbrance": false,
      "mediumArmorFullSpeed": false,
      "heavyArmorFullSpeed": false
    },
    "contextNotes": [],
    "links": {
      "children": [],
      "charges": []
    },
    "tag": "",
    "useCustomTag": false,
    "armorProf": {
      "value": [],
      "custom": ""
    },
    "weaponProf": {
      "value": [],
      "custom": ""
    },
    "featType": "classFeat",
    "associations": {
      "classes": [
        [
          "Arcanist"
        ]
      ]
    },
    "showInQuickbar": false,
    "nonlethal": false,
    "abilityType": "none",
    "crOffset": "",
    "attack": {
      "parts": []
    }
  },
  "flags": {},
  "img": "systems/pf1/icons/spells/runes-blue-2.jpg",
  "effects": []
}