{
  "_id": "S9kTtHg0lJQfFGJc",
  "name": "Superiority Discipline",
  "permission": {
    "default": 0
  },
  "type": "feat",
  "data": {
    "description": {
      "value": "<p>You know that you are far better than average creatures of your kind. The more you leverage your psychic talents to prove yourself superior, the more powerful you become.<br><br><strong>Phrenic Pool Ability:</strong> Charisma<br><br><strong>Bonus Spells:</strong>&nbsp;</p>\n<ul>\n<li>@Compendium[pf1.spells.6ux76jy9wbi88br0]{Moment of Greatness} (1st),&nbsp;</li>\n<li>@Compendium[pf1.spells.wrh3m8ad4l8sbisc]{Deflect Blame} (4th),&nbsp;</li>\n<li><a href=\"https://aonprd.com/SpellDisplay.aspx?ItemName=Unflappable%20Mien\">unflappable mien</a>&nbsp;(6th),&nbsp;</li>\n<li>@Compendium[pf1.spells.qy6sn5a4wrsa36yb]{Majestic Image} (8th),&nbsp;</li>\n<li>@Compendium[pf1.spells.9v2s3xjlakjm1eq1]{Mage's Private Sanctum} (10th),&nbsp;</li>\n<li>@Compendium[pf1.spells.9pbl3ktd5oqejl19]{Transformation} (12th),&nbsp;</li>\n<li>@Compendium[pf1.spells.0w3hvcp3gb2bhtv5]{Project Image} (14th),&nbsp;</li>\n<li>@Compendium[pf1.spells.9968j68bl9x9iq7u]{Clone} (self only) (16th),&nbsp;</li>\n<li>@Compendium[pf1.spells.xuuzj9lr2xbwaim4]{Overwhelming Presence} (18th).</li>\n</ul>",
      "chat": "",
      "unidentified": ""
    },
    "tags": [],
    "activation": {
      "cost": 1,
      "type": ""
    },
    "unchainedAction": {
      "activation": {
        "cost": 1,
        "type": ""
      }
    },
    "duration": {
      "value": null,
      "units": ""
    },
    "target": {
      "value": ""
    },
    "range": {
      "value": null,
      "units": "",
      "maxIncrements": 1,
      "minValue": null,
      "minUnits": "",
      "long": null
    },
    "uses": {
      "value": 0,
      "max": 0,
      "per": null,
      "autoDeductCharges": true,
      "autoDeductChargesCost": "1"
    },
    "measureTemplate": {
      "type": "",
      "size": "",
      "overrideColor": false,
      "customColor": "",
      "overrideTexture": false,
      "customTexture": ""
    },
    "attackName": "",
    "actionType": "",
    "attackBonus": "",
    "critConfirmBonus": "",
    "damage": {
      "parts": [],
      "critParts": [],
      "nonCritParts": []
    },
    "attackParts": [],
    "formula": "",
    "ability": {
      "attack": null,
      "damage": null,
      "damageMult": 1,
      "critRange": 20,
      "critMult": 2
    },
    "save": {
      "dc": 0,
      "type": "",
      "description": ""
    },
    "effectNotes": "",
    "attackNotes": "",
    "soundEffect": "",
    "changes": [],
    "changeFlags": {
      "loseDexToAC": false,
      "noStr": false,
      "noDex": false,
      "oneInt": false,
      "oneWis": false,
      "oneCha": false,
      "noEncumbrance": false,
      "mediumArmorFullSpeed": false,
      "heavyArmorFullSpeed": false
    },
    "contextNotes": [],
    "links": {
      "children": [],
      "charges": []
    },
    "tag": "",
    "useCustomTag": false,
    "armorProf": {
      "value": [],
      "custom": ""
    },
    "weaponProf": {
      "value": [],
      "custom": ""
    },
    "featType": "classFeat",
    "associations": {
      "classes": [
        [
          "Psychic"
        ]
      ]
    },
    "showInQuickbar": false,
    "nonlethal": false,
    "abilityType": "none",
    "crOffset": "",
    "attack": {
      "parts": []
    }
  },
  "flags": {},
  "img": "systems/pf1/icons/spells/slice-spirit-3.jpg",
  "effects": []
}