{
  "_id": "kL2HJCyRJc6KMf0g",
  "name": "Verdant Bloodline",
  "permission": {
    "default": 0
  },
  "type": "feat",
  "data": {
    "description": {
      "value": "<p><em>Your progenitors infused themselves with raw plant life, binding it into their own tissue and passing it down to their literal seed, giving you innate communion with nature.</em></p>\n<p><strong>Class Skill:</strong>&nbsp;<a href=\"https://www.d20pfsrd.com/skills/knowledge\">Knowledge</a>&nbsp;(nature).</p>\n<p><strong>Bonus Spells:</strong></p>\n<ul>\n<li>@Compendium[pf1.spells.2nn2tshkn4p7k25l]{Entangle}&nbsp;(3rd),</li>\n<li>@Compendium[pf1.spells.la7kuehewu85ybnt]{Barkskin}&nbsp;(5th),</li>\n<li>@Compendium[pf1.spells.rrsefzpm3nhztvld]{Speak with Plants} (7th),</li>\n<li>@Compendium[pf1.spells.wi9uvm8p12qvq616]{Command Plants}&nbsp;(9th),</li>\n<li>@Compendium[pf1.spells.nqfoy30smshc3c6w]{Wall Of Thorns}&nbsp;(11th),</li>\n<li>@Compendium[pf1.spells.1i5uea24eq88q1kw]{Transport via Plants}&nbsp;(13th),</li>\n<li>@Compendium[pf1.spells.sheso071mxbywlah]{Plant Shape III}&nbsp;(15th),</li>\n<li>@Compendium[pf1.spells.qt0xmkag6ahtvesm]{Animate Plants}&nbsp;(17th),</li>\n<li>@Compendium[pf1.spells.bp4s030vn5iwwf58]{Shambler} (19th).</li>\n</ul>\n<p><strong>Bonus Feats:</strong></p>\n<ul>\n<li>@Compendium[pf1.feats.B6wEQOUMv2ifm2Nj]{Acrobatic Steps},</li>\n<li>@Compendium[pf1.feats.lIlQnrRkC3YJ1V6t]{Craft Staff},</li>\n<li>@Compendium[pf1.feats.ehqx8txNRGMaNOPt]{Endurance},</li>\n<li>@Compendium[pf1.feats.btXWioB3SKJv8YEG]{Extend Spell},</li>\n<li>@Compendium[pf1.feats.BkKYCzEGNTzZRiTz]{Fleet},</li>\n<li>@Compendium[pf1.feats.VMVAqGze4cs3naya]{Nimble Moves},</li>\n<li>@Compendium[pf1.feats.7zJTztNW7hdaqjKc]{Skill Focus}&nbsp;(<a href=\"https://www.d20pfsrd.com/skills/knowledge\">Knowledge</a>&nbsp;[nature]),</li>\n<li>@Compendium[pf1.feats.8snLqsJN4LLL00Nq]{Toughness}.</li>\n</ul>\n<p><a name=\"TOC-Bloodline-Arcana\"></a><strong>Bloodline Arcana:</strong> Whenever you cast a spell with a range of personal, your skin toughens, granting you a&nbsp;<a href=\"https://www.d20pfsrd.com/basics-ability-scores/glossary#TOC-Natural-armor-Bonus\">natural armor bonus</a>&nbsp;equal to the spell’s level for 1d4 rounds. This bonus does not stack with any other&nbsp;<a href=\"https://www.d20pfsrd.com/basics-ability-scores/glossary#TOC-Natural-armor-Bonus\">natural armor</a>&nbsp;bonuses you might have.</p>",
      "chat": "",
      "unidentified": ""
    },
    "tags": [],
    "activation": {
      "cost": 1,
      "type": ""
    },
    "unchainedAction": {
      "activation": {
        "cost": 1,
        "type": ""
      }
    },
    "duration": {
      "value": null,
      "units": ""
    },
    "target": {
      "value": ""
    },
    "range": {
      "value": null,
      "units": "",
      "maxIncrements": 1,
      "minValue": null,
      "minUnits": "",
      "long": null
    },
    "uses": {
      "value": 0,
      "max": 0,
      "per": null,
      "autoDeductCharges": true,
      "autoDeductChargesCost": "1"
    },
    "measureTemplate": {
      "type": "",
      "size": "0",
      "overrideColor": false,
      "customColor": "",
      "overrideTexture": false,
      "customTexture": ""
    },
    "attackName": "",
    "actionType": "",
    "attackBonus": "",
    "critConfirmBonus": "",
    "damage": {
      "parts": [],
      "critParts": [],
      "nonCritParts": []
    },
    "attackParts": [],
    "formula": "",
    "ability": {
      "attack": null,
      "damage": null,
      "damageMult": 1,
      "critRange": 20,
      "critMult": 2
    },
    "save": {
      "dc": 0,
      "type": "",
      "description": ""
    },
    "effectNotes": "",
    "attackNotes": "",
    "soundEffect": "",
    "changes": [],
    "changeFlags": {
      "loseDexToAC": false,
      "noStr": false,
      "noDex": false,
      "oneInt": false,
      "oneWis": false,
      "oneCha": false,
      "noEncumbrance": false,
      "mediumArmorFullSpeed": false,
      "heavyArmorFullSpeed": false
    },
    "contextNotes": [],
    "links": {
      "children": [],
      "charges": []
    },
    "tag": "",
    "useCustomTag": false,
    "armorProf": {
      "value": [],
      "custom": ""
    },
    "weaponProf": {
      "value": [],
      "custom": ""
    },
    "featType": "classFeat",
    "associations": {
      "classes": [
        [
          "Sorcerer"
        ]
      ]
    },
    "showInQuickbar": false,
    "nonlethal": false,
    "abilityType": "none",
    "crOffset": "",
    "attack": {
      "parts": []
    }
  },
  "flags": {},
  "img": "systems/pf1/icons/skills/green_17.jpg",
  "effects": []
}