{
  "_id": "olTpyao476hOEzzm",
  "name": "Shield",
  "permission": {
    "default": 0
  },
  "type": "buff",
  "data": {
    "description": {
      "value": "<p>An invisible shield of force hovers in front of you, with the following effects:</p>\n<ul>\n<li>+4 Shield Bonus to AC</li>\n<li>Negates Magic Missile attacks direct at you</li>\n</ul>\n<p>These bonuses apply to incorporeal touch attacks.</p>",
      "chat": "",
      "unidentified": ""
    },
    "tags": [],
    "changes": [
      {
        "_id": "gq5kc0g2",
        "formula": "4",
        "operator": "+",
        "target": "ac",
        "subTarget": "sac",
        "modifier": "base",
        "priority": 0,
        "value": 0
      }
    ],
    "changeFlags": {
      "loseDexToAC": false,
      "noStr": false,
      "noDex": false,
      "oneInt": false,
      "oneWis": false,
      "oneCha": false,
      "noEncumbrance": false,
      "mediumArmorFullSpeed": false,
      "heavyArmorFullSpeed": false
    },
    "contextNotes": [],
    "links": {
      "children": []
    },
    "buffType": "temp",
    "active": false,
    "level": "",
    "hideFromToken": false,
    "damage": {
      "parts": []
    }
  },
  "sort": 5600000,
  "flags": {},
  "img": "systems/pf1/icons/spells/protect-blue-1.jpg",
  "effects": []
}