{
  "_id": "z1j8oc2291czpinh",
  "name": "Blade Barrier",
  "permission": {
    "default": 0
  },
  "type": "spell",
  "data": {
    "description": {
      "value": "<div class=\"spell-description\">\n  <p>\n    <strong>School</strong>&nbsp;evocation&nbsp;[force];\n    <strong>Level</strong>&nbsp;cleric/oracle 6, inquisitor 6, occultist 6, psychic 6;\n    <strong>Domain</strong>&nbsp;Good 6, War 6;\n    \n    \n    \n  </p>\n  <p>\n    <strong>Casting Time</strong>&nbsp;1 standard action<br>\n    <strong>Components</strong>&nbsp;V, S<br>\n  </p>\n  <p>\n    <strong>Range</strong>&nbsp;medium (100 ft. + 10 ft./level)<br>\n    \n    \n    <strong>Effect</strong>&nbsp;wall of whirling blades up to 20 ft. long/level, or a ringed wall of whirling blades with a radius of up to 5 ft. per two levels; either form is 20 ft. high<br>\n    <strong>Duration</strong>&nbsp;1 min./level (D)<br>\n    <strong>Saving Throw</strong>&nbsp;Reflex half or Reflex negates; see text;&nbsp;<strong>Spell Resistance</strong>&nbsp;yes<br>\n  </p>\n  <h2>Description</h2>\n  <p>An immobile, vertical curtain of whirling blades shaped of pure force springs into existence. Any creature passing through the wall takes 1d6 points of damage per caster level (maximum 15d6), with a Reflex save for half damage.</p><p>If you evoke the barrier so that it appears where creatures are, each creature takes damage as if passing through the wall.</p><p>Each such creature can avoid the wall (ending up on the side of its choice) and thus take no damage by making a successful Reflex save.</p><p>A <i>blade barrier</i> provides cover (+4 bonus to AC, +2 bonus on Reflex saves) against attacks made through it.</p>\n</div>\n",
      "chat": "",
      "unidentified": ""
    },
    "tags": [],
    "activation": {
      "cost": 1,
      "type": "standard"
    },
    "unchainedAction": {
      "activation": {
        "cost": 2,
        "type": "action"
      }
    },
    "duration": {
      "value": null,
      "units": ""
    },
    "target": {
      "value": ""
    },
    "range": {
      "value": null,
      "units": "medium",
      "maxIncrements": 1,
      "minValue": null,
      "minUnits": ""
    },
    "uses": {
      "value": 0,
      "max": 0,
      "per": "",
      "autoDeductCharges": true,
      "autoDeductChargesCost": "1"
    },
    "measureTemplate": {
      "type": "",
      "size": "0",
      "overrideColor": false,
      "customColor": "",
      "overrideTexture": false,
      "customTexture": ""
    },
    "attackName": "",
    "actionType": "spellsave",
    "attackBonus": "",
    "critConfirmBonus": "",
    "damage": {
      "parts": [],
      "critParts": [],
      "nonCritParts": []
    },
    "attackParts": [],
    "formula": "",
    "ability": {
      "attack": "",
      "damage": "",
      "damageMult": 1,
      "critRange": 20,
      "critMult": 2
    },
    "save": {
      "dc": "0",
      "type": "ref",
      "description": "Reflex half or Reflex negates; see text"
    },
    "effectNotes": "",
    "attackNotes": "",
    "soundEffect": "",
    "links": {
      "children": []
    },
    "learnedAt": {
      "class": [
        [
          "cleric/oracle",
          6
        ],
        [
          "inquisitor",
          6
        ],
        [
          "psychic",
          6
        ],
        [
          "occultist",
          6
        ]
      ],
      "domain": [
        [
          "Good",
          6
        ],
        [
          "War",
          6
        ]
      ],
      "subDomain": [],
      "elementalSchool": [],
      "bloodline": []
    },
    "level": 6,
    "clOffset": 0,
    "slOffset": 0,
    "school": "evo",
    "subschool": "",
    "types": "force",
    "nonlethal": false,
    "conditionals": [],
    "components": {
      "value": "",
      "verbal": true,
      "somatic": true,
      "material": false,
      "focus": false,
      "divineFocus": 0
    },
    "castTime": "",
    "materials": {
      "value": "",
      "focus": "",
      "gpValue": 0
    },
    "spellbook": "primary",
    "preparation": {
      "preparedAmount": 0,
      "maxAmount": 0,
      "autoDeductCharges": true,
      "spontaneousPrepared": true,
      "mode": "prepared"
    },
    "atWill": false,
    "sr": true,
    "shortDescription": "<p>An immobile, vertical curtain of whirling blades shaped of pure force springs into existence. Any creature passing through the wall takes 1d6 points of damage per caster level (maximum 15d6), with a Reflex save for half damage.</p><p>If you evoke the barrier so that it appears where creatures are, each creature takes damage as if passing through the wall.</p><p>Each such creature can avoid the wall (ending up on the side of its choice) and thus take no damage by making a successful Reflex save.</p><p>A <i>blade barrier</i> provides cover (+4 bonus to AC, +2 bonus on Reflex saves) against attacks made through it.</p>",
    "spellDuration": "1 min./level (D)",
    "spellEffect": "wall of whirling blades up to 20 ft. long/level, or a ringed wall of whirling blades with a radius of up to 5 ft. per two levels; either form is 20 ft. high",
    "spellArea": "",
    "showInQuickbar": false,
    "spellPoints": {
      "cost": "1 + @sl"
    },
    "domain": false,
    "slotCost": 1
  },
  "flags": {},
  "img": "systems/pf1/icons/misc/magic-swirl.png",
  "effects": []
}