{
  "_id": "myg2b9ww43nnlbr2",
  "name": "Break Enchantment",
  "permission": {
    "default": 0
  },
  "type": "spell",
  "data": {
    "description": {
      "value": "<div class=\"spell-description\">\n  <p>\n    <strong>School</strong>&nbsp;abjuration;\n    <strong>Level</strong>&nbsp;adept 5, bard 4, cleric/oracle 5, inquisitor 5, medium 4, mesmerist 4, occultist 4, paladin 4, psychic 4, shaman 5, sorcerer/wizard 5, spiritualist 5, witch 5;\n    <strong>Domain</strong>&nbsp;Liberation 5, Luck 5;\n    <strong>Subdomain</strong>&nbsp;Restoration 5;\n    \n    <strong>Bloodline</strong>&nbsp;Destined 5;\n  </p>\n  <p>\n    <strong>Casting Time</strong>&nbsp;1 minute<br>\n    <strong>Components</strong>&nbsp;V, S<br>\n  </p>\n  <p>\n    <strong>Range</strong>&nbsp;close (25 ft. + 5 ft./2 levels)<br>\n    \n    <strong>Targets</strong>&nbsp;up to one creature per level, all within 30 ft. of each other<br>\n    \n    <strong>Duration</strong>&nbsp;instantaneous<br>\n      <strong>Saving Throw</strong>&nbsp;see text;&nbsp;\n      <strong>Spell Resistance</strong>&nbsp;no<br>\n  </p>\n  <h2>Description</h2>\n  <p>This spell frees victims from enchantments, transmutations, and curses. <i>Break enchantment</i> can reverse even an instantaneous effect. For each such effect, you make a caster level check (1d20 + caster level, maximum +15) against a DC of 11 + caster level of the effect. Success means that the creature is free of the spell, curse, or effect. For a cursed magic item, the DC is equal to the DC of the curse.</p><p>If the spell is one that cannot be dispelled by <i>dispel magic</i> or <i>stone to flesh</i>, <i>break enchantment</i> works only if that spell is 5th level or lower.</p><p>If the effect comes from a permanent magic item, <i>break enchantment</i> does not remove the curse from the item, but it does free the victim from the item's effects.</p>\n</div>\n",
      "chat": "",
      "unidentified": ""
    },
    "tags": [],
    "activation": {
      "cost": 1,
      "type": "minute"
    },
    "unchainedAction": {
      "activation": {
        "cost": 1,
        "type": "minute"
      }
    },
    "duration": {
      "value": null,
      "units": ""
    },
    "target": {
      "value": "up to one creature per level, all within 30 ft. of each other"
    },
    "range": {
      "value": null,
      "units": "close",
      "maxIncrements": 1,
      "minValue": null,
      "minUnits": ""
    },
    "uses": {
      "value": 0,
      "max": 0,
      "per": "",
      "autoDeductCharges": true,
      "autoDeductChargesCost": "1"
    },
    "measureTemplate": {
      "type": "",
      "size": "0",
      "overrideColor": false,
      "customColor": "",
      "overrideTexture": false,
      "customTexture": ""
    },
    "attackName": "",
    "actionType": "spellsave",
    "attackBonus": "",
    "critConfirmBonus": "",
    "damage": {
      "parts": [],
      "critParts": [],
      "nonCritParts": []
    },
    "attackParts": [],
    "formula": "",
    "ability": {
      "attack": "",
      "damage": "",
      "damageMult": 1,
      "critRange": 20,
      "critMult": 2
    },
    "save": {
      "dc": "0",
      "type": "",
      "description": "see text"
    },
    "effectNotes": "",
    "attackNotes": "",
    "soundEffect": "",
    "links": {
      "children": []
    },
    "learnedAt": {
      "class": [
        [
          "sorcerer/wizard",
          5
        ],
        [
          "cleric/oracle",
          5
        ],
        [
          "bard",
          4
        ],
        [
          "paladin",
          4
        ],
        [
          "witch",
          5
        ],
        [
          "inquisitor",
          5
        ],
        [
          "adept",
          5
        ],
        [
          "shaman",
          5
        ],
        [
          "psychic",
          4
        ],
        [
          "medium",
          4
        ],
        [
          "mesmerist",
          4
        ],
        [
          "occultist",
          4
        ],
        [
          "spiritualist",
          5
        ]
      ],
      "domain": [
        [
          "Liberation",
          5
        ],
        [
          "Luck",
          5
        ]
      ],
      "subDomain": [
        [
          "Restoration",
          5
        ]
      ],
      "elementalSchool": [],
      "bloodline": [
        [
          "Destined",
          5
        ]
      ]
    },
    "level": 5,
    "clOffset": 0,
    "slOffset": 0,
    "school": "abj",
    "subschool": "",
    "types": "",
    "nonlethal": false,
    "conditionals": [],
    "components": {
      "value": "",
      "verbal": true,
      "somatic": true,
      "material": false,
      "focus": false,
      "divineFocus": 0
    },
    "castTime": "",
    "materials": {
      "value": "",
      "focus": "",
      "gpValue": 0
    },
    "spellbook": "",
    "preparation": {
      "preparedAmount": 0,
      "maxAmount": 0,
      "autoDeductCharges": true,
      "spontaneousPrepared": true,
      "mode": "prepared"
    },
    "atWill": false,
    "sr": false,
    "shortDescription": "<p>This spell frees victims from enchantments, transmutations, and curses. <i>Break enchantment</i> can reverse even an instantaneous effect. For each such effect, you make a caster level check (1d20 + caster level, maximum +15) against a DC of 11 + caster level of the effect. Success means that the creature is free of the spell, curse, or effect. For a cursed magic item, the DC is equal to the DC of the curse.</p><p>If the spell is one that cannot be dispelled by <i>dispel magic</i> or <i>stone to flesh</i>, <i>break enchantment</i> works only if that spell is 5th level or lower.</p><p>If the effect comes from a permanent magic item, <i>break enchantment</i> does not remove the curse from the item, but it does free the victim from the item's effects.</p>",
    "spellDuration": "instantaneous",
    "spellEffect": "",
    "spellArea": "",
    "showInQuickbar": false,
    "spellPoints": {
      "cost": "1 + @sl"
    },
    "domain": false,
    "slotCost": 1,
    "identifiedName": "Break Enchantment"
  },
  "flags": {},
  "img": "systems/pf1/icons/misc/magic-swirl.png",
  "effects": []
}