{
  "_id": "oj9e6qjq969jpi2r",
  "name": "Cyclic Reincarnation",
  "permission": {
    "default": 0
  },
  "type": "spell",
  "data": {
    "description": {
      "value": "<div class=\"spell-description\">\n  <p>\n    <strong>School</strong>&nbsp;transmutation;\n    <strong>Level</strong>&nbsp;druid 6, hunter 6;\n    \n    \n    \n    \n  </p>\n  <p>\n    <strong>Casting Time</strong>&nbsp;10 minutes<br>\n    <strong>Components</strong>&nbsp;V, S, M/DF (oils worth 5,000 gp)<br>\n  </p>\n  <p>\n    <strong>Range</strong>&nbsp;touch<br>\n    \n    <strong>Targets</strong>&nbsp;dead creature touched<br>\n    \n    <strong>Duration</strong>&nbsp;instantaneous<br>\n      <strong>Saving Throw</strong>&nbsp;none, see text;&nbsp;\n      <strong>Spell Resistance</strong>&nbsp;yes<br>\n  </p>\n  <h2>Description</h2>\n  <p>This spell allows a dead creature that died no more than 1 year before the casting of the spell to return to life in a body that closely resembles its original body; it functions as <i>reincarnate</i> except as noted. <i>Cyclic reincarnation</i> returns the dead creature to life in a new body of the same race that the target belonged to in life, and the new body appears physically similar to the creature's previous one, to the extent that the creature could be easily mistaken for its own offspring or kin. If the affected creature isn't a humanoid, there is a 75% chance that the creature returns to life as a youth of its race, gaining the young creature simple template instead (or becomes a juvenile, in the case of dragons and other creatures whose power is determined by their age category).  You can use <i>cyclic reincarnation</i> on someone who was killed by a death effect or turned into an undead creature and then destroyed, but nonhumanoids so restored always return to life with the young creature simple template (or as a juvenile, in the case of creatures whose power is determined by their age category).</p>\n</div>\n",
      "chat": "",
      "unidentified": ""
    },
    "tags": [],
    "activation": {
      "cost": 10,
      "type": "minute"
    },
    "unchainedAction": {
      "activation": {
        "cost": 10,
        "type": "minute"
      }
    },
    "duration": {
      "value": null,
      "units": ""
    },
    "target": {
      "value": "dead creature touched"
    },
    "range": {
      "value": null,
      "units": "touch",
      "maxIncrements": 1,
      "minValue": null,
      "minUnits": ""
    },
    "uses": {
      "value": 0,
      "max": 0,
      "per": "",
      "autoDeductCharges": true,
      "autoDeductChargesCost": "1"
    },
    "measureTemplate": {
      "type": "",
      "size": "0",
      "overrideColor": false,
      "customColor": "",
      "overrideTexture": false,
      "customTexture": ""
    },
    "attackName": "",
    "actionType": "spellsave",
    "attackBonus": "",
    "critConfirmBonus": "",
    "damage": {
      "parts": [],
      "critParts": [],
      "nonCritParts": []
    },
    "attackParts": [],
    "formula": "",
    "ability": {
      "attack": "",
      "damage": "",
      "damageMult": 1,
      "critRange": 20,
      "critMult": 2
    },
    "save": {
      "dc": "0",
      "type": "",
      "description": "none, see text"
    },
    "effectNotes": "",
    "attackNotes": "",
    "soundEffect": "",
    "links": {
      "children": []
    },
    "learnedAt": {
      "class": [
        [
          "druid",
          6
        ],
        [
          "hunter",
          6
        ]
      ],
      "domain": [],
      "subDomain": [],
      "elementalSchool": [],
      "bloodline": []
    },
    "level": 6,
    "clOffset": 0,
    "slOffset": 0,
    "school": "trs",
    "subschool": "",
    "types": "",
    "nonlethal": false,
    "conditionals": [],
    "components": {
      "value": "",
      "verbal": true,
      "somatic": true,
      "material": true,
      "focus": false,
      "divineFocus": 2
    },
    "castTime": "",
    "materials": {
      "value": "oils worth 5,000 gp",
      "focus": "",
      "gpValue": 5000
    },
    "spellbook": "",
    "preparation": {
      "preparedAmount": 0,
      "maxAmount": 0,
      "autoDeductCharges": false,
      "spontaneousPrepared": false,
      "mode": "prepared"
    },
    "atWill": false,
    "sr": true,
    "shortDescription": "<p>This spell allows a dead creature that died no more than 1 year before the casting of the spell to return to life in a body that closely resembles its original body; it functions as <i>reincarnate</i> except as noted. <i>Cyclic reincarnation</i> returns the dead creature to life in a new body of the same race that the target belonged to in life, and the new body appears physically similar to the creature's previous one, to the extent that the creature could be easily mistaken for its own offspring or kin. If the affected creature isn't a humanoid, there is a 75% chance that the creature returns to life as a youth of its race, gaining the young creature simple template instead (or becomes a juvenile, in the case of dragons and other creatures whose power is determined by their age category).  You can use <i>cyclic reincarnation</i> on someone who was killed by a death effect or turned into an undead creature and then destroyed, but nonhumanoids so restored always return to life with the young creature simple template (or as a juvenile, in the case of creatures whose power is determined by their age category).</p>",
    "spellDuration": "instantaneous",
    "spellEffect": "",
    "spellArea": "",
    "showInQuickbar": false,
    "spellPoints": {
      "cost": ""
    },
    "domain": false,
    "slotCost": 1
  },
  "flags": {},
  "img": "systems/pf1/icons/misc/magic-swirl.png",
  "effects": []
}