{
  "_id": "qylz7ih2k99kiqx9",
  "name": "Flashfire",
  "permission": {
    "default": 0
  },
  "type": "spell",
  "data": {
    "description": {
      "value": "<div class=\"spell-description\">\n  <p>\n    <strong>School</strong>&nbsp;evocation&nbsp;[fire];\n    <strong>Level</strong>&nbsp;druid 3, hunter 3, shaman 3;\n    \n    \n    \n    \n  </p>\n  <p>\n    <strong>Casting Time</strong>&nbsp;1 standard action<br>\n    <strong>Components</strong>&nbsp;V, S<br>\n  </p>\n  <p>\n    <strong>Range</strong>&nbsp;medium (100 ft. + 10 ft./level)<br>\n    <strong>Area</strong>&nbsp;one 5-ft. square/2 levels<br>\n    \n    \n    <strong>Duration</strong>&nbsp;1 round/level<br>\n    <strong>Saving Throw</strong>&nbsp;Reflex negates (object) and Fortitude negates;&nbsp;<strong>Spell Resistance</strong>&nbsp;yes<br>\n  </p>\n  <h2>Description</h2>\n  <p>You cause flames to spring up in the area of effect. These flames deal 1d6 points of fire damage for every 3 caster levels you have (maximum 5d6) to each creature that enters a burning area or begins its turn in the area; these creatures also catch on fire. A creature that succeeds at a Reflex save negates the damage and avoids catching on fire. The area and all adjacent 5-foot squares are smoky, providing concealment within. You can concentrate as a standard action to ignite one 5-foot square adjacent to a currently burning square. Heavy precipitation (including <i>sleet</i> storm) ends the spell. Strong and severe winds spread each square of <i>flashfire</i> downwind by one square each round, but windstorm-force or stronger winds extinguish the fires.</p>\n</div>\n",
      "chat": "",
      "unidentified": ""
    },
    "tags": [],
    "activation": {
      "cost": 1,
      "type": "standard"
    },
    "unchainedAction": {
      "activation": {
        "cost": 2,
        "type": "action"
      }
    },
    "duration": {
      "value": null,
      "units": ""
    },
    "target": {
      "value": ""
    },
    "range": {
      "value": null,
      "units": "medium",
      "maxIncrements": 1,
      "minValue": null,
      "minUnits": ""
    },
    "uses": {
      "value": 0,
      "max": 0,
      "per": "",
      "autoDeductCharges": true,
      "autoDeductChargesCost": "1"
    },
    "measureTemplate": {
      "type": "",
      "size": "0",
      "overrideColor": false,
      "customColor": "",
      "overrideTexture": false,
      "customTexture": ""
    },
    "attackName": "",
    "actionType": "spellsave",
    "attackBonus": "",
    "critConfirmBonus": "",
    "damage": {
      "parts": [],
      "critParts": [],
      "nonCritParts": []
    },
    "attackParts": [],
    "formula": "",
    "ability": {
      "attack": "",
      "damage": "",
      "damageMult": 1,
      "critRange": 20,
      "critMult": 2
    },
    "save": {
      "dc": "0",
      "type": "ref",
      "description": "Reflex negates (object) and Fortitude negates"
    },
    "effectNotes": "",
    "attackNotes": "",
    "soundEffect": "",
    "links": {
      "children": []
    },
    "learnedAt": {
      "class": [
        [
          "druid",
          3
        ],
        [
          "shaman",
          3
        ],
        [
          "hunter",
          3
        ]
      ],
      "domain": [],
      "subDomain": [],
      "elementalSchool": [],
      "bloodline": []
    },
    "level": 3,
    "clOffset": 0,
    "slOffset": 0,
    "school": "evo",
    "subschool": "",
    "types": "fire",
    "nonlethal": false,
    "conditionals": [],
    "components": {
      "value": "",
      "verbal": true,
      "somatic": true,
      "material": false,
      "focus": false,
      "divineFocus": 0
    },
    "castTime": "",
    "materials": {
      "value": "",
      "focus": "",
      "gpValue": 0
    },
    "spellbook": "primary",
    "preparation": {
      "preparedAmount": 0,
      "maxAmount": 0,
      "autoDeductCharges": true,
      "spontaneousPrepared": true,
      "mode": "prepared"
    },
    "atWill": false,
    "sr": true,
    "shortDescription": "<p>You cause flames to spring up in the area of effect. These flames deal 1d6 points of fire damage for every 3 caster levels you have (maximum 5d6) to each creature that enters a burning area or begins its turn in the area; these creatures also catch on fire. A creature that succeeds at a Reflex save negates the damage and avoids catching on fire. The area and all adjacent 5-foot squares are smoky, providing concealment within. You can concentrate as a standard action to ignite one 5-foot square adjacent to a currently burning square. Heavy precipitation (including <i>sleet</i> storm) ends the spell. Strong and severe winds spread each square of <i>flashfire</i> downwind by one square each round, but windstorm-force or stronger winds extinguish the fires.</p>",
    "spellDuration": "1 round/level",
    "spellEffect": "",
    "spellArea": "one 5-ft. square/2 levels",
    "showInQuickbar": false,
    "spellPoints": {
      "cost": "1 + @sl"
    },
    "domain": false,
    "slotCost": 1
  },
  "flags": {},
  "img": "systems/pf1/icons/misc/magic-swirl.png",
  "effects": []
}