{
  "_id": "5h7qpvgnqof7oku7",
  "name": "Forcecage",
  "permission": {
    "default": 0
  },
  "type": "spell",
  "data": {
    "description": {
      "value": "<div class=\"spell-description\">\n  <p>\n    <strong>School</strong>&nbsp;evocation&nbsp;[force];\n    <strong>Level</strong>&nbsp;psychic 7, sorcerer/wizard 7;\n    \n    \n    \n    \n  </p>\n  <p>\n    <strong>Casting Time</strong>&nbsp;1 standard action<br>\n    <strong>Components</strong>&nbsp;V, S, M (ruby dust worth 500 gp)<br>\n  </p>\n  <p>\n    <strong>Range</strong>&nbsp;close (25 ft. + 5 ft./2 levels)<br>\n    <strong>Area</strong>&nbsp;barred cage (20-ft. cube) or windowless cell (10-ft. cube)<br>\n    \n    \n    <strong>Duration</strong>&nbsp;1 round/level<br>\n      <strong>Saving Throw</strong>&nbsp;Reflex negates;&nbsp;\n      <strong>Spell Resistance</strong>&nbsp;no<br>\n  </p>\n  <h2>Description</h2>\n  <p>This spell creates an immobile, invisible cubical prison composed of either bars of force or solid walls of force (your choice).</p><p>Creatures within the area are caught and contained unless they are too big to fit inside, in which case the spell automatically fails.</p><p>Teleportation and other forms of astral travel provide a means of escape, but the force walls or bars extend into the Ethereal Plane, blocking ethereal travel.</p><p>Like a <i>Wall of Force</i>, a <i>forcecage</i> resists <i>dispel magic,</i> although a mage's disjunction still functions. The walls of a <i>forcecage</i> can be damaged by spells as normal, except for <i>disintegrate,</i> which automatically destroys it. The walls of a <i>forcecage</i> can be damaged by weapons and supernatural abilities, but they have a Hardness of 30 and a number of hit points equal to 20 per caster level. Contact with a <i>sphere of annihilation</i> or <i>rod of cancellation</i> instantly destroys a <i>forcecage</i>.</p><p>Barred Cage: This version of the spell produces a 20-foot cube made of bands of force (similar to a <i>Wall of Force</i> spell) for bars. The bands are a half-inch wide, with half-inch gaps between them. Any creature capable of passing through such a small space can escape; others are confined within the barred cage. You can't attack a creature in a barred cage with a weapon unless the weapon can fit between the gaps. Even against such weapons (including arrows and similar ranged attacks), a creature in the barred cage has cover. All spells and breath weapons can pass through the gaps in the bars.</p><p><i>Windowless Cell</i>: This version of the spell produces a 10-foot cube with no way in and no way out. Solid walls of force form its six sides.</p>\n</div>\n",
      "chat": "",
      "unidentified": ""
    },
    "tags": [],
    "activation": {
      "cost": 1,
      "type": "standard"
    },
    "unchainedAction": {
      "activation": {
        "cost": 2,
        "type": "action"
      }
    },
    "duration": {
      "value": null,
      "units": ""
    },
    "target": {
      "value": ""
    },
    "range": {
      "value": null,
      "units": "close",
      "maxIncrements": 1,
      "minValue": null,
      "minUnits": ""
    },
    "uses": {
      "value": 0,
      "max": 0,
      "per": "",
      "autoDeductCharges": true,
      "autoDeductChargesCost": "1"
    },
    "measureTemplate": {
      "type": "",
      "size": "0",
      "overrideColor": false,
      "customColor": "",
      "overrideTexture": false,
      "customTexture": ""
    },
    "attackName": "",
    "actionType": "spellsave",
    "attackBonus": "",
    "critConfirmBonus": "",
    "damage": {
      "parts": [],
      "critParts": [],
      "nonCritParts": []
    },
    "attackParts": [],
    "formula": "",
    "ability": {
      "attack": "",
      "damage": "",
      "damageMult": 1,
      "critRange": 20,
      "critMult": 2
    },
    "save": {
      "dc": "0",
      "type": "ref",
      "description": "Reflex negates"
    },
    "effectNotes": "",
    "attackNotes": "",
    "soundEffect": "",
    "links": {
      "children": []
    },
    "learnedAt": {
      "class": [
        [
          "sorcerer/wizard",
          7
        ],
        [
          "psychic",
          7
        ]
      ],
      "domain": [],
      "subDomain": [],
      "elementalSchool": [],
      "bloodline": []
    },
    "level": 7,
    "clOffset": 0,
    "slOffset": 0,
    "school": "evo",
    "subschool": "",
    "types": "force",
    "nonlethal": false,
    "conditionals": [],
    "components": {
      "value": "",
      "verbal": true,
      "somatic": true,
      "material": true,
      "focus": false,
      "divineFocus": 0
    },
    "castTime": "",
    "materials": {
      "value": "ruby dust worth 500 gp",
      "focus": "",
      "gpValue": 500
    },
    "spellbook": "",
    "preparation": {
      "preparedAmount": 0,
      "maxAmount": 0,
      "autoDeductCharges": false,
      "spontaneousPrepared": false,
      "mode": "prepared"
    },
    "atWill": false,
    "sr": false,
    "shortDescription": "<p>This spell creates an immobile, invisible cubical prison composed of either bars of force or solid walls of force (your choice).</p><p>Creatures within the area are caught and contained unless they are too big to fit inside, in which case the spell automatically fails.</p><p>Teleportation and other forms of astral travel provide a means of escape, but the force walls or bars extend into the Ethereal Plane, blocking ethereal travel.</p><p>Like a <i>Wall of Force</i>, a <i>forcecage</i> resists <i>dispel magic,</i> although a mage's disjunction still functions. The walls of a <i>forcecage</i> can be damaged by spells as normal, except for <i>disintegrate,</i> which automatically destroys it. The walls of a <i>forcecage</i> can be damaged by weapons and supernatural abilities, but they have a Hardness of 30 and a number of hit points equal to 20 per caster level. Contact with a <i>sphere of annihilation</i> or <i>rod of cancellation</i> instantly destroys a <i>forcecage</i>.</p><p>Barred Cage: This version of the spell produces a 20-foot cube made of bands of force (similar to a <i>Wall of Force</i> spell) for bars. The bands are a half-inch wide, with half-inch gaps between them. Any creature capable of passing through such a small space can escape; others are confined within the barred cage. You can't attack a creature in a barred cage with a weapon unless the weapon can fit between the gaps. Even against such weapons (including arrows and similar ranged attacks), a creature in the barred cage has cover. All spells and breath weapons can pass through the gaps in the bars.</p><p><i>Windowless Cell</i>: This version of the spell produces a 10-foot cube with no way in and no way out. Solid walls of force form its six sides.</p>",
    "spellDuration": "1 round/level",
    "spellEffect": "",
    "spellArea": "barred cage (20-ft. cube) or windowless cell (10-ft. cube)",
    "showInQuickbar": false,
    "spellPoints": {
      "cost": ""
    },
    "domain": false,
    "slotCost": 1
  },
  "flags": {},
  "img": "systems/pf1/icons/misc/magic-swirl.png",
  "effects": []
}