{
  "_id": "jg6d2qnejelbthwy",
  "name": "Frozen Note",
  "permission": {
    "default": 0
  },
  "type": "spell",
  "data": {
    "description": {
      "value": "<div class=\"spell-description\">\n  <p>\n    <strong>School</strong>&nbsp;enchantment&nbsp;(compulsion)&nbsp;[mind-affecting, sonic];\n    <strong>Level</strong>&nbsp;bard 5;\n    \n    \n    \n    \n  </p>\n  <p>\n    <strong>Casting Time</strong>&nbsp;1 standard action<br>\n    <strong>Components</strong>&nbsp;V<br>\n  </p>\n  <p>\n    \n    <strong>Area</strong>&nbsp;30-ft.-radius emanation centered on you<br>\n    <strong>Targets</strong>&nbsp;any number of creatures within area<br>\n    \n    <strong>Duration</strong>&nbsp;concentration (up to 1 round/level); see text<br>\n    <strong>Saving Throw</strong>&nbsp;Will partial; see text;&nbsp;<strong>Spell Resistance</strong>&nbsp;yes<br>\n  </p>\n  <h2>Description</h2>\n  <p>You produce and sustain a single perfect musical note that holds nearby creatures, friend as well as foe, utterly spellbound until you stop singing. Affected creatures are both paralyzed and oblivious to their surroundings so long as you maintain the note.</p><p>Maintaining this note requires your absolute attention; if you take damage or take any other action, including moving from your current square, the spell instantly ends. Creatures that succeed in their initial saving throw must make a new one for each round they spend within the area of the spell until they fail and become captivated. Creatures with 4 or more Hit Dice greater than your caster level are not affected by this spell. However, those with 4 or more Hit Dice less than your caster level do not receive a saving throw to resist it. The note is so clear and flawless that less than extraordinary attempts to avoid hearing it merely grant targets a bonus on their saving throws. <b>Target</b>s get a +2 circumstance bonus on their saving throw for each barrier between your voice and their ears. This includes such things as a creature stopping up its ears with wax, closing all windows and doors in a nearby building, or even crawling into a barrel and pulling down the top.</p><p>If a target that had previously made its saving throw loses the benefit of one or more of its barriers it must immediately make a new saving throw. Similarly, any target that had previously failed its saving throw gets a new save each time it gains the protection of a barrier.</p>\n</div>\n",
      "chat": "",
      "unidentified": ""
    },
    "tags": [],
    "activation": {
      "cost": 1,
      "type": "standard"
    },
    "unchainedAction": {
      "activation": {
        "cost": 2,
        "type": "action"
      }
    },
    "duration": {
      "value": null,
      "units": ""
    },
    "target": {
      "value": "any number of creatures within area"
    },
    "range": {
      "value": null,
      "units": "",
      "maxIncrements": 1,
      "minValue": null,
      "minUnits": ""
    },
    "uses": {
      "value": 0,
      "max": 0,
      "per": "",
      "autoDeductCharges": true,
      "autoDeductChargesCost": "1"
    },
    "measureTemplate": {
      "type": "",
      "size": "0",
      "overrideColor": false,
      "customColor": "",
      "overrideTexture": false,
      "customTexture": ""
    },
    "attackName": "",
    "actionType": "spellsave",
    "attackBonus": "",
    "critConfirmBonus": "",
    "damage": {
      "parts": [],
      "critParts": [],
      "nonCritParts": []
    },
    "attackParts": [],
    "formula": "",
    "ability": {
      "attack": "",
      "damage": "",
      "damageMult": 1,
      "critRange": 20,
      "critMult": 2
    },
    "save": {
      "dc": "0",
      "type": "will",
      "description": "Will partial; see text"
    },
    "effectNotes": "",
    "attackNotes": "",
    "soundEffect": "",
    "links": {
      "children": []
    },
    "learnedAt": {
      "class": [
        [
          "bard",
          5
        ]
      ],
      "domain": [],
      "subDomain": [],
      "elementalSchool": [],
      "bloodline": []
    },
    "level": 5,
    "clOffset": 0,
    "slOffset": 0,
    "school": "enc",
    "subschool": "compulsion",
    "types": "mind-affecting, sonic",
    "nonlethal": false,
    "conditionals": [],
    "components": {
      "value": "",
      "verbal": true,
      "somatic": false,
      "material": false,
      "focus": false,
      "divineFocus": 0
    },
    "castTime": "",
    "materials": {
      "value": "",
      "focus": "",
      "gpValue": 0
    },
    "spellbook": "primary",
    "preparation": {
      "preparedAmount": 0,
      "maxAmount": 0,
      "autoDeductCharges": true,
      "spontaneousPrepared": true,
      "mode": "prepared"
    },
    "atWill": false,
    "sr": true,
    "shortDescription": "<p>You produce and sustain a single perfect musical note that holds nearby creatures, friend as well as foe, utterly spellbound until you stop singing. Affected creatures are both paralyzed and oblivious to their surroundings so long as you maintain the note.</p><p>Maintaining this note requires your absolute attention; if you take damage or take any other action, including moving from your current square, the spell instantly ends. Creatures that succeed in their initial saving throw must make a new one for each round they spend within the area of the spell until they fail and become captivated. Creatures with 4 or more Hit Dice greater than your caster level are not affected by this spell. However, those with 4 or more Hit Dice less than your caster level do not receive a saving throw to resist it. The note is so clear and flawless that less than extraordinary attempts to avoid hearing it merely grant targets a bonus on their saving throws. <b>Target</b>s get a +2 circumstance bonus on their saving throw for each barrier between your voice and their ears. This includes such things as a creature stopping up its ears with wax, closing all windows and doors in a nearby building, or even crawling into a barrel and pulling down the top.</p><p>If a target that had previously made its saving throw loses the benefit of one or more of its barriers it must immediately make a new saving throw. Similarly, any target that had previously failed its saving throw gets a new save each time it gains the protection of a barrier.</p>",
    "spellDuration": "concentration (up to 1 round/level); see text",
    "spellEffect": "",
    "spellArea": "30-ft.-radius emanation centered on you",
    "showInQuickbar": false,
    "spellPoints": {
      "cost": "1 + @sl"
    },
    "domain": false,
    "slotCost": 1
  },
  "flags": {},
  "img": "systems/pf1/icons/misc/magic-swirl.png",
  "effects": []
}