{
  "_id": "yqb3859lg9yji7u9",
  "name": "Geniekind",
  "permission": {
    "default": 0
  },
  "type": "spell",
  "data": {
    "description": {
      "value": "<div class=\"spell-description\">\n  <p>\n    <strong>School</strong>&nbsp;transmutation&nbsp;(polymorph);\n    <strong>Level</strong>&nbsp;cleric/oracle 5, druid 5, hunter 5, sorcerer/wizard 5, summoner 5, unchained Summoner 5;\n    \n    \n    \n    \n  </p>\n  <p>\n    <strong>Casting Time</strong>&nbsp;1 standard action<br>\n    <strong>Components</strong>&nbsp;V, S, M (a pinch of dust, embers, wind-blown sand or drops of water, depending on the genie type)<br>\n  </p>\n  <p>\n    <strong>Range</strong>&nbsp;personal<br>\n    \n    <strong>Targets</strong>&nbsp;you<br>\n    \n    <strong>Duration</strong>&nbsp;1 round/level<br>\n    \n  </p>\n  <h2>Description</h2>\n  <p>Keleshite wizards and clerics have always sought to emulate the genies that they bind. The <i>geniekind</i> spell is the result of attempts to gain the power and influence of these proud outsiders without entirely forsaking the caster's own form.</p><p>Upon casting this spell, you must choose one type of genie to transform into, selecting from djinni, efreeti, marid, or shaitan. You retain your basic physical appearance but shift in some way to become more akin to the genie type you chose. While under the effects of <i>geniekind</i>, you gain a +2 racial bonus on all saving throws against paralysis, poison, sleep, and stunning effects, and a +4 enhancement bonus to your natural armor bonus. You also gain a +2 enhancement bonus to Constitution and a +5 bonus on all Diplomacy checks made when interacting with creatures of the same elemental subtype as your chosen genie. In addition, you gain other abilities depending upon the type of genie you choose to assume the form of, as detailed below.</p><p><i>Djinni</i>: You gain the ability to fly at a speed of 60 feet with perfect maneuverability. When flying, your lower torso trails away into a vortex of wind and smoke. You gain resist electricity 10.</p><p><i>Efreeti</i>: Your flesh turns a deep red and you grow large horns on your head. Your unarmed strikes and any melee weapon you wield deal +1d6 points of fire damage. You gain resist fire 10.</p><p><i>Marid</i>: Your flesh turns blue and you gain webbed fingers and toes. You gain a swim speed of 60 feet and can breathe water. You gain resist cold 10.</p><p><i>Shaitan</i>: Your flesh gains the coloration of stone and your hair appears to be sculpted from fine crystals. You gain a burrow speed of 60 feet and resist acid 10.</p>\n</div>\n",
      "chat": "",
      "unidentified": ""
    },
    "tags": [],
    "activation": {
      "cost": 1,
      "type": "standard"
    },
    "unchainedAction": {
      "activation": {
        "cost": 2,
        "type": "action"
      }
    },
    "duration": {
      "value": null,
      "units": ""
    },
    "target": {
      "value": "you"
    },
    "range": {
      "value": null,
      "units": "personal",
      "maxIncrements": 1,
      "minValue": null,
      "minUnits": ""
    },
    "uses": {
      "value": 0,
      "max": 0,
      "per": "",
      "autoDeductCharges": true,
      "autoDeductChargesCost": "1"
    },
    "measureTemplate": {
      "type": "",
      "size": "0",
      "overrideColor": false,
      "customColor": "",
      "overrideTexture": false,
      "customTexture": ""
    },
    "attackName": "",
    "actionType": "",
    "attackBonus": "",
    "critConfirmBonus": "",
    "damage": {
      "parts": [],
      "critParts": [],
      "nonCritParts": []
    },
    "attackParts": [],
    "formula": "",
    "ability": {
      "attack": "",
      "damage": "",
      "damageMult": 1,
      "critRange": 20,
      "critMult": 2
    },
    "save": {
      "dc": "0",
      "type": "",
      "description": ""
    },
    "effectNotes": "",
    "attackNotes": "",
    "soundEffect": "",
    "links": {
      "children": []
    },
    "learnedAt": {
      "class": [
        [
          "sorcerer/wizard",
          5
        ],
        [
          "cleric/oracle",
          5
        ],
        [
          "druid",
          5
        ],
        [
          "summoner",
          5
        ],
        [
          "hunter",
          5
        ],
        [
          "unchained Summoner",
          5
        ]
      ],
      "domain": [],
      "subDomain": [],
      "elementalSchool": [],
      "bloodline": []
    },
    "level": 5,
    "clOffset": 0,
    "slOffset": 0,
    "school": "trs",
    "subschool": "polymorph",
    "types": "",
    "nonlethal": false,
    "conditionals": [],
    "components": {
      "value": "",
      "verbal": true,
      "somatic": true,
      "material": true,
      "focus": false,
      "divineFocus": 0
    },
    "castTime": "",
    "materials": {
      "value": "a pinch of dust, embers, wind-blown sand or drops of water, depending on the genie type",
      "focus": "",
      "gpValue": 0
    },
    "spellbook": "primary",
    "preparation": {
      "preparedAmount": 0,
      "maxAmount": 0,
      "autoDeductCharges": true,
      "spontaneousPrepared": true,
      "mode": "prepared"
    },
    "atWill": false,
    "sr": false,
    "shortDescription": "<p>Keleshite wizards and clerics have always sought to emulate the genies that they bind. The <i>geniekind</i> spell is the result of attempts to gain the power and influence of these proud outsiders without entirely forsaking the caster's own form.</p><p>Upon casting this spell, you must choose one type of genie to transform into, selecting from djinni, efreeti, marid, or shaitan. You retain your basic physical appearance but shift in some way to become more akin to the genie type you chose. While under the effects of <i>geniekind</i>, you gain a +2 racial bonus on all saving throws against paralysis, poison, sleep, and stunning effects, and a +4 enhancement bonus to your natural armor bonus. You also gain a +2 enhancement bonus to Constitution and a +5 bonus on all Diplomacy checks made when interacting with creatures of the same elemental subtype as your chosen genie. In addition, you gain other abilities depending upon the type of genie you choose to assume the form of, as detailed below.</p><p><i>Djinni</i>: You gain the ability to fly at a speed of 60 feet with perfect maneuverability. When flying, your lower torso trails away into a vortex of wind and smoke. You gain resist electricity 10.</p><p><i>Efreeti</i>: Your flesh turns a deep red and you grow large horns on your head. Your unarmed strikes and any melee weapon you wield deal +1d6 points of fire damage. You gain resist fire 10.</p><p><i>Marid</i>: Your flesh turns blue and you gain webbed fingers and toes. You gain a swim speed of 60 feet and can breathe water. You gain resist cold 10.</p><p><i>Shaitan</i>: Your flesh gains the coloration of stone and your hair appears to be sculpted from fine crystals. You gain a burrow speed of 60 feet and resist acid 10.</p>",
    "spellDuration": "1 round/level",
    "spellEffect": "",
    "spellArea": "",
    "showInQuickbar": false,
    "spellPoints": {
      "cost": "1 + @sl"
    },
    "domain": false,
    "slotCost": 1
  },
  "flags": {},
  "img": "systems/pf1/icons/misc/magic-swirl.png",
  "effects": []
}