{
  "_id": "pmf5luoblkdc4zfk",
  "name": "Glyph of Warding, Greater",
  "permission": {
    "default": 0
  },
  "type": "spell",
  "data": {
    "description": {
      "value": "<div class=\"spell-description\">\n  <p>\n    <strong>School</strong>&nbsp;abjuration;\n    <strong>Level</strong>&nbsp;cleric/oracle 6;\n    <strong>Domain</strong>&nbsp;Rune 6;\n    \n    \n    \n  </p>\n  <p>\n    <strong>Casting Time</strong>&nbsp;10 minutes<br>\n    <strong>Components</strong>&nbsp;V, S, M (powdered diamond worth 200 gp)<br>\n  </p>\n  <p>\n    <strong>Range</strong>&nbsp;touch<br>\n    <strong>Area</strong>&nbsp;object touched or up to 5 sq. ft./level<br>\n    <strong>Targets</strong>&nbsp;object touched or up to 5 sq. ft./level<br>\n    \n    <strong>Duration</strong>&nbsp;permanent until discharged (D)<br>\n      <strong>Saving Throw</strong>&nbsp;see text;&nbsp;\n      <strong>Spell Resistance</strong>&nbsp;no<br>\n  </p>\n  <h2>Description</h2>\n  <p>This spell functions like @Compendium[pf1.spells.53dyu81yaw4y0nz4]{Glyph of Warding}, except that a <em>greater blast glyph</em> deals up to 10d8 points of damage, and a <em>greater spell glyph</em> can store a spell of 6th level or lower.</p>\n<p>@Compendium[pf1.spells.j0bc0iii8zp1jiwr]{Read Magic} allows you to identify a greater <em>Glyph of Warding</em> with a DC 16 @Compendium[pf1.skills.uLZI2uWz0uB8UgBc]{Spellcraft} check.</p>\n<p><em>Material Component</em>: You trace the glyph with incense, which must first be sprinkled with powdered diamond worth at least 400 gp.</p>\n</div>\n",
      "chat": "",
      "unidentified": ""
    },
    "tags": [],
    "activation": {
      "cost": 10,
      "type": "minute"
    },
    "unchainedAction": {
      "activation": {
        "cost": 10,
        "type": "minute"
      }
    },
    "duration": {
      "value": null,
      "units": ""
    },
    "target": {
      "value": "object touched or up to 5 sq. ft./level"
    },
    "range": {
      "value": null,
      "units": "touch",
      "maxIncrements": 1,
      "minValue": null,
      "minUnits": ""
    },
    "uses": {
      "value": 0,
      "max": 0,
      "per": "",
      "autoDeductCharges": true,
      "autoDeductChargesCost": "1"
    },
    "measureTemplate": {
      "type": "",
      "size": "0",
      "overrideColor": false,
      "customColor": "",
      "overrideTexture": false,
      "customTexture": ""
    },
    "attackName": "",
    "actionType": "spellsave",
    "attackBonus": "",
    "critConfirmBonus": "",
    "damage": {
      "parts": [],
      "critParts": [],
      "nonCritParts": []
    },
    "attackParts": [],
    "formula": "",
    "ability": {
      "attack": "",
      "damage": "",
      "damageMult": 1,
      "critRange": 20,
      "critMult": 2
    },
    "save": {
      "dc": "0",
      "type": "",
      "description": "see text"
    },
    "effectNotes": "",
    "attackNotes": "",
    "soundEffect": "",
    "links": {
      "children": []
    },
    "learnedAt": {
      "class": [
        [
          "cleric/oracle",
          6
        ]
      ],
      "domain": [
        [
          "Rune",
          6
        ]
      ],
      "subDomain": [],
      "elementalSchool": [],
      "bloodline": []
    },
    "level": 6,
    "clOffset": 0,
    "slOffset": 0,
    "school": "abj",
    "subschool": "",
    "types": "",
    "nonlethal": false,
    "conditionals": [],
    "components": {
      "value": "",
      "verbal": true,
      "somatic": true,
      "material": true,
      "focus": false,
      "divineFocus": 0
    },
    "castTime": "",
    "materials": {
      "value": "powdered diamond worth 200 gp",
      "focus": "",
      "gpValue": 200
    },
    "spellbook": "",
    "preparation": {
      "preparedAmount": 0,
      "maxAmount": 0,
      "autoDeductCharges": false,
      "spontaneousPrepared": false,
      "mode": "prepared"
    },
    "atWill": false,
    "sr": false,
    "shortDescription": "<p>This spell functions like @Compendium[pf1.spells.53dyu81yaw4y0nz4]{Glyph of Warding}, except that a <em>greater blast glyph</em> deals up to 10d8 points of damage, and a <em>greater spell glyph</em> can store a spell of 6th level or lower.</p>\n<p>@Compendium[pf1.spells.j0bc0iii8zp1jiwr]{Read Magic} allows you to identify a greater <em>Glyph of Warding</em> with a DC 16 @Compendium[pf1.skills.uLZI2uWz0uB8UgBc]{Spellcraft} check.</p>\n<p><em>Material Component</em>: You trace the glyph with incense, which must first be sprinkled with powdered diamond worth at least 400 gp.</p>",
    "spellDuration": "permanent until discharged (D)",
    "spellEffect": "",
    "spellArea": "object touched or up to 5 sq. ft./level",
    "showInQuickbar": false,
    "spellPoints": {
      "cost": ""
    },
    "domain": false,
    "slotCost": 1,
    "identifiedName": "Glyph of Warding, Greater"
  },
  "flags": {},
  "img": "systems/pf1/icons/misc/magic-swirl.png",
  "effects": []
}