{
  "_id": "fp5r5razueuqj8z8",
  "name": "Helping Hand",
  "permission": {
    "default": 0
  },
  "type": "spell",
  "data": {
    "description": {
      "value": "<div class=\"spell-description\">\n  <p>\n    <strong>School</strong>&nbsp;evocation;\n    <strong>Level</strong>&nbsp;cleric/oracle 3, medium 2, psychic 3, spiritualist 3;\n    \n    \n    \n    \n  </p>\n  <p>\n    <strong>Casting Time</strong>&nbsp;1 standard action<br>\n    <strong>Components</strong>&nbsp;V, S, DF<br>\n  </p>\n  <p>\n    <strong>Range</strong>&nbsp;5 miles<br>\n    \n    \n    <strong>Effect</strong>&nbsp;ghostly hand<br>\n    <strong>Duration</strong>&nbsp;1 hour/level<br>\n    <strong>Saving Throw</strong>&nbsp;none;&nbsp;<strong>Spell Resistance</strong>&nbsp;no<br>\n  </p>\n  <h2>Description</h2>\n  <p>You create the ghostly image of a hand, which you can send to find a creature within 5 miles. The hand then beckons to that creature and leads it to you if the creature is willing to follow.</p><p>When the spell is cast, you specify a person (or any creature) by physical description, which can include race, gender, and appearance but not ambiguous factors such as level, alignment, or class. When the description is done, the hand streaks off in search of a subject that fits the description. The amount of time it takes to find the subject depends on how far away he is, as detailed on the following table.</p><p> <table><tr><th>Distance</th><th>Time to Locate</th></tr><tr><td>100 ft. or less</td><td>1 round</td></tr><tr><td>1,000 ft.</td><td>1 minute</td></tr><tr><td>1 mile</td><td>10 minutes</td></tr><tr><td>2 miles</td><td>1 hour</td></tr><tr><td>3 miles</td><td>2 hours</td></tr><tr><td>4 miles</td><td>3 hours</td></tr><tr><td>5 miles</td><td>4 hours</td></tr></table>  Once the hand locates the subject, it beckons the creature to follow it. If the subject does so, the hand points in your direction, indicating the most direct, feasible route. The hand hovers 10 feet in front of the subject, moving before it at a speed of as much as 240 feet per round. Once the hand leads the subject back to you, it disappears.</p><p>The subject is not compelled to follow the hand or act in any particular way toward you. If the subject chooses not to follow, the hand continues to beckon for the duration of the spell, then disappears. If the spell expires while the subject is en route to you, the hand disappears; the subject must then rely on its own devices to locate you.</p><p>If more than one subject in a 5-mile radius meets the description, the hand locates the closest creature. If that creature refuses to follow the hand, the hand does not seek out a second subject.</p><p>If, at the end of 4 hours of searching, the hand has found no subject that matches the description within 5 miles, it returns to you, displays an outstretched palm (indicating that no such creature was found), and disappears.</p><p>The ghostly hand has no physical form. It is invisible to anyone except you and a potential subject. It cannot engage in combat or execute any other task aside from locating a subject and leading it back to you. The hand can't pass through solid objects but can ooze through small cracks and slits. The hand cannot travel more than 5 miles from the spot it appeared when you cast the spell.</p>\n</div>\n",
      "chat": "",
      "unidentified": ""
    },
    "tags": [],
    "activation": {
      "cost": 1,
      "type": "standard"
    },
    "unchainedAction": {
      "activation": {
        "cost": 2,
        "type": "action"
      }
    },
    "duration": {
      "value": null,
      "units": ""
    },
    "target": {
      "value": ""
    },
    "range": {
      "value": 5,
      "units": "mi",
      "maxIncrements": 1,
      "minValue": null,
      "minUnits": ""
    },
    "uses": {
      "value": 0,
      "max": 0,
      "per": "",
      "autoDeductCharges": true,
      "autoDeductChargesCost": "1"
    },
    "measureTemplate": {
      "type": "",
      "size": "0",
      "overrideColor": false,
      "customColor": "",
      "overrideTexture": false,
      "customTexture": ""
    },
    "attackName": "",
    "actionType": "other",
    "attackBonus": "",
    "critConfirmBonus": "",
    "damage": {
      "parts": [],
      "critParts": [],
      "nonCritParts": []
    },
    "attackParts": [],
    "formula": "",
    "ability": {
      "attack": "",
      "damage": "",
      "damageMult": 1,
      "critRange": 20,
      "critMult": 2
    },
    "save": {
      "dc": "0",
      "type": "",
      "description": ""
    },
    "effectNotes": "",
    "attackNotes": "",
    "soundEffect": "",
    "links": {
      "children": []
    },
    "learnedAt": {
      "class": [
        [
          "cleric/oracle",
          3
        ],
        [
          "psychic",
          3
        ],
        [
          "medium",
          2
        ],
        [
          "spiritualist",
          3
        ]
      ],
      "domain": [],
      "subDomain": [],
      "elementalSchool": [],
      "bloodline": []
    },
    "level": 3,
    "clOffset": 0,
    "slOffset": 0,
    "school": "evo",
    "subschool": "",
    "types": "",
    "nonlethal": false,
    "conditionals": [],
    "components": {
      "value": "",
      "verbal": true,
      "somatic": true,
      "material": false,
      "focus": false,
      "divineFocus": 1
    },
    "castTime": "",
    "materials": {
      "value": "",
      "focus": "",
      "gpValue": 0
    },
    "spellbook": "primary",
    "preparation": {
      "preparedAmount": 0,
      "maxAmount": 0,
      "autoDeductCharges": true,
      "spontaneousPrepared": true,
      "mode": "prepared"
    },
    "atWill": false,
    "sr": false,
    "shortDescription": "<p>You create the ghostly image of a hand, which you can send to find a creature within 5 miles. The hand then beckons to that creature and leads it to you if the creature is willing to follow.</p><p>When the spell is cast, you specify a person (or any creature) by physical description, which can include race, gender, and appearance but not ambiguous factors such as level, alignment, or class. When the description is done, the hand streaks off in search of a subject that fits the description. The amount of time it takes to find the subject depends on how far away he is, as detailed on the following table.</p><p> <table><tr><th>Distance</th><th>Time to Locate</th></tr><tr><td>100 ft. or less</td><td>1 round</td></tr><tr><td>1,000 ft.</td><td>1 minute</td></tr><tr><td>1 mile</td><td>10 minutes</td></tr><tr><td>2 miles</td><td>1 hour</td></tr><tr><td>3 miles</td><td>2 hours</td></tr><tr><td>4 miles</td><td>3 hours</td></tr><tr><td>5 miles</td><td>4 hours</td></tr></table>  Once the hand locates the subject, it beckons the creature to follow it. If the subject does so, the hand points in your direction, indicating the most direct, feasible route. The hand hovers 10 feet in front of the subject, moving before it at a speed of as much as 240 feet per round. Once the hand leads the subject back to you, it disappears.</p><p>The subject is not compelled to follow the hand or act in any particular way toward you. If the subject chooses not to follow, the hand continues to beckon for the duration of the spell, then disappears. If the spell expires while the subject is en route to you, the hand disappears; the subject must then rely on its own devices to locate you.</p><p>If more than one subject in a 5-mile radius meets the description, the hand locates the closest creature. If that creature refuses to follow the hand, the hand does not seek out a second subject.</p><p>If, at the end of 4 hours of searching, the hand has found no subject that matches the description within 5 miles, it returns to you, displays an outstretched palm (indicating that no such creature was found), and disappears.</p><p>The ghostly hand has no physical form. It is invisible to anyone except you and a potential subject. It cannot engage in combat or execute any other task aside from locating a subject and leading it back to you. The hand can't pass through solid objects but can ooze through small cracks and slits. The hand cannot travel more than 5 miles from the spot it appeared when you cast the spell.</p>",
    "spellDuration": "1 hour/level",
    "spellEffect": "ghostly hand",
    "spellArea": "",
    "showInQuickbar": false,
    "spellPoints": {
      "cost": "1 + @sl"
    },
    "domain": false,
    "slotCost": 1
  },
  "flags": {},
  "img": "systems/pf1/icons/misc/magic-swirl.png",
  "effects": []
}