{
  "_id": "6g6pm57u91u2r9w8",
  "name": "Limp Lash",
  "permission": {
    "default": 0
  },
  "type": "spell",
  "data": {
    "description": {
      "value": "<div class=\"spell-description\">\n  <p>\n    <strong>School</strong>&nbsp;necromancy;\n    <strong>Level</strong>&nbsp;sorcerer/wizard 2, witch 2;\n    \n    \n    \n    \n  </p>\n  <p>\n    <strong>Casting Time</strong>&nbsp;1 standard action<br>\n    <strong>Components</strong>&nbsp;V, S, M (a dead wasp)<br>\n  </p>\n  <p>\n    <strong>Range</strong>&nbsp;20 feet<br>\n    \n    <strong>Targets</strong>&nbsp;1 creature<br>\n    \n    <strong>Duration</strong>&nbsp;special (see below)<br>\n    <strong>Saving Throw</strong>&nbsp;none;&nbsp;<strong>Spell Resistance</strong>&nbsp;yes<br>\n  </p>\n  <h2>Description</h2>\n  <p>You create a dark whip-shaped field of energy that wraps around an enemy's neck, leaving everything except his head paralyzed until you let go of the whip or it is destroyed. You must make a ranged touch attack with this spell. If you strike your target, he takes a 1d6 penalty to his Strength, Dexterity, and Constitution each round.</p><p>This penalty cannot reduce any attribute to less than 1, and once any of these attributes reaches 1 the target collapses and his body, except his head, becomes paralyzed. While paralyzed in this way, the target retains full use of his senses, including the ability to feel pain, and can speak (including casting spells with only verbal components). The whip has a maximum length of 20 feet, 15 hit points, and a hardness of 5. The spell ends immediately if you let go of the whip or it is destroyed. When the spell ends, all penalties the target took from this spell also end.</p>\n</div>\n",
      "chat": "",
      "unidentified": ""
    },
    "tags": [],
    "activation": {
      "cost": 1,
      "type": "standard"
    },
    "unchainedAction": {
      "activation": {
        "cost": 2,
        "type": "action"
      }
    },
    "duration": {
      "value": null,
      "units": ""
    },
    "target": {
      "value": "1 creature"
    },
    "range": {
      "value": 20,
      "units": "ft",
      "maxIncrements": 1,
      "minValue": null,
      "minUnits": ""
    },
    "uses": {
      "value": 0,
      "max": 0,
      "per": "",
      "autoDeductCharges": true,
      "autoDeductChargesCost": "1"
    },
    "measureTemplate": {
      "type": "",
      "size": "0",
      "overrideColor": false,
      "customColor": "",
      "overrideTexture": false,
      "customTexture": ""
    },
    "attackName": "",
    "actionType": "",
    "attackBonus": "",
    "critConfirmBonus": "",
    "damage": {
      "parts": [],
      "critParts": [],
      "nonCritParts": []
    },
    "attackParts": [],
    "formula": "",
    "ability": {
      "attack": "",
      "damage": "",
      "damageMult": 1,
      "critRange": 20,
      "critMult": 2
    },
    "save": {
      "dc": "0",
      "type": "",
      "description": ""
    },
    "effectNotes": "",
    "attackNotes": "",
    "soundEffect": "",
    "links": {
      "children": []
    },
    "learnedAt": {
      "class": [
        [
          "sorcerer/wizard",
          2
        ],
        [
          "witch",
          2
        ]
      ],
      "domain": [],
      "subDomain": [],
      "elementalSchool": [],
      "bloodline": []
    },
    "level": 2,
    "clOffset": 0,
    "slOffset": 0,
    "school": "nec",
    "subschool": "",
    "types": "",
    "nonlethal": false,
    "conditionals": [],
    "components": {
      "value": "",
      "verbal": true,
      "somatic": true,
      "material": true,
      "focus": false,
      "divineFocus": 0
    },
    "castTime": "",
    "materials": {
      "value": "a dead wasp",
      "focus": "",
      "gpValue": 0
    },
    "spellbook": "primary",
    "preparation": {
      "preparedAmount": 0,
      "maxAmount": 0,
      "autoDeductCharges": true,
      "spontaneousPrepared": true,
      "mode": "prepared"
    },
    "atWill": false,
    "sr": true,
    "shortDescription": "<p>You create a dark whip-shaped field of energy that wraps around an enemy's neck, leaving everything except his head paralyzed until you let go of the whip or it is destroyed. You must make a ranged touch attack with this spell. If you strike your target, he takes a 1d6 penalty to his Strength, Dexterity, and Constitution each round.</p><p>This penalty cannot reduce any attribute to less than 1, and once any of these attributes reaches 1 the target collapses and his body, except his head, becomes paralyzed. While paralyzed in this way, the target retains full use of his senses, including the ability to feel pain, and can speak (including casting spells with only verbal components). The whip has a maximum length of 20 feet, 15 hit points, and a hardness of 5. The spell ends immediately if you let go of the whip or it is destroyed. When the spell ends, all penalties the target took from this spell also end.</p>",
    "spellDuration": "special (see below)",
    "spellEffect": "",
    "spellArea": "",
    "showInQuickbar": false,
    "spellPoints": {
      "cost": "1 + @sl"
    },
    "domain": false,
    "slotCost": 1
  },
  "flags": {},
  "img": "systems/pf1/icons/misc/magic-swirl.png",
  "effects": []
}