{
  "_id": "2vb5orfcy57lrfmc",
  "name": "Moment of Prescience",
  "permission": {
    "default": 0
  },
  "type": "spell",
  "data": {
    "description": {
      "value": "<div class=\"spell-description\">\n  <p>\n    <strong>School</strong>&nbsp;divination;\n    <strong>Level</strong>&nbsp;psychic 8, sorcerer/wizard 8, witch 8;\n    <strong>Domain</strong>&nbsp;Luck 8;\n    <strong>Subdomain</strong>&nbsp;Memory 8;\n    \n    <strong>Bloodline</strong>&nbsp;Destined 8, Dreamspun 8, Harrow 8;\n  </p>\n  <p>\n    <strong>Casting Time</strong>&nbsp;1 standard action<br>\n    <strong>Components</strong>&nbsp;V, S<br>\n  </p>\n  <p>\n    <strong>Range</strong>&nbsp;personal<br>\n    \n    <strong>Targets</strong>&nbsp;you<br>\n    \n    <strong>Duration</strong>&nbsp;1 hour/level or until discharged<br>\n    \n  </p>\n  <h2>Description</h2>\n  <p>This spell grants you a sixth sense. Once during the spell's duration, you may choose to use its effect. This spell grants you an insight bonus equal to your caster level (maximum +25) on any single attack roll, combat maneuver check, opposed ability or skill check, or saving throw. Alternatively, you can apply the insight bonus to your AC against a single attack (even if flatfooted).</p><p>Activating the effect doesn't take an action; you can even activate it on another character's turn. You must choose to use the <i>moment of prescience</i> before you make the roll it is to modify.</p><p>Once used, the spell ends. You can't have more than one <i>moment of prescience</i> active on you at the same time.</p>\n</div>\n",
      "chat": "",
      "unidentified": ""
    },
    "tags": [],
    "activation": {
      "cost": 1,
      "type": "standard"
    },
    "unchainedAction": {
      "activation": {
        "cost": 2,
        "type": "action"
      }
    },
    "duration": {
      "value": null,
      "units": ""
    },
    "target": {
      "value": "you"
    },
    "range": {
      "value": null,
      "units": "personal",
      "maxIncrements": 1,
      "minValue": null,
      "minUnits": ""
    },
    "uses": {
      "value": 0,
      "max": 0,
      "per": "",
      "autoDeductCharges": true,
      "autoDeductChargesCost": "1"
    },
    "measureTemplate": {
      "type": "",
      "size": "0",
      "overrideColor": false,
      "customColor": "",
      "overrideTexture": false,
      "customTexture": ""
    },
    "attackName": "",
    "actionType": "",
    "attackBonus": "",
    "critConfirmBonus": "",
    "damage": {
      "parts": [],
      "critParts": [],
      "nonCritParts": []
    },
    "attackParts": [],
    "formula": "",
    "ability": {
      "attack": "",
      "damage": "",
      "damageMult": 1,
      "critRange": 20,
      "critMult": 2
    },
    "save": {
      "dc": "0",
      "type": "",
      "description": ""
    },
    "effectNotes": "",
    "attackNotes": "",
    "soundEffect": "",
    "links": {
      "children": []
    },
    "learnedAt": {
      "class": [
        [
          "sorcerer/wizard",
          8
        ],
        [
          "witch",
          8
        ],
        [
          "psychic",
          8
        ]
      ],
      "domain": [
        [
          "Luck",
          8
        ]
      ],
      "subDomain": [
        [
          "Memory",
          8
        ]
      ],
      "elementalSchool": [],
      "bloodline": [
        [
          "Destined",
          8
        ],
        [
          "Dreamspun",
          8
        ],
        [
          "Harrow",
          8
        ]
      ]
    },
    "level": 8,
    "clOffset": 0,
    "slOffset": 0,
    "school": "div",
    "subschool": "",
    "types": "",
    "nonlethal": false,
    "conditionals": [],
    "components": {
      "value": "",
      "verbal": true,
      "somatic": true,
      "material": false,
      "focus": false,
      "divineFocus": 0
    },
    "castTime": "",
    "materials": {
      "value": "",
      "focus": "",
      "gpValue": 0
    },
    "spellbook": "primary",
    "preparation": {
      "preparedAmount": 0,
      "maxAmount": 0,
      "autoDeductCharges": true,
      "spontaneousPrepared": true,
      "mode": "prepared"
    },
    "atWill": false,
    "sr": false,
    "shortDescription": "<p>This spell grants you a sixth sense. Once during the spell's duration, you may choose to use its effect. This spell grants you an insight bonus equal to your caster level (maximum +25) on any single attack roll, combat maneuver check, opposed ability or skill check, or saving throw. Alternatively, you can apply the insight bonus to your AC against a single attack (even if flatfooted).</p><p>Activating the effect doesn't take an action; you can even activate it on another character's turn. You must choose to use the <i>moment of prescience</i> before you make the roll it is to modify.</p><p>Once used, the spell ends. You can't have more than one <i>moment of prescience</i> active on you at the same time.</p>",
    "spellDuration": "1 hour/level or until discharged",
    "spellEffect": "",
    "spellArea": "",
    "showInQuickbar": false,
    "spellPoints": {
      "cost": "1 + @sl"
    },
    "domain": false,
    "slotCost": 1
  },
  "flags": {},
  "img": "systems/pf1/icons/misc/magic-swirl.png",
  "effects": []
}