{
  "_id": "awia42zci8nufpfl",
  "name": "Nondetection",
  "permission": {
    "default": 0
  },
  "type": "spell",
  "data": {
    "description": {
      "value": "<div class=\"spell-description\">\n  <p>\n    <strong>School</strong>&nbsp;abjuration;\n    <strong>Level</strong>&nbsp;alchemist 3, antipaladin 3, hunter 4, inquisitor 3, medium 2, mesmerist 3, occultist 3, psychic 3, ranger 4, sorcerer/wizard 3, spiritualist 3, summoner 3, unchained Summoner 3;\n    <strong>Domain</strong>&nbsp;Trickery 3;\n    \n    \n    \n  </p>\n  <p>\n    <strong>Casting Time</strong>&nbsp;1 standard action<br>\n    <strong>Components</strong>&nbsp;V, S, M (diamond dust worth 50 gp)<br>\n  </p>\n  <p>\n    <strong>Range</strong>&nbsp;touch<br>\n    \n    <strong>Targets</strong>&nbsp;creature or object touched<br>\n    \n    <strong>Duration</strong>&nbsp;1 hour/level<br>\n      <strong>Saving Throw</strong>&nbsp;Will negates (harmless, object);&nbsp;\n      <strong>Spell Resistance</strong>&nbsp;yes<br>\n  </p>\n  <h2>Description</h2>\n  <p>The warded creature or object becomes difficult to <i>detect</i> by divination spells such as <i>clairaudience/clairvoyance, locate object,</i> and <i>detect</i> spells. <i>Nondetection</i> also prevents location by such magic items as <i>crystal ball</i>s. If a divination is attempted against the warded creature or item, the caster of the divination must succeed on a caster level check (1d20 + caster level) against a DC of 11 + the caster level of the spellcaster who cast <i>nondetection</i>. If you cast <i>nondetection</i> on yourself or on an item currently in your possession, the DC is 15 + your caster level.</p><p>If cast on a creature, <i>nondetection</i> wards the creature's gear as well as the creature itself.</p>\n</div>\n",
      "chat": "",
      "unidentified": ""
    },
    "tags": [],
    "activation": {
      "cost": 1,
      "type": "standard"
    },
    "unchainedAction": {
      "activation": {
        "cost": 2,
        "type": "action"
      }
    },
    "duration": {
      "value": null,
      "units": ""
    },
    "target": {
      "value": "creature or object touched"
    },
    "range": {
      "value": null,
      "units": "touch",
      "maxIncrements": 1,
      "minValue": null,
      "minUnits": ""
    },
    "uses": {
      "value": 0,
      "max": 0,
      "per": "",
      "autoDeductCharges": true,
      "autoDeductChargesCost": "1"
    },
    "measureTemplate": {
      "type": "",
      "size": "0",
      "overrideColor": false,
      "customColor": "",
      "overrideTexture": false,
      "customTexture": ""
    },
    "attackName": "",
    "actionType": "spellsave",
    "attackBonus": "",
    "critConfirmBonus": "",
    "damage": {
      "parts": [],
      "critParts": [],
      "nonCritParts": []
    },
    "attackParts": [],
    "formula": "",
    "ability": {
      "attack": "",
      "damage": "",
      "damageMult": 1,
      "critRange": 20,
      "critMult": 2
    },
    "save": {
      "dc": "0",
      "type": "will",
      "description": "Will negates (harmless, object)"
    },
    "effectNotes": "",
    "attackNotes": "",
    "soundEffect": "",
    "links": {
      "children": []
    },
    "learnedAt": {
      "class": [
        [
          "sorcerer/wizard",
          3
        ],
        [
          "ranger",
          4
        ],
        [
          "alchemist",
          3
        ],
        [
          "summoner",
          3
        ],
        [
          "inquisitor",
          3
        ],
        [
          "antipaladin",
          3
        ],
        [
          "psychic",
          3
        ],
        [
          "medium",
          2
        ],
        [
          "mesmerist",
          3
        ],
        [
          "occultist",
          3
        ],
        [
          "spiritualist",
          3
        ],
        [
          "hunter",
          4
        ],
        [
          "unchained Summoner",
          3
        ]
      ],
      "domain": [
        [
          "Trickery",
          3
        ]
      ],
      "subDomain": [],
      "elementalSchool": [],
      "bloodline": []
    },
    "level": 3,
    "clOffset": 0,
    "slOffset": 0,
    "school": "abj",
    "subschool": "",
    "types": "",
    "nonlethal": false,
    "conditionals": [],
    "components": {
      "value": "",
      "verbal": true,
      "somatic": true,
      "material": true,
      "focus": false,
      "divineFocus": 0
    },
    "castTime": "",
    "materials": {
      "value": "diamond dust worth 50 gp",
      "focus": "",
      "gpValue": 50
    },
    "spellbook": "",
    "preparation": {
      "preparedAmount": 0,
      "maxAmount": 0,
      "autoDeductCharges": false,
      "spontaneousPrepared": false,
      "mode": "prepared"
    },
    "atWill": false,
    "sr": true,
    "shortDescription": "<p>The warded creature or object becomes difficult to <i>detect</i> by divination spells such as <i>clairaudience/clairvoyance, locate object,</i> and <i>detect</i> spells. <i>Nondetection</i> also prevents location by such magic items as <i>crystal ball</i>s. If a divination is attempted against the warded creature or item, the caster of the divination must succeed on a caster level check (1d20 + caster level) against a DC of 11 + the caster level of the spellcaster who cast <i>nondetection</i>. If you cast <i>nondetection</i> on yourself or on an item currently in your possession, the DC is 15 + your caster level.</p><p>If cast on a creature, <i>nondetection</i> wards the creature's gear as well as the creature itself.</p>",
    "spellDuration": "1 hour/level",
    "spellEffect": "",
    "spellArea": "",
    "showInQuickbar": false,
    "spellPoints": {
      "cost": ""
    },
    "domain": false,
    "slotCost": 1
  },
  "flags": {},
  "img": "systems/pf1/icons/misc/magic-swirl.png",
  "effects": []
}