{
  "_id": "ldijs33l5ycavo2g",
  "name": "Psychic Reading",
  "permission": {
    "default": 0
  },
  "type": "spell",
  "data": {
    "description": {
      "value": "<div class=\"spell-description\">\n  <p>\n    <strong>School</strong>&nbsp;divination;\n    <strong>Level</strong>&nbsp;bard 2, inquisitor 2, medium 1, mesmerist 1, occultist 1, psychic 1, sorcerer/wizard 2, spiritualist 1;\n    \n    \n    \n    \n  </p>\n  <p>\n    <strong>Casting Time</strong>&nbsp;1 standard action<br>\n    <strong>Components</strong>&nbsp;V<br>\n  </p>\n  <p>\n    <strong>Range</strong>&nbsp;close (25 ft. + 5 ft./2 levels)<br>\n    \n    <strong>Targets</strong>&nbsp;one humanoid creature<br>\n    \n    <strong>Duration</strong>&nbsp;1 round<br>\n    <strong>Saving Throw</strong>&nbsp;none;&nbsp;<strong>Spell Resistance</strong>&nbsp;yes<br>\n  </p>\n  <h2>Description</h2>\n  <p>You are able to read a person's surface thoughts and take cues from the person's appearance, body language, and manner of speech to infer a great deal of information about the person, even if that person is in disguise (including polymorph effects). When casting the spell, attempt a DC 20 Sense Motive check with a bonus equal to your caster level. A successful skill check reveals to you one of the following pieces of information of your choice, plus one additional piece of information for every 5 points by which your check result exceeds 20: age, alignment, class&#8224;, feats&#8224;, gender, native language, place of origin, race or ethnicity, racial traits&#8224;, religion, sexual orientation, or training in a Craft, Perform, or Profession skill. For items marked with a cross (&#8224;), if the target has more than one of these features, each one you discover counts as a piece of information.  There's a 70% chance that all information you receive is correct. This roll is made secretly. Otherwise, on a roll of 71-80, you receive one false piece of information, on a roll of 81-90 you receive two, and on a roll of 91-100 you receive three. You can't get more false information than the total number of pieces of information you discover.</p>\n</div>\n",
      "chat": "",
      "unidentified": ""
    },
    "tags": [],
    "activation": {
      "cost": 1,
      "type": "standard"
    },
    "unchainedAction": {
      "activation": {
        "cost": 2,
        "type": "action"
      }
    },
    "duration": {
      "value": null,
      "units": ""
    },
    "target": {
      "value": "one humanoid creature"
    },
    "range": {
      "value": null,
      "units": "close",
      "maxIncrements": 1,
      "minValue": null,
      "minUnits": ""
    },
    "uses": {
      "value": 0,
      "max": 0,
      "per": "",
      "autoDeductCharges": true,
      "autoDeductChargesCost": "1"
    },
    "measureTemplate": {
      "type": "",
      "size": "0",
      "overrideColor": false,
      "customColor": "",
      "overrideTexture": false,
      "customTexture": ""
    },
    "attackName": "",
    "actionType": "",
    "attackBonus": "",
    "critConfirmBonus": "",
    "damage": {
      "parts": [],
      "critParts": [],
      "nonCritParts": []
    },
    "attackParts": [],
    "formula": "",
    "ability": {
      "attack": "",
      "damage": "",
      "damageMult": 1,
      "critRange": 20,
      "critMult": 2
    },
    "save": {
      "dc": "0",
      "type": "",
      "description": ""
    },
    "effectNotes": "",
    "attackNotes": "",
    "soundEffect": "",
    "links": {
      "children": []
    },
    "learnedAt": {
      "class": [
        [
          "sorcerer/wizard",
          2
        ],
        [
          "bard",
          2
        ],
        [
          "inquisitor",
          2
        ],
        [
          "psychic",
          1
        ],
        [
          "medium",
          1
        ],
        [
          "mesmerist",
          1
        ],
        [
          "occultist",
          1
        ],
        [
          "spiritualist",
          1
        ]
      ],
      "domain": [],
      "subDomain": [],
      "elementalSchool": [],
      "bloodline": []
    },
    "level": 2,
    "clOffset": 0,
    "slOffset": 0,
    "school": "div",
    "subschool": "",
    "types": "",
    "nonlethal": false,
    "conditionals": [],
    "components": {
      "value": "",
      "verbal": true,
      "somatic": false,
      "material": false,
      "focus": false,
      "divineFocus": 0
    },
    "castTime": "",
    "materials": {
      "value": "",
      "focus": "",
      "gpValue": 0
    },
    "spellbook": "primary",
    "preparation": {
      "preparedAmount": 0,
      "maxAmount": 0,
      "autoDeductCharges": true,
      "spontaneousPrepared": true,
      "mode": "prepared"
    },
    "atWill": false,
    "sr": true,
    "shortDescription": "<p>You are able to read a person's surface thoughts and take cues from the person's appearance, body language, and manner of speech to infer a great deal of information about the person, even if that person is in disguise (including polymorph effects). When casting the spell, attempt a DC 20 Sense Motive check with a bonus equal to your caster level. A successful skill check reveals to you one of the following pieces of information of your choice, plus one additional piece of information for every 5 points by which your check result exceeds 20: age, alignment, class&#8224;, feats&#8224;, gender, native language, place of origin, race or ethnicity, racial traits&#8224;, religion, sexual orientation, or training in a Craft, Perform, or Profession skill. For items marked with a cross (&#8224;), if the target has more than one of these features, each one you discover counts as a piece of information.  There's a 70% chance that all information you receive is correct. This roll is made secretly. Otherwise, on a roll of 71-80, you receive one false piece of information, on a roll of 81-90 you receive two, and on a roll of 91-100 you receive three. You can't get more false information than the total number of pieces of information you discover.</p>",
    "spellDuration": "1 round",
    "spellEffect": "",
    "spellArea": "",
    "showInQuickbar": false,
    "spellPoints": {
      "cost": "1 + @sl"
    },
    "domain": false,
    "slotCost": 1
  },
  "flags": {},
  "img": "systems/pf1/icons/misc/magic-swirl.png",
  "effects": []
}