{
  "_id": "9b4iklatq5hn1z5m",
  "name": "Quench",
  "permission": {
    "default": 0
  },
  "type": "spell",
  "data": {
    "description": {
      "value": "<div class=\"spell-description\">\n  <p>\n    <strong>School</strong>&nbsp;transmutation;\n    <strong>Level</strong>&nbsp;druid 3, hunter 3;\n    \n    \n    \n    \n  </p>\n  <p>\n    <strong>Casting Time</strong>&nbsp;1 standard action<br>\n    <strong>Components</strong>&nbsp;V, S, DF<br>\n  </p>\n  <p>\n    <strong>Range</strong>&nbsp;medium (100 ft. + 10 ft./level)<br>\n    <strong>Area</strong>&nbsp;one 20-ft. cube/level (S)<br>\n    <strong>Targets</strong>&nbsp;one fire-based magic item<br>\n    \n    <strong>Duration</strong>&nbsp;instantaneous<br>\n    <strong>Saving Throw</strong>&nbsp;none or Will negates (object);&nbsp;<strong>Spell Resistance</strong>&nbsp;no<br>\n  </p>\n  <h2>Description</h2>\n  <p><i>Quench</i> is often used to put out forest fires and other conflagrations. It extinguishes all nonmagical fires in its area.</p><p>The spell also dispels any fire spells in its area, though you must succeed on a dispel check (1d20 +1 per caster level, maximum +15) against each spell to dispel it. The DC to dispel such spells is 11 + the caster level of the fire spell.</p><p>Each creature with the fire subtype within the area of a <i>quench</i> spell takes 1d6 points of damage per caster level (maximum 10d6, no save allowed).</p><p>Alternatively, you can target the spell on a single magic item that creates or controls flame. The item loses all its fire-based magical abilities for 1d4 hours unless it succeeds on a Will save. Artifacts are immune to this effect.</p>\n</div>\n",
      "chat": "",
      "unidentified": ""
    },
    "tags": [],
    "activation": {
      "cost": 1,
      "type": "standard"
    },
    "unchainedAction": {
      "activation": {
        "cost": 2,
        "type": "action"
      }
    },
    "duration": {
      "value": null,
      "units": ""
    },
    "target": {
      "value": "one fire-based magic item"
    },
    "range": {
      "value": null,
      "units": "medium",
      "maxIncrements": 1,
      "minValue": null,
      "minUnits": ""
    },
    "uses": {
      "value": 0,
      "max": 0,
      "per": "",
      "autoDeductCharges": true,
      "autoDeductChargesCost": "1"
    },
    "measureTemplate": {
      "type": "",
      "size": "0",
      "overrideColor": false,
      "customColor": "",
      "overrideTexture": false,
      "customTexture": ""
    },
    "attackName": "",
    "actionType": "spellsave",
    "attackBonus": "",
    "critConfirmBonus": "",
    "damage": {
      "parts": [],
      "critParts": [],
      "nonCritParts": []
    },
    "attackParts": [],
    "formula": "",
    "ability": {
      "attack": "",
      "damage": "",
      "damageMult": 1,
      "critRange": 20,
      "critMult": 2
    },
    "save": {
      "dc": "0",
      "type": "will",
      "description": "none or Will negates (object)"
    },
    "effectNotes": "",
    "attackNotes": "",
    "soundEffect": "",
    "links": {
      "children": []
    },
    "learnedAt": {
      "class": [
        [
          "druid",
          3
        ],
        [
          "hunter",
          3
        ]
      ],
      "domain": [],
      "subDomain": [],
      "elementalSchool": [],
      "bloodline": []
    },
    "level": 3,
    "clOffset": 0,
    "slOffset": 0,
    "school": "trs",
    "subschool": "",
    "types": "",
    "nonlethal": false,
    "conditionals": [],
    "components": {
      "value": "",
      "verbal": true,
      "somatic": true,
      "material": false,
      "focus": false,
      "divineFocus": 1
    },
    "castTime": "",
    "materials": {
      "value": "",
      "focus": "",
      "gpValue": 0
    },
    "spellbook": "primary",
    "preparation": {
      "preparedAmount": 0,
      "maxAmount": 0,
      "autoDeductCharges": true,
      "spontaneousPrepared": true,
      "mode": "prepared"
    },
    "atWill": false,
    "sr": false,
    "shortDescription": "<p><i>Quench</i> is often used to put out forest fires and other conflagrations. It extinguishes all nonmagical fires in its area.</p><p>The spell also dispels any fire spells in its area, though you must succeed on a dispel check (1d20 +1 per caster level, maximum +15) against each spell to dispel it. The DC to dispel such spells is 11 + the caster level of the fire spell.</p><p>Each creature with the fire subtype within the area of a <i>quench</i> spell takes 1d6 points of damage per caster level (maximum 10d6, no save allowed).</p><p>Alternatively, you can target the spell on a single magic item that creates or controls flame. The item loses all its fire-based magical abilities for 1d4 hours unless it succeeds on a Will save. Artifacts are immune to this effect.</p>",
    "spellDuration": "instantaneous",
    "spellEffect": "",
    "spellArea": "one 20-ft. cube/level (S)",
    "showInQuickbar": false,
    "spellPoints": {
      "cost": "1 + @sl"
    },
    "domain": false,
    "slotCost": 1
  },
  "flags": {},
  "img": "systems/pf1/icons/misc/magic-swirl.png",
  "effects": []
}