{
  "_id": "f6di4ntmg79lcaxa",
  "name": "Restful Cloak",
  "permission": {
    "default": 0
  },
  "type": "spell",
  "data": {
    "description": {
      "value": "<div class=\"spell-description\">\n  <p>\n    <strong>School</strong>&nbsp;conjuration&nbsp;(healing);\n    <strong>Level</strong>&nbsp;cleric/oracle 2, druid 2, hunter 2, occultist 2, paladin 2, ranger 2, shaman 2;\n    \n    \n    \n    \n  </p>\n  <p>\n    <strong>Casting Time</strong>&nbsp;1 standard action<br>\n    <strong>Components</strong>&nbsp;V, S, F (cloak)<br>\n  </p>\n  <p>\n    <strong>Range</strong>&nbsp;personal<br>\n    \n    <strong>Targets</strong>&nbsp;you<br>\n    \n    <strong>Duration</strong>&nbsp;1 hour/level<br>\n    \n  </p>\n  <h2>Description</h2>\n  <p>A cloak you are wearing transforms into a canvas tent large enough to hold four Medium creatures, firmly pitched in a flat area adjacent to you (if there is no such area, this spell simply fails). A creature regains 1 hit point for each hour it rests in the tent, in addition to any other benefits of resting. Additionally, a fatigued creature resting within the tent for 1 hour loses the fatigued condition, but a creature cannot recover from being fatigued more than once per casting of <i>restful tent</i>. At the end of the spell's duration, the tent transforms back into a cloak. If the tent is moved prior to the expiration of the spell's duration, the spell immediately ends.</p>\n</div>\n",
      "chat": "",
      "unidentified": ""
    },
    "tags": [],
    "activation": {
      "cost": 1,
      "type": "standard"
    },
    "unchainedAction": {
      "activation": {
        "cost": 2,
        "type": "action"
      }
    },
    "duration": {
      "value": null,
      "units": ""
    },
    "target": {
      "value": "you"
    },
    "range": {
      "value": null,
      "units": "personal",
      "maxIncrements": 1,
      "minValue": null,
      "minUnits": ""
    },
    "uses": {
      "value": 0,
      "max": 0,
      "per": "",
      "autoDeductCharges": true,
      "autoDeductChargesCost": "1"
    },
    "measureTemplate": {
      "type": "",
      "size": "0",
      "overrideColor": false,
      "customColor": "",
      "overrideTexture": false,
      "customTexture": ""
    },
    "attackName": "",
    "actionType": "heal",
    "attackBonus": "",
    "critConfirmBonus": "",
    "damage": {
      "parts": [],
      "critParts": [],
      "nonCritParts": []
    },
    "attackParts": [],
    "formula": "",
    "ability": {
      "attack": "",
      "damage": "",
      "damageMult": 1,
      "critRange": 20,
      "critMult": 2
    },
    "save": {
      "dc": "0",
      "type": "",
      "description": ""
    },
    "effectNotes": "",
    "attackNotes": "",
    "soundEffect": "",
    "links": {
      "children": []
    },
    "learnedAt": {
      "class": [
        [
          "cleric/oracle",
          2
        ],
        [
          "druid",
          2
        ],
        [
          "ranger",
          2
        ],
        [
          "paladin",
          2
        ],
        [
          "shaman",
          2
        ],
        [
          "occultist",
          2
        ],
        [
          "hunter",
          2
        ]
      ],
      "domain": [],
      "subDomain": [],
      "elementalSchool": [],
      "bloodline": []
    },
    "level": 2,
    "clOffset": 0,
    "slOffset": 0,
    "school": "con",
    "subschool": "healing",
    "types": "",
    "nonlethal": false,
    "conditionals": [],
    "components": {
      "value": "",
      "verbal": true,
      "somatic": true,
      "material": false,
      "focus": true,
      "divineFocus": 0
    },
    "castTime": "",
    "materials": {
      "value": "",
      "focus": "cloak",
      "gpValue": 0
    },
    "spellbook": "primary",
    "preparation": {
      "preparedAmount": 0,
      "maxAmount": 0,
      "autoDeductCharges": true,
      "spontaneousPrepared": true,
      "mode": "prepared"
    },
    "atWill": false,
    "sr": false,
    "shortDescription": "<p>A cloak you are wearing transforms into a canvas tent large enough to hold four Medium creatures, firmly pitched in a flat area adjacent to you (if there is no such area, this spell simply fails). A creature regains 1 hit point for each hour it rests in the tent, in addition to any other benefits of resting. Additionally, a fatigued creature resting within the tent for 1 hour loses the fatigued condition, but a creature cannot recover from being fatigued more than once per casting of <i>restful tent</i>. At the end of the spell's duration, the tent transforms back into a cloak. If the tent is moved prior to the expiration of the spell's duration, the spell immediately ends.</p>",
    "spellDuration": "1 hour/level",
    "spellEffect": "",
    "spellArea": "",
    "showInQuickbar": false,
    "spellPoints": {
      "cost": "1 + @sl"
    },
    "domain": false,
    "slotCost": 1
  },
  "flags": {},
  "img": "systems/pf1/icons/misc/magic-swirl.png",
  "effects": []
}