{
  "_id": "k8f0wbuejnhobphf",
  "name": "Sculpt Corpse",
  "permission": {
    "default": 0
  },
  "type": "spell",
  "data": {
    "description": {
      "value": "<div class=\"spell-description\">\n  <p>\n    <strong>School</strong>&nbsp;necromancy;\n    <strong>Level</strong>&nbsp;occultist 1, sorcerer/wizard 1;\n    \n    \n    \n    \n  </p>\n  <p>\n    <strong>Casting Time</strong>&nbsp;1 standard action<br>\n    <strong>Components</strong>&nbsp;V, S, M (lump of wax)<br>\n  </p>\n  <p>\n    <strong>Range</strong>&nbsp;touch<br>\n    \n    <strong>Targets</strong>&nbsp;one dead creature touched<br>\n    \n    <strong>Duration</strong>&nbsp;instantaneous<br>\n    <strong>Saving Throw</strong>&nbsp;Will partial; see text;&nbsp;<strong>Spell Resistance</strong>&nbsp;no<br>\n  </p>\n  <h2>Description</h2>\n  <p>With a clammy caress and a word to the powers lurking beyond death, you can reshape a dead body look like another creature or even a specific person so long as you have firsthand knowledge of how that creature or person actually looks.</p><p>You can make the corpse one size larger or smaller and change anything else about it including its apparent type, gender, or age. Creatures with a reason to suspect deception may make a Will saving throw to realize that the corpse was altered. If you chose to make the corpse look like a specific individual anyone who knows that individual can make a Will save to realize that the corpse is not actually that person. However, if a creature fails its Will save by 5 or less they believe the corpse is that of someone who closely resembled the person they knew rather than a deliberate fake. This spell merely changes the appearance of the corpse. Any spell or effect that targets the corpse (such as <i>speak with dead</i> or <i>raise dead</i>) treats it as if it still had its original appearance.</p>\n</div>\n",
      "chat": "",
      "unidentified": ""
    },
    "tags": [],
    "activation": {
      "cost": 1,
      "type": "standard"
    },
    "unchainedAction": {
      "activation": {
        "cost": 2,
        "type": "action"
      }
    },
    "duration": {
      "value": null,
      "units": ""
    },
    "target": {
      "value": "one dead creature touched"
    },
    "range": {
      "value": null,
      "units": "touch",
      "maxIncrements": 1,
      "minValue": null,
      "minUnits": ""
    },
    "uses": {
      "value": 0,
      "max": 0,
      "per": "",
      "autoDeductCharges": true,
      "autoDeductChargesCost": "1"
    },
    "measureTemplate": {
      "type": "",
      "size": "0",
      "overrideColor": false,
      "customColor": "",
      "overrideTexture": false,
      "customTexture": ""
    },
    "attackName": "",
    "actionType": "spellsave",
    "attackBonus": "",
    "critConfirmBonus": "",
    "damage": {
      "parts": [],
      "critParts": [],
      "nonCritParts": []
    },
    "attackParts": [],
    "formula": "",
    "ability": {
      "attack": "",
      "damage": "",
      "damageMult": 1,
      "critRange": 20,
      "critMult": 2
    },
    "save": {
      "dc": "0",
      "type": "will",
      "description": "Will partial; see text"
    },
    "effectNotes": "",
    "attackNotes": "",
    "soundEffect": "",
    "links": {
      "children": []
    },
    "learnedAt": {
      "class": [
        [
          "sorcerer/wizard",
          1
        ],
        [
          "occultist",
          1
        ]
      ],
      "domain": [],
      "subDomain": [],
      "elementalSchool": [],
      "bloodline": []
    },
    "level": 1,
    "clOffset": 0,
    "slOffset": 0,
    "school": "nec",
    "subschool": "",
    "types": "",
    "nonlethal": false,
    "conditionals": [],
    "components": {
      "value": "",
      "verbal": true,
      "somatic": true,
      "material": true,
      "focus": false,
      "divineFocus": 0
    },
    "castTime": "",
    "materials": {
      "value": "lump of wax",
      "focus": "",
      "gpValue": 0
    },
    "spellbook": "primary",
    "preparation": {
      "preparedAmount": 0,
      "maxAmount": 0,
      "autoDeductCharges": true,
      "spontaneousPrepared": true,
      "mode": "prepared"
    },
    "atWill": false,
    "sr": false,
    "shortDescription": "<p>With a clammy caress and a word to the powers lurking beyond death, you can reshape a dead body look like another creature or even a specific person so long as you have firsthand knowledge of how that creature or person actually looks.</p><p>You can make the corpse one size larger or smaller and change anything else about it including its apparent type, gender, or age. Creatures with a reason to suspect deception may make a Will saving throw to realize that the corpse was altered. If you chose to make the corpse look like a specific individual anyone who knows that individual can make a Will save to realize that the corpse is not actually that person. However, if a creature fails its Will save by 5 or less they believe the corpse is that of someone who closely resembled the person they knew rather than a deliberate fake. This spell merely changes the appearance of the corpse. Any spell or effect that targets the corpse (such as <i>speak with dead</i> or <i>raise dead</i>) treats it as if it still had its original appearance.</p>",
    "spellDuration": "instantaneous",
    "spellEffect": "",
    "spellArea": "",
    "showInQuickbar": false,
    "spellPoints": {
      "cost": "1 + @sl"
    },
    "domain": false,
    "slotCost": 1
  },
  "flags": {},
  "img": "systems/pf1/icons/misc/magic-swirl.png",
  "effects": []
}