{
  "_id": "i9qdkbhqxkmuwx54",
  "name": "Shadowy Haven",
  "permission": {
    "default": 0
  },
  "type": "spell",
  "data": {
    "description": {
      "value": "<div class=\"spell-description\">\n  <p>\n    <strong>School</strong>&nbsp;transmutation;\n    <strong>Level</strong>&nbsp;psychic 4, sorcerer/wizard 4;\n    \n    \n    \n    \n  </p>\n  <p>\n    <strong>Casting Time</strong>&nbsp;1 standard action<br>\n    <strong>Components</strong>&nbsp;V, S, M (a small black silk bag)<br>\n  </p>\n  <p>\n    <strong>Range</strong>&nbsp;touch<br>\n    \n    <strong>Targets</strong>&nbsp;one 5-foot square of floor touched<br>\n    \n    <strong>Duration</strong>&nbsp;2 hours/level (D)<br>\n    <strong>Saving Throw</strong>&nbsp;none;&nbsp;<strong>Spell Resistance</strong>&nbsp;no<br>\n  </p>\n  <h2>Description</h2>\n  <p>This spell functions like <i>rope trick</i>, except the point of entry is through a 5-foot-square instead of a rope. The space holds as many as 10 creatures of any size.  When this spell is cast upon a 5-foot-square part of a wall, it creates an extradimensional space adjacent to the Plane of Shadow. Creatures in the extradimensional space are hidden beyond the reach of spells (including divinations) unless those spells work across planes. The space holds as many as 10 creatures (of any size). The entrance to the extradimensional space remains visible as an area that is darker than the ambient illumination.  Spells cannot be cast across the extradimensional interface, nor can area effects cross it. Those in the extradimensional space can see out of it as if a 5-foot-by-5-foot door or window were centered on the affected surface. The window is invisible (though it is within the shadowed entrance to the spell, which is visible), and even creatures that can see the window from the outside can't see through it. Anything inside the extradimensional space is ejected when the spell ends. Only one creature may enter or exit the extradimensional space at a time.  The entrance is only open when the area around it is in dim light. Any other level of light (brighter or darker) closes the entrance, trapping creatures inside the extradimensional space. If the entrance is closed when the spell expires, there is a 50% chance that creatures in it are ejected into the Shadow Plane instead of the location of the entrance. If this occurs, the creatures appear on the Shadow Plane 1d10 miles in a random direction from their corresponding location on the Material Plane. The spell has no effect if cast on a plane that is not adjacent to the Shadow Plane.  Because the extradimensional space is adjacent to the Shadow Plane, any <i>shadow walk</i> spell or similar effect that allows travel to the Shadow Plane is more accurate, reducing the distance creatures arrive off-target by half.</p>\n</div>\n",
      "chat": "",
      "unidentified": ""
    },
    "tags": [],
    "activation": {
      "cost": 1,
      "type": "standard"
    },
    "unchainedAction": {
      "activation": {
        "cost": 2,
        "type": "action"
      }
    },
    "duration": {
      "value": null,
      "units": ""
    },
    "target": {
      "value": "one 5-foot square of floor touched"
    },
    "range": {
      "value": null,
      "units": "touch",
      "maxIncrements": 1,
      "minValue": null,
      "minUnits": ""
    },
    "uses": {
      "value": 0,
      "max": 0,
      "per": "",
      "autoDeductCharges": true,
      "autoDeductChargesCost": "1"
    },
    "measureTemplate": {
      "type": "",
      "size": "0",
      "overrideColor": false,
      "customColor": "",
      "overrideTexture": false,
      "customTexture": ""
    },
    "attackName": "",
    "actionType": "",
    "attackBonus": "",
    "critConfirmBonus": "",
    "damage": {
      "parts": [],
      "critParts": [],
      "nonCritParts": []
    },
    "attackParts": [],
    "formula": "",
    "ability": {
      "attack": "",
      "damage": "",
      "damageMult": 1,
      "critRange": 20,
      "critMult": 2
    },
    "save": {
      "dc": "0",
      "type": "",
      "description": ""
    },
    "effectNotes": "",
    "attackNotes": "",
    "soundEffect": "",
    "links": {
      "children": []
    },
    "learnedAt": {
      "class": [
        [
          "sorcerer/wizard",
          4
        ],
        [
          "psychic",
          4
        ]
      ],
      "domain": [],
      "subDomain": [],
      "elementalSchool": [],
      "bloodline": []
    },
    "level": 4,
    "clOffset": 0,
    "slOffset": 0,
    "school": "trs",
    "subschool": "",
    "types": "",
    "nonlethal": false,
    "conditionals": [],
    "components": {
      "value": "",
      "verbal": true,
      "somatic": true,
      "material": true,
      "focus": false,
      "divineFocus": 0
    },
    "castTime": "",
    "materials": {
      "value": "a small black silk bag",
      "focus": "",
      "gpValue": 0
    },
    "spellbook": "primary",
    "preparation": {
      "preparedAmount": 0,
      "maxAmount": 0,
      "autoDeductCharges": true,
      "spontaneousPrepared": true,
      "mode": "prepared"
    },
    "atWill": false,
    "sr": false,
    "shortDescription": "<p>This spell functions like <i>rope trick</i>, except the point of entry is through a 5-foot-square instead of a rope. The space holds as many as 10 creatures of any size.  When this spell is cast upon a 5-foot-square part of a wall, it creates an extradimensional space adjacent to the Plane of Shadow. Creatures in the extradimensional space are hidden beyond the reach of spells (including divinations) unless those spells work across planes. The space holds as many as 10 creatures (of any size). The entrance to the extradimensional space remains visible as an area that is darker than the ambient illumination.  Spells cannot be cast across the extradimensional interface, nor can area effects cross it. Those in the extradimensional space can see out of it as if a 5-foot-by-5-foot door or window were centered on the affected surface. The window is invisible (though it is within the shadowed entrance to the spell, which is visible), and even creatures that can see the window from the outside can't see through it. Anything inside the extradimensional space is ejected when the spell ends. Only one creature may enter or exit the extradimensional space at a time.  The entrance is only open when the area around it is in dim light. Any other level of light (brighter or darker) closes the entrance, trapping creatures inside the extradimensional space. If the entrance is closed when the spell expires, there is a 50% chance that creatures in it are ejected into the Shadow Plane instead of the location of the entrance. If this occurs, the creatures appear on the Shadow Plane 1d10 miles in a random direction from their corresponding location on the Material Plane. The spell has no effect if cast on a plane that is not adjacent to the Shadow Plane.  Because the extradimensional space is adjacent to the Shadow Plane, any <i>shadow walk</i> spell or similar effect that allows travel to the Shadow Plane is more accurate, reducing the distance creatures arrive off-target by half.</p>",
    "spellDuration": "2 hours/level (D)",
    "spellEffect": "",
    "spellArea": "",
    "showInQuickbar": false,
    "spellPoints": {
      "cost": "1 + @sl"
    },
    "domain": false,
    "slotCost": 1
  },
  "flags": {},
  "img": "systems/pf1/icons/misc/magic-swirl.png",
  "effects": []
}