{
  "_id": "qf2gkwp0z8olbg6n",
  "name": "Shifting Shadows",
  "permission": {
    "default": 0
  },
  "type": "spell",
  "data": {
    "description": {
      "value": "<div class=\"spell-description\">\n  <p>\n    <strong>School</strong>&nbsp;evocation&nbsp;[darkness];\n    <strong>Level</strong>&nbsp;bard 3, sorcerer/wizard 3, witch 3;\n    \n    \n    \n    \n  </p>\n  <p>\n    <strong>Casting Time</strong>&nbsp;1 standard action<br>\n    <strong>Components</strong>&nbsp;V, S, M (a drop of ink)<br>\n  </p>\n  <p>\n    <strong>Range</strong>&nbsp;medium (100 ft. + 10 ft./level)<br>\n    <strong>Area</strong>&nbsp;20-ft.-radius emanation centered on a point in space<br>\n    \n    \n    <strong>Duration</strong>&nbsp;1 round/level (D)<br>\n    <strong>Saving Throw</strong>&nbsp;none, see text;&nbsp;<strong>Spell Resistance</strong>&nbsp;no<br>\n  </p>\n  <h2>Description</h2>\n  <p>Waves of shifting shadows obscure the appearance of all creatures caught within the emanation, making it harder to tell friends from foes.  This spell does not cause affected creatures to risk accidentally attacking their allies, but it does require them to concentrate harder to keep track of their allies and foes. While this spell is in effect, every creature in the area can treat any other creature in the area as an allied threatening creature for the purpose of flanking. Further, whenever a creature in the area would provoke an attack of opportunity from an enemy, that creatures' allies in the area must succeed at a Reflex save or lose one attack of opportunity for that round as they suppress the instinct to attack a vulnerable target that might be an ally. The shadows do not hinder precision-based attacks or create areas of dim light.  Creatures under the effect of <i>true seeing</i> are not affected by this spell. Creatures with scent or keen scent, creatures that are blind, and creatures that operate effectively without vision (such as creatures with blindsight or blindsense) are also not affected by this spell.</p>\n</div>\n",
      "chat": "",
      "unidentified": ""
    },
    "tags": [],
    "activation": {
      "cost": 1,
      "type": "standard"
    },
    "unchainedAction": {
      "activation": {
        "cost": 2,
        "type": "action"
      }
    },
    "duration": {
      "value": null,
      "units": ""
    },
    "target": {
      "value": ""
    },
    "range": {
      "value": null,
      "units": "medium",
      "maxIncrements": 1,
      "minValue": null,
      "minUnits": ""
    },
    "uses": {
      "value": 0,
      "max": 0,
      "per": "",
      "autoDeductCharges": true,
      "autoDeductChargesCost": "1"
    },
    "measureTemplate": {
      "type": "",
      "size": "0",
      "overrideColor": false,
      "customColor": "",
      "overrideTexture": false,
      "customTexture": ""
    },
    "attackName": "",
    "actionType": "spellsave",
    "attackBonus": "",
    "critConfirmBonus": "",
    "damage": {
      "parts": [],
      "critParts": [],
      "nonCritParts": []
    },
    "attackParts": [],
    "formula": "",
    "ability": {
      "attack": "",
      "damage": "",
      "damageMult": 1,
      "critRange": 20,
      "critMult": 2
    },
    "save": {
      "dc": "0",
      "type": "",
      "description": "none, see text"
    },
    "effectNotes": "",
    "attackNotes": "",
    "soundEffect": "",
    "links": {
      "children": []
    },
    "learnedAt": {
      "class": [
        [
          "sorcerer/wizard",
          3
        ],
        [
          "bard",
          3
        ],
        [
          "witch",
          3
        ]
      ],
      "domain": [],
      "subDomain": [],
      "elementalSchool": [],
      "bloodline": []
    },
    "level": 3,
    "clOffset": 0,
    "slOffset": 0,
    "school": "evo",
    "subschool": "",
    "types": "darkness",
    "nonlethal": false,
    "conditionals": [],
    "components": {
      "value": "",
      "verbal": true,
      "somatic": true,
      "material": true,
      "focus": false,
      "divineFocus": 0
    },
    "castTime": "",
    "materials": {
      "value": "a drop of ink",
      "focus": "",
      "gpValue": 0
    },
    "spellbook": "primary",
    "preparation": {
      "preparedAmount": 0,
      "maxAmount": 0,
      "autoDeductCharges": true,
      "spontaneousPrepared": true,
      "mode": "prepared"
    },
    "atWill": false,
    "sr": false,
    "shortDescription": "<p>Waves of shifting shadows obscure the appearance of all creatures caught within the emanation, making it harder to tell friends from foes.  This spell does not cause affected creatures to risk accidentally attacking their allies, but it does require them to concentrate harder to keep track of their allies and foes. While this spell is in effect, every creature in the area can treat any other creature in the area as an allied threatening creature for the purpose of flanking. Further, whenever a creature in the area would provoke an attack of opportunity from an enemy, that creatures' allies in the area must succeed at a Reflex save or lose one attack of opportunity for that round as they suppress the instinct to attack a vulnerable target that might be an ally. The shadows do not hinder precision-based attacks or create areas of dim light.  Creatures under the effect of <i>true seeing</i> are not affected by this spell. Creatures with scent or keen scent, creatures that are blind, and creatures that operate effectively without vision (such as creatures with blindsight or blindsense) are also not affected by this spell.</p>",
    "spellDuration": "1 round/level (D)",
    "spellEffect": "",
    "spellArea": "20-ft.-radius emanation centered on a point in space",
    "showInQuickbar": false,
    "spellPoints": {
      "cost": "1 + @sl"
    },
    "domain": false,
    "slotCost": 1
  },
  "flags": {},
  "img": "systems/pf1/icons/misc/magic-swirl.png",
  "effects": []
}