{
  "_id": "gvfrhibwwuar2rcf",
  "name": "Shrink Item",
  "permission": {
    "default": 0
  },
  "type": "spell",
  "data": {
    "description": {
      "value": "<div class=\"spell-description\">\n  <p>\n    <strong>School</strong>&nbsp;transmutation;\n    <strong>Level</strong>&nbsp;occultist 3, psychic 3, sorcerer/wizard 3;\n    \n    \n    \n    <strong>Bloodline</strong>&nbsp;Impossible 3;\n  </p>\n  <p>\n    <strong>Casting Time</strong>&nbsp;1 standard action<br>\n    <strong>Components</strong>&nbsp;V, S<br>\n  </p>\n  <p>\n    <strong>Range</strong>&nbsp;touch<br>\n    \n    <strong>Targets</strong>&nbsp;one touched object of up to 2 cu. ft./level<br>\n    \n    <strong>Duration</strong>&nbsp;1 day/level; see text<br>\n    <strong>Saving Throw</strong>&nbsp;Will negates (object);&nbsp;<strong>Spell Resistance</strong>&nbsp;yes<br>\n  </p>\n  <h2>Description</h2>\n  <p>You are able to shrink one nonmagical item (if it is within the size limit) to 1/16 of its normal size in each dimension (to about 1/4,000 the original volume and mass). This change effectively reduces the object's size by four categories. Optionally, you can also change its now shrunken composition to a clothlike one.</p><p>Objects changed by a <i>shrink item</i> spell can be returned to normal composition and size merely by tossing them onto any solid surface or by a word of command from the original caster. Even a burning fire and its fuel can be shrunk by this spell. Restoring the shrunken object to its normal size and composition ends the spell.</p><p><i>Shrink item</i> can be made permanent with a <i>permanency</i> spell, in which case the affected object can be shrunk and expanded an indefinite number of times, but only by the original caster.</p>\n</div>\n",
      "chat": "",
      "unidentified": ""
    },
    "tags": [],
    "activation": {
      "cost": 1,
      "type": "standard"
    },
    "unchainedAction": {
      "activation": {
        "cost": 2,
        "type": "action"
      }
    },
    "duration": {
      "value": null,
      "units": ""
    },
    "target": {
      "value": "one touched object of up to 2 cu. ft./level"
    },
    "range": {
      "value": null,
      "units": "touch",
      "maxIncrements": 1,
      "minValue": null,
      "minUnits": ""
    },
    "uses": {
      "value": 0,
      "max": 0,
      "per": "",
      "autoDeductCharges": true,
      "autoDeductChargesCost": "1"
    },
    "measureTemplate": {
      "type": "",
      "size": "0",
      "overrideColor": false,
      "customColor": "",
      "overrideTexture": false,
      "customTexture": ""
    },
    "attackName": "",
    "actionType": "spellsave",
    "attackBonus": "",
    "critConfirmBonus": "",
    "damage": {
      "parts": [],
      "critParts": [],
      "nonCritParts": []
    },
    "attackParts": [],
    "formula": "",
    "ability": {
      "attack": "",
      "damage": "",
      "damageMult": 1,
      "critRange": 20,
      "critMult": 2
    },
    "save": {
      "dc": "0",
      "type": "will",
      "description": "Will negates (object)"
    },
    "effectNotes": "",
    "attackNotes": "",
    "soundEffect": "",
    "links": {
      "children": []
    },
    "learnedAt": {
      "class": [
        [
          "sorcerer/wizard",
          3
        ],
        [
          "psychic",
          3
        ],
        [
          "occultist",
          3
        ]
      ],
      "domain": [],
      "subDomain": [],
      "elementalSchool": [],
      "bloodline": [
        [
          "Impossible",
          3
        ]
      ]
    },
    "level": 3,
    "clOffset": 0,
    "slOffset": 0,
    "school": "trs",
    "subschool": "",
    "types": "",
    "nonlethal": false,
    "conditionals": [],
    "components": {
      "value": "",
      "verbal": true,
      "somatic": true,
      "material": false,
      "focus": false,
      "divineFocus": 0
    },
    "castTime": "",
    "materials": {
      "value": "",
      "focus": "",
      "gpValue": 0
    },
    "spellbook": "primary",
    "preparation": {
      "preparedAmount": 0,
      "maxAmount": 0,
      "autoDeductCharges": true,
      "spontaneousPrepared": true,
      "mode": "prepared"
    },
    "atWill": false,
    "sr": true,
    "shortDescription": "<p>You are able to shrink one nonmagical item (if it is within the size limit) to 1/16 of its normal size in each dimension (to about 1/4,000 the original volume and mass). This change effectively reduces the object's size by four categories. Optionally, you can also change its now shrunken composition to a clothlike one.</p><p>Objects changed by a <i>shrink item</i> spell can be returned to normal composition and size merely by tossing them onto any solid surface or by a word of command from the original caster. Even a burning fire and its fuel can be shrunk by this spell. Restoring the shrunken object to its normal size and composition ends the spell.</p><p><i>Shrink item</i> can be made permanent with a <i>permanency</i> spell, in which case the affected object can be shrunk and expanded an indefinite number of times, but only by the original caster.</p>",
    "spellDuration": "1 day/level; see text",
    "spellEffect": "",
    "spellArea": "",
    "showInQuickbar": false,
    "spellPoints": {
      "cost": "1 + @sl"
    },
    "domain": false,
    "slotCost": 1
  },
  "flags": {},
  "img": "systems/pf1/icons/misc/magic-swirl.png",
  "effects": []
}