{
  "_id": "oqwkzmt5vihwyil9",
  "name": "Snow Shape",
  "permission": {
    "default": 0
  },
  "type": "spell",
  "data": {
    "description": {
      "value": "<div class=\"spell-description\">\n  <p>\n    <strong>School</strong>&nbsp;transmutation&nbsp;[water];\n    <strong>Level</strong>&nbsp;cleric/oracle 2, druid 1, hunter 1, sorcerer/wizard 2;\n    \n    \n    \n    \n  </p>\n  <p>\n    <strong>Casting Time</strong>&nbsp;1 standard action<br>\n    <strong>Components</strong>&nbsp;V, S, M/DF (a miniature shovel)<br>\n  </p>\n  <p>\n    <strong>Range</strong>&nbsp;touch<br>\n    \n    <strong>Targets</strong>&nbsp;snow or snow-sculpted object touched, up to 5 cubic ft.  + 1 cubic ft./level<br>\n    \n    <strong>Duration</strong>&nbsp;instantaneous<br>\n    <strong>Saving Throw</strong>&nbsp;none;&nbsp;<strong>Spell Resistance</strong>&nbsp;no<br>\n  </p>\n  <h2>Description</h2>\n  <p>In frozen northern lands, where the earth may be hidden beneath heavy drifts of snow, Ulfen druids developed a variation of <i>stone shape</i> that other spellcasters have since learned.</p><p>You can form a mass of snow into any shape that suits your purpose, as per the spell <i>stone shape</i>. While it's possible to make crude objects with <i>snow shape</i>, most fine details aren't possible.</p><p>However, a successful Craft (weapons) check allows you to create a bladed weapon from the snow. The DC of this check is equal to the DC listed with the Craft (weapons) skill (<i>Core Rulebook</i> 93).</p><p>You must be the one to make the Craft check and must do so at the time of casting this spell. A failed check means that the spell is cast normally but the weapon created is malformed and useless. This spell can only be used to craft weapons and not more precise tools or elaborate armors.</p><p>Once you create the item with this spell, it solidifies into super-hard ice, gaining a hardness of 5 and 10 hit points per inch of thickness. This weapon takes double damage from fire.</p><p>Anyone using an ice weapon takes a -2 penalty on attacks due to the slippery, unwieldy nature of the weapon, but the weapon deals 1 point of cold damage in addition to its normal damage. A weapon created by this spell lasts for 24 hours before melting into uselessness.</p>\n</div>\n",
      "chat": "",
      "unidentified": ""
    },
    "tags": [],
    "activation": {
      "cost": 1,
      "type": "standard"
    },
    "unchainedAction": {
      "activation": {
        "cost": 2,
        "type": "action"
      }
    },
    "duration": {
      "value": null,
      "units": ""
    },
    "target": {
      "value": "snow or snow-sculpted object touched, up to 5 cubic ft.  + 1 cubic ft./level"
    },
    "range": {
      "value": null,
      "units": "touch",
      "maxIncrements": 1,
      "minValue": null,
      "minUnits": ""
    },
    "uses": {
      "value": 0,
      "max": 0,
      "per": "",
      "autoDeductCharges": true,
      "autoDeductChargesCost": "1"
    },
    "measureTemplate": {
      "type": "",
      "size": "0",
      "overrideColor": false,
      "customColor": "",
      "overrideTexture": false,
      "customTexture": ""
    },
    "attackName": "",
    "actionType": "",
    "attackBonus": "",
    "critConfirmBonus": "",
    "damage": {
      "parts": [],
      "critParts": [],
      "nonCritParts": []
    },
    "attackParts": [],
    "formula": "",
    "ability": {
      "attack": "",
      "damage": "",
      "damageMult": 1,
      "critRange": 20,
      "critMult": 2
    },
    "save": {
      "dc": "0",
      "type": "",
      "description": ""
    },
    "effectNotes": "",
    "attackNotes": "",
    "soundEffect": "",
    "links": {
      "children": []
    },
    "learnedAt": {
      "class": [
        [
          "sorcerer/wizard",
          2
        ],
        [
          "cleric/oracle",
          2
        ],
        [
          "druid",
          1
        ],
        [
          "hunter",
          1
        ]
      ],
      "domain": [],
      "subDomain": [],
      "elementalSchool": [],
      "bloodline": []
    },
    "level": 2,
    "clOffset": 0,
    "slOffset": 0,
    "school": "trs",
    "subschool": "",
    "types": "water",
    "nonlethal": false,
    "conditionals": [],
    "components": {
      "value": "",
      "verbal": true,
      "somatic": true,
      "material": true,
      "focus": false,
      "divineFocus": 2
    },
    "castTime": "",
    "materials": {
      "value": "a miniature shovel",
      "focus": "",
      "gpValue": 0
    },
    "spellbook": "primary",
    "preparation": {
      "preparedAmount": 0,
      "maxAmount": 0,
      "autoDeductCharges": true,
      "spontaneousPrepared": true,
      "mode": "prepared"
    },
    "atWill": false,
    "sr": false,
    "shortDescription": "<p>In frozen northern lands, where the earth may be hidden beneath heavy drifts of snow, Ulfen druids developed a variation of <i>stone shape</i> that other spellcasters have since learned.</p><p>You can form a mass of snow into any shape that suits your purpose, as per the spell <i>stone shape</i>. While it's possible to make crude objects with <i>snow shape</i>, most fine details aren't possible.</p><p>However, a successful Craft (weapons) check allows you to create a bladed weapon from the snow. The DC of this check is equal to the DC listed with the Craft (weapons) skill (<i>Core Rulebook</i> 93).</p><p>You must be the one to make the Craft check and must do so at the time of casting this spell. A failed check means that the spell is cast normally but the weapon created is malformed and useless. This spell can only be used to craft weapons and not more precise tools or elaborate armors.</p><p>Once you create the item with this spell, it solidifies into super-hard ice, gaining a hardness of 5 and 10 hit points per inch of thickness. This weapon takes double damage from fire.</p><p>Anyone using an ice weapon takes a -2 penalty on attacks due to the slippery, unwieldy nature of the weapon, but the weapon deals 1 point of cold damage in addition to its normal damage. A weapon created by this spell lasts for 24 hours before melting into uselessness.</p>",
    "spellDuration": "instantaneous",
    "spellEffect": "",
    "spellArea": "",
    "showInQuickbar": false,
    "spellPoints": {
      "cost": "1 + @sl"
    },
    "domain": false,
    "slotCost": 1
  },
  "flags": {},
  "img": "systems/pf1/icons/misc/magic-swirl.png",
  "effects": []
}