{
  "_id": "g0q8c0ni0rvipjpn",
  "name": "Solid Fog",
  "permission": {
    "default": 0
  },
  "type": "spell",
  "data": {
    "description": {
      "value": "<div class=\"spell-description\">\n  <p>\n    <strong>School</strong>&nbsp;conjuration&nbsp;(creation);\n    <strong>Level</strong>&nbsp;magus 4, mesmerist 4, shaman 4, sorcerer/wizard 4, spiritualist 4, unchained Summoner 4, witch 4;\n    \n    <strong>Subdomain</strong>&nbsp;Cloud 4;\n    \n    \n  </p>\n  <p>\n    <strong>Casting Time</strong>&nbsp;1 standard action<br>\n    <strong>Components</strong>&nbsp;V, S, M (powdered peas and an animal hoof)<br>\n  </p>\n  <p>\n    <strong>Range</strong>&nbsp;medium (100 ft. + 10 ft./level)<br>\n    \n    \n    <strong>Effect</strong>&nbsp;fog spreads in 20-ft. radius<br>\n    <strong>Duration</strong>&nbsp;1 min./level<br>\n    <strong>Saving Throw</strong>&nbsp;none;&nbsp;<strong>Spell Resistance</strong>&nbsp;no<br>\n  </p>\n  <h2>Description</h2>\n  <p>This spell functions like <i>fog cloud</i>, but in addition to obscuring sight, the <i>solid fog</i> is so thick that it impedes movement.</p><p>Creatures moving through a <i>solid fog</i> move at half their normal speed and take a -2 penalty on all melee attack and melee damage rolls. The vapors prevent effective ranged weapon attacks (except for magic rays and the like). A creature or object that falls into <i>solid fog</i> is slowed so that each 10 feet of vapor that it passes through reduces the falling damage by 1d6. A creature cannot take a 5-foot-step while in <i>solid fog</i>. <i>Solid fog</i>, and effects that work like <i>solid fog</i>, do not stack with each other in terms of slowed movement and attack penalties.</p><p>Unlike normal fog, only a severe wind (31+ mph) disperses these vapors, and it does so in 1 round.</p><p><i>Solid fog</i> can be made permanent with a <i>permanency</i> spell. A permanent <i>solid fog</i> dispersed by wind reforms in 10 minutes.</p>\n</div>\n",
      "chat": "",
      "unidentified": ""
    },
    "tags": [],
    "activation": {
      "cost": 1,
      "type": "standard"
    },
    "unchainedAction": {
      "activation": {
        "cost": 2,
        "type": "action"
      }
    },
    "duration": {
      "value": null,
      "units": ""
    },
    "target": {
      "value": ""
    },
    "range": {
      "value": null,
      "units": "medium",
      "maxIncrements": 1,
      "minValue": null,
      "minUnits": ""
    },
    "uses": {
      "value": 0,
      "max": 0,
      "per": "",
      "autoDeductCharges": true,
      "autoDeductChargesCost": "1"
    },
    "measureTemplate": {
      "type": "",
      "size": "0",
      "overrideColor": false,
      "customColor": "",
      "overrideTexture": false,
      "customTexture": ""
    },
    "attackName": "",
    "actionType": "other",
    "attackBonus": "",
    "critConfirmBonus": "",
    "damage": {
      "parts": [],
      "critParts": [],
      "nonCritParts": []
    },
    "attackParts": [],
    "formula": "",
    "ability": {
      "attack": "",
      "damage": "",
      "damageMult": 1,
      "critRange": 20,
      "critMult": 2
    },
    "save": {
      "dc": "0",
      "type": "",
      "description": ""
    },
    "effectNotes": "",
    "attackNotes": "",
    "soundEffect": "",
    "links": {
      "children": []
    },
    "learnedAt": {
      "class": [
        [
          "sorcerer/wizard",
          4
        ],
        [
          "witch",
          4
        ],
        [
          "magus",
          4
        ],
        [
          "shaman",
          4
        ],
        [
          "mesmerist",
          4
        ],
        [
          "spiritualist",
          4
        ],
        [
          "unchained Summoner",
          4
        ]
      ],
      "domain": [],
      "subDomain": [
        [
          "Cloud",
          4
        ]
      ],
      "elementalSchool": [],
      "bloodline": []
    },
    "level": 4,
    "clOffset": 0,
    "slOffset": 0,
    "school": "con",
    "subschool": "creation",
    "types": "",
    "nonlethal": false,
    "conditionals": [],
    "components": {
      "value": "",
      "verbal": true,
      "somatic": true,
      "material": true,
      "focus": false,
      "divineFocus": 0
    },
    "castTime": "",
    "materials": {
      "value": "powdered peas and an animal hoof",
      "focus": "",
      "gpValue": 0
    },
    "spellbook": "primary",
    "preparation": {
      "preparedAmount": 0,
      "maxAmount": 0,
      "autoDeductCharges": true,
      "spontaneousPrepared": true,
      "mode": "prepared"
    },
    "atWill": false,
    "sr": false,
    "shortDescription": "<p>This spell functions like <i>fog cloud</i>, but in addition to obscuring sight, the <i>solid fog</i> is so thick that it impedes movement.</p><p>Creatures moving through a <i>solid fog</i> move at half their normal speed and take a -2 penalty on all melee attack and melee damage rolls. The vapors prevent effective ranged weapon attacks (except for magic rays and the like). A creature or object that falls into <i>solid fog</i> is slowed so that each 10 feet of vapor that it passes through reduces the falling damage by 1d6. A creature cannot take a 5-foot-step while in <i>solid fog</i>. <i>Solid fog</i>, and effects that work like <i>solid fog</i>, do not stack with each other in terms of slowed movement and attack penalties.</p><p>Unlike normal fog, only a severe wind (31+ mph) disperses these vapors, and it does so in 1 round.</p><p><i>Solid fog</i> can be made permanent with a <i>permanency</i> spell. A permanent <i>solid fog</i> dispersed by wind reforms in 10 minutes.</p>",
    "spellDuration": "1 min./level",
    "spellEffect": "fog spreads in 20-ft. radius",
    "spellArea": "",
    "showInQuickbar": false,
    "spellPoints": {
      "cost": "1 + @sl"
    },
    "domain": false,
    "slotCost": 1
  },
  "flags": {},
  "img": "systems/pf1/icons/misc/magic-swirl.png",
  "effects": []
}