{
  "_id": "kfn6zv75qwgc0cwy",
  "name": "Soul Vault",
  "permission": {
    "default": 0
  },
  "type": "spell",
  "data": {
    "description": {
      "value": "<div class=\"spell-description\">\n  <p>\n    <strong>School</strong>&nbsp;abjuration;\n    <strong>Level</strong>&nbsp;cleric/oracle 3, druid 4, hunter 4, inquisitor 3, psychic 5, shaman 3, sorcerer/wizard 4, spiritualist 2, witch 4;\n    \n    \n    \n    \n  </p>\n  <p>\n    <strong>Casting Time</strong>&nbsp;1 standard action<br>\n    <strong>Components</strong>&nbsp;V, S, DF<br>\n  </p>\n  <p>\n    <strong>Range</strong>&nbsp;touch<br>\n    \n    <strong>Targets</strong>&nbsp;creature touched<br>\n    \n    <strong>Duration</strong>&nbsp;10 minutes/level<br>\n    <strong>Saving Throw</strong>&nbsp;Will negates (harmless);&nbsp;<strong>Spell Resistance</strong>&nbsp;yes<br>\n  </p>\n  <h2>Description</h2>\n  <p>This spell protects the target's soul by briefly enveloping the target in an ethereal vault. The target gains a +4 bonus on saving throws against spells and effects that would trap or redirect its soul (such as <i>magic jar</i>, <i>soul bind</i>, and <i>trap the</i> soul) and effects that would transform the target into an undead creature. The target is granted a save to negate such effects even if one is not normally allowed. If it's cast on a living creature that then dies, the target's body and spirit are protected by the spell for its duration. If it's cast on a corpse within 1 round of death, the target's body and soul are both protected. Otherwise, only the body receives the protection.  Any spellcaster that worships Abadar may learn and cast <i>soul vault</i> as a 4th level spell, if it isn't normally on her class spell list. <i>Soul vault</i> can be made permanent with the <i>permanency</i> spell at a cost of 7,500 gp and a minimum caster level of 11th.</p>\n</div>\n",
      "chat": "",
      "unidentified": ""
    },
    "tags": [],
    "activation": {
      "cost": 1,
      "type": "standard"
    },
    "unchainedAction": {
      "activation": {
        "cost": 2,
        "type": "action"
      }
    },
    "duration": {
      "value": null,
      "units": ""
    },
    "target": {
      "value": "creature touched"
    },
    "range": {
      "value": null,
      "units": "touch",
      "maxIncrements": 1,
      "minValue": null,
      "minUnits": ""
    },
    "uses": {
      "value": 0,
      "max": 0,
      "per": "",
      "autoDeductCharges": true,
      "autoDeductChargesCost": "1"
    },
    "measureTemplate": {
      "type": "",
      "size": "0",
      "overrideColor": false,
      "customColor": "",
      "overrideTexture": false,
      "customTexture": ""
    },
    "attackName": "",
    "actionType": "spellsave",
    "attackBonus": "",
    "critConfirmBonus": "",
    "damage": {
      "parts": [],
      "critParts": [],
      "nonCritParts": []
    },
    "attackParts": [],
    "formula": "",
    "ability": {
      "attack": "",
      "damage": "",
      "damageMult": 1,
      "critRange": 20,
      "critMult": 2
    },
    "save": {
      "dc": "0",
      "type": "will",
      "description": "Will negates (harmless)"
    },
    "effectNotes": "",
    "attackNotes": "",
    "soundEffect": "",
    "links": {
      "children": []
    },
    "learnedAt": {
      "class": [
        [
          "sorcerer/wizard",
          4
        ],
        [
          "cleric/oracle",
          3
        ],
        [
          "druid",
          4
        ],
        [
          "witch",
          4
        ],
        [
          "inquisitor",
          3
        ],
        [
          "shaman",
          3
        ],
        [
          "psychic",
          5
        ],
        [
          "spiritualist",
          2
        ],
        [
          "hunter",
          4
        ]
      ],
      "domain": [],
      "subDomain": [],
      "elementalSchool": [],
      "bloodline": []
    },
    "level": 4,
    "clOffset": 0,
    "slOffset": 0,
    "school": "abj",
    "subschool": "",
    "types": "",
    "nonlethal": false,
    "conditionals": [],
    "components": {
      "value": "",
      "verbal": true,
      "somatic": true,
      "material": false,
      "focus": false,
      "divineFocus": 1
    },
    "castTime": "",
    "materials": {
      "value": "",
      "focus": "",
      "gpValue": 0
    },
    "spellbook": "primary",
    "preparation": {
      "preparedAmount": 0,
      "maxAmount": 0,
      "autoDeductCharges": true,
      "spontaneousPrepared": true,
      "mode": "prepared"
    },
    "atWill": false,
    "sr": true,
    "shortDescription": "<p>This spell protects the target's soul by briefly enveloping the target in an ethereal vault. The target gains a +4 bonus on saving throws against spells and effects that would trap or redirect its soul (such as <i>magic jar</i>, <i>soul bind</i>, and <i>trap the</i> soul) and effects that would transform the target into an undead creature. The target is granted a save to negate such effects even if one is not normally allowed. If it's cast on a living creature that then dies, the target's body and spirit are protected by the spell for its duration. If it's cast on a corpse within 1 round of death, the target's body and soul are both protected. Otherwise, only the body receives the protection.  Any spellcaster that worships Abadar may learn and cast <i>soul vault</i> as a 4th level spell, if it isn't normally on her class spell list. <i>Soul vault</i> can be made permanent with the <i>permanency</i> spell at a cost of 7,500 gp and a minimum caster level of 11th.</p>",
    "spellDuration": "10 minutes/level",
    "spellEffect": "",
    "spellArea": "",
    "showInQuickbar": false,
    "spellPoints": {
      "cost": "1 + @sl"
    },
    "domain": false,
    "slotCost": 1
  },
  "flags": {},
  "img": "systems/pf1/icons/misc/magic-swirl.png",
  "effects": []
}