{
  "_id": "eg2gwmkpoaqljkzu",
  "name": "Spark",
  "permission": {
    "default": 0
  },
  "type": "spell",
  "data": {
    "description": {
      "value": "<div class=\"spell-description\">\n  <p>\n    <strong>School</strong>&nbsp;evocation&nbsp;[fire];\n    <strong>Level</strong>&nbsp;bard 0, cleric/oracle 0, druid 0, hunter 0, magus 0, occultist 0, sorcerer/wizard 0, witch 0;\n    \n    \n    \n    \n  </p>\n  <p>\n    <strong>Casting Time</strong>&nbsp;1 standard action<br>\n    <strong>Components</strong>&nbsp;V or S<br>\n  </p>\n  <p>\n    <strong>Range</strong>&nbsp;close (25 ft. + 5 ft./2 levels)<br>\n    \n    <strong>Targets</strong>&nbsp;one Fine object<br>\n    \n    <strong>Duration</strong>&nbsp;instantaneous<br>\n    <strong>Saving Throw</strong>&nbsp;Fortitude negates (object);&nbsp;<strong>Spell Resistance</strong>&nbsp;yes<br>\n  </p>\n  <h2>Description</h2>\n  <p>You can make an unattended Fine flammable object catch on fire. This works as if you were using flint and steel except that you can use <i>spark</i> in any sort of weather and it takes much less time to actually ignite an object.</p>\n</div>\n",
      "chat": "",
      "unidentified": ""
    },
    "tags": [],
    "activation": {
      "cost": 1,
      "type": "standard"
    },
    "unchainedAction": {
      "activation": {
        "cost": 2,
        "type": "action"
      }
    },
    "duration": {
      "value": null,
      "units": ""
    },
    "target": {
      "value": "one Fine object"
    },
    "range": {
      "value": null,
      "units": "close",
      "maxIncrements": 1,
      "minValue": null,
      "minUnits": ""
    },
    "uses": {
      "value": 0,
      "max": 0,
      "per": "",
      "autoDeductCharges": true,
      "autoDeductChargesCost": "1"
    },
    "measureTemplate": {
      "type": "",
      "size": "0",
      "overrideColor": false,
      "customColor": "",
      "overrideTexture": false,
      "customTexture": ""
    },
    "attackName": "",
    "actionType": "spellsave",
    "attackBonus": "",
    "critConfirmBonus": "",
    "damage": {
      "parts": [],
      "critParts": [],
      "nonCritParts": []
    },
    "attackParts": [],
    "formula": "",
    "ability": {
      "attack": "",
      "damage": "",
      "damageMult": 1,
      "critRange": 20,
      "critMult": 2
    },
    "save": {
      "dc": "0",
      "type": "fort",
      "description": "Fortitude negates (object)"
    },
    "effectNotes": "",
    "attackNotes": "",
    "soundEffect": "",
    "links": {
      "children": []
    },
    "learnedAt": {
      "class": [
        [
          "sorcerer/wizard",
          0
        ],
        [
          "cleric/oracle",
          0
        ],
        [
          "druid",
          0
        ],
        [
          "bard",
          0
        ],
        [
          "witch",
          0
        ],
        [
          "magus",
          0
        ],
        [
          "occultist",
          0
        ],
        [
          "hunter",
          0
        ]
      ],
      "domain": [],
      "subDomain": [],
      "elementalSchool": [],
      "bloodline": []
    },
    "level": 0,
    "clOffset": 0,
    "slOffset": 0,
    "school": "evo",
    "subschool": "",
    "types": "fire",
    "nonlethal": false,
    "conditionals": [],
    "components": {
      "value": "V or S",
      "verbal": false,
      "somatic": false,
      "material": false,
      "focus": false,
      "divineFocus": 0
    },
    "castTime": "",
    "materials": {
      "value": "",
      "focus": "",
      "gpValue": 0
    },
    "spellbook": "primary",
    "preparation": {
      "preparedAmount": 0,
      "maxAmount": 0,
      "autoDeductCharges": false,
      "spontaneousPrepared": true,
      "mode": "prepared"
    },
    "atWill": false,
    "sr": true,
    "shortDescription": "<p>You can make an unattended Fine flammable object catch on fire. This works as if you were using flint and steel except that you can use <i>spark</i> in any sort of weather and it takes much less time to actually ignite an object.</p>",
    "spellDuration": "instantaneous",
    "spellEffect": "",
    "spellArea": "",
    "showInQuickbar": false,
    "spellPoints": {
      "cost": "1 + @sl"
    },
    "domain": false,
    "slotCost": 1
  },
  "flags": {},
  "img": "systems/pf1/icons/misc/magic-swirl.png",
  "effects": []
}