{
  "_id": "btbj09zllnb14kyx",
  "name": "Spellcasting Contract, Lesser",
  "permission": {
    "default": 0
  },
  "type": "spell",
  "data": {
    "description": {
      "value": "<div class=\"spell-description\">\n  <p>\n    <strong>School</strong>&nbsp;evocation;\n    <strong>Level</strong>&nbsp;cleric/oracle 5;\n    \n    \n    \n    \n  </p>\n  <p>\n    <strong>Casting Time</strong>&nbsp;10 minutes<br>\n    <strong>Components</strong>&nbsp;V, S, F (a written contract)<br>\n  </p>\n  <p>\n    <strong>Range</strong>&nbsp;touch<br>\n    \n    <strong>Targets</strong>&nbsp;willing creature touched<br>\n    \n    <strong>Duration</strong>&nbsp;permanent until contractually terminated<br>\n    <strong>Saving Throw</strong>&nbsp;Will negates (harmless);&nbsp;<strong>Spell Resistance</strong>&nbsp;yes<br>\n  </p>\n  <h2>Description</h2>\n  <p>This spell functions exactly like <i>imbue with spell ability</i>, except that you can imbue the target with any spell you have prepared (instead of just abjuration, divination, or conjuration [healing] spells) and the target may have more than one use of the imbued spells, depending upon the arrangements made when it is cast.</p><p>Casting this spell requires a contract between you and the target, explaining what spells are to be imbued and the circumstances that cause the contract to expire. The contract may be as simple as allowing the target one casting of each of the imbued spells (as per <i>imbue with spell ability</i>), or may continue for multiple days or even indefinitely, with the target regaining use of the imbued spells when you next prepare your own spells. You may include any proviso you see fit, such as requiring the target to pray to Asmodeus each morning, or restricting the target to only casting the imbued spells on himself. If the target does not agree to all the conditions in the contract, this spell fails when cast. The contract (and this spell) automatically expires if you or the target dies. While the contract remains in effect, you gain a profane bonus to your Armor Class, saving throws, and checks equal to the highestlevel spell you have imbued.</p><p>Once you cast this spell, you cannot prepare a new 5th-level spell to replace it until the contract expires. If the number of 5th-level spells you can cast decreases, and that number drops below your current number of active <i>lesser spellcasting contract</i> spells, the more recently cast imbued spells are dispelled.</p><p>Unlike <i>imbue with spell ability</i>, how the target uses the spell has no reflection on your alignment or relationship with Asmodeus; the Prince of Darkness accepts that allowing another access to his magic for good may benefit his plans in the long run. Note that unlike <i>imbue with spell ability</i>, you cannot dismiss this spell; you must abide by the contract's termination clause (though the contract may include a proviso for at-will nullification by either or both parties). This spell cannot be combined with <i>imbue with spell ability</i> or similar spells to give a target more spells than the limit.</p><p><i>Example:</i> You cast this spell on your 5 HD fighter cohort after negotiating an appropriate contract, imbuing him with the ability to cast cure moderate wounds, magic weapon, and <i>Shield of Faith</i> once per day for 1 month. If he casts any of these spells, he recovers them when you prepare your spells. Until the contract ends, your 5th-level spell slot used to cast this spell remains expended and cannot be filled with a new spell. Because you imbued your cohort with a 2nd-level spell, you gain a +2 profane bonus to attacks, saves, and checks while the contract remains in effect.</p>\n</div>\n",
      "chat": "",
      "unidentified": ""
    },
    "tags": [],
    "activation": {
      "cost": 10,
      "type": "minute"
    },
    "unchainedAction": {
      "activation": {
        "cost": 10,
        "type": "minute"
      }
    },
    "duration": {
      "value": null,
      "units": ""
    },
    "target": {
      "value": "willing creature touched"
    },
    "range": {
      "value": null,
      "units": "touch",
      "maxIncrements": 1,
      "minValue": null,
      "minUnits": ""
    },
    "uses": {
      "value": 0,
      "max": 0,
      "per": "",
      "autoDeductCharges": true,
      "autoDeductChargesCost": "1"
    },
    "measureTemplate": {
      "type": "",
      "size": "0",
      "overrideColor": false,
      "customColor": "",
      "overrideTexture": false,
      "customTexture": ""
    },
    "attackName": "",
    "actionType": "spellsave",
    "attackBonus": "",
    "critConfirmBonus": "",
    "damage": {
      "parts": [],
      "critParts": [],
      "nonCritParts": []
    },
    "attackParts": [],
    "formula": "",
    "ability": {
      "attack": "",
      "damage": "",
      "damageMult": 1,
      "critRange": 20,
      "critMult": 2
    },
    "save": {
      "dc": "0",
      "type": "will",
      "description": "Will negates (harmless)"
    },
    "effectNotes": "",
    "attackNotes": "",
    "soundEffect": "",
    "links": {
      "children": []
    },
    "learnedAt": {
      "class": [
        [
          "cleric/oracle",
          5
        ]
      ],
      "domain": [],
      "subDomain": [],
      "elementalSchool": [],
      "bloodline": []
    },
    "level": 5,
    "clOffset": 0,
    "slOffset": 0,
    "school": "evo",
    "subschool": "",
    "types": "",
    "nonlethal": false,
    "conditionals": [],
    "components": {
      "value": "",
      "verbal": true,
      "somatic": true,
      "material": false,
      "focus": true,
      "divineFocus": 0
    },
    "castTime": "",
    "materials": {
      "value": "",
      "focus": "a written contract",
      "gpValue": 0
    },
    "spellbook": "primary",
    "preparation": {
      "preparedAmount": 0,
      "maxAmount": 0,
      "autoDeductCharges": true,
      "spontaneousPrepared": true,
      "mode": "prepared"
    },
    "atWill": false,
    "sr": true,
    "shortDescription": "<p>This spell functions exactly like <i>imbue with spell ability</i>, except that you can imbue the target with any spell you have prepared (instead of just abjuration, divination, or conjuration [healing] spells) and the target may have more than one use of the imbued spells, depending upon the arrangements made when it is cast.</p><p>Casting this spell requires a contract between you and the target, explaining what spells are to be imbued and the circumstances that cause the contract to expire. The contract may be as simple as allowing the target one casting of each of the imbued spells (as per <i>imbue with spell ability</i>), or may continue for multiple days or even indefinitely, with the target regaining use of the imbued spells when you next prepare your own spells. You may include any proviso you see fit, such as requiring the target to pray to Asmodeus each morning, or restricting the target to only casting the imbued spells on himself. If the target does not agree to all the conditions in the contract, this spell fails when cast. The contract (and this spell) automatically expires if you or the target dies. While the contract remains in effect, you gain a profane bonus to your Armor Class, saving throws, and checks equal to the highestlevel spell you have imbued.</p><p>Once you cast this spell, you cannot prepare a new 5th-level spell to replace it until the contract expires. If the number of 5th-level spells you can cast decreases, and that number drops below your current number of active <i>lesser spellcasting contract</i> spells, the more recently cast imbued spells are dispelled.</p><p>Unlike <i>imbue with spell ability</i>, how the target uses the spell has no reflection on your alignment or relationship with Asmodeus; the Prince of Darkness accepts that allowing another access to his magic for good may benefit his plans in the long run. Note that unlike <i>imbue with spell ability</i>, you cannot dismiss this spell; you must abide by the contract's termination clause (though the contract may include a proviso for at-will nullification by either or both parties). This spell cannot be combined with <i>imbue with spell ability</i> or similar spells to give a target more spells than the limit.</p><p><i>Example:</i> You cast this spell on your 5 HD fighter cohort after negotiating an appropriate contract, imbuing him with the ability to cast cure moderate wounds, magic weapon, and <i>Shield of Faith</i> once per day for 1 month. If he casts any of these spells, he recovers them when you prepare your spells. Until the contract ends, your 5th-level spell slot used to cast this spell remains expended and cannot be filled with a new spell. Because you imbued your cohort with a 2nd-level spell, you gain a +2 profane bonus to attacks, saves, and checks while the contract remains in effect.</p>",
    "spellDuration": "permanent until contractually terminated",
    "spellEffect": "",
    "spellArea": "",
    "showInQuickbar": false,
    "spellPoints": {
      "cost": "1 + @sl"
    },
    "domain": false,
    "slotCost": 1
  },
  "flags": {},
  "img": "systems/pf1/icons/misc/magic-swirl.png",
  "effects": []
}