{
  "_id": "bi3mdvhu35be806x",
  "name": "Sphere of Warding",
  "permission": {
    "default": 0
  },
  "type": "spell",
  "data": {
    "description": {
      "value": "<div class=\"spell-description\">\n  <p>\n    <strong>School</strong>&nbsp;abjuration;\n    <strong>Level</strong>&nbsp;cleric/oracle 5, inquisitor 4, witch 5;\n    \n    \n    \n    \n  </p>\n  <p>\n    <strong>Casting Time</strong>&nbsp;1 standard action<br>\n    <strong>Components</strong>&nbsp;V, S, DF<br>\n  </p>\n  <p>\n    <strong>Range</strong>&nbsp;touch<br>\n    \n    \n    <strong>Effect</strong>&nbsp;10-ft.-radius sphere emanating from point touched<br>\n    <strong>Duration</strong>&nbsp;1 hour/level<br>\n    <strong>Saving Throw</strong>&nbsp;Will negates (see text);&nbsp;<strong>Spell Resistance</strong>&nbsp;yes<br>\n  </p>\n  <h2>Description</h2>\n  <p>You create a luminescent sphere of orbiting energy that harms incorporeal creatures and dispossesses them of any stolen bodies. An incorporeal creature must succeed at a Will save to enter a space overlapping with the sphere; failure means the creature cannot pass through the sphere, as though it were a <i>Wall of Force</i>. If the incorporeal creature succeeds, it may pass through the sphere at will, though if it ends its turn within the sphere, it takes a number of points of force damage equal to 1d6 + 1 per caster level (maximum +10).</p><p>If a creature possessing another creature's body (via either <i>magic jar</i> or a similar effect) enters a <i>Sphere of Warding</i>, that creature is immediately ejected from its host body, the host's spirit returns to its body if it's able, and the possession immediately ends. When ejected, the body enters the sphere, while the possessing creature takes the appropriate amount of force damage (no save) and is shunted to the exterior of the sphere.</p>\n</div>\n",
      "chat": "",
      "unidentified": ""
    },
    "tags": [],
    "activation": {
      "cost": 1,
      "type": "standard"
    },
    "unchainedAction": {
      "activation": {
        "cost": 2,
        "type": "action"
      }
    },
    "duration": {
      "value": null,
      "units": ""
    },
    "target": {
      "value": ""
    },
    "range": {
      "value": null,
      "units": "touch",
      "maxIncrements": 1,
      "minValue": null,
      "minUnits": ""
    },
    "uses": {
      "value": 0,
      "max": 0,
      "per": "",
      "autoDeductCharges": true,
      "autoDeductChargesCost": "1"
    },
    "measureTemplate": {
      "type": "",
      "size": "0",
      "overrideColor": false,
      "customColor": "",
      "overrideTexture": false,
      "customTexture": ""
    },
    "attackName": "",
    "actionType": "spellsave",
    "attackBonus": "",
    "critConfirmBonus": "",
    "damage": {
      "parts": [],
      "critParts": [],
      "nonCritParts": []
    },
    "attackParts": [],
    "formula": "",
    "ability": {
      "attack": "",
      "damage": "",
      "damageMult": 1,
      "critRange": 20,
      "critMult": 2
    },
    "save": {
      "dc": "0",
      "type": "will",
      "description": "Will negates (see text)"
    },
    "effectNotes": "",
    "attackNotes": "",
    "soundEffect": "",
    "links": {
      "children": []
    },
    "learnedAt": {
      "class": [
        [
          "cleric/oracle",
          5
        ],
        [
          "witch",
          5
        ],
        [
          "inquisitor",
          4
        ]
      ],
      "domain": [],
      "subDomain": [],
      "elementalSchool": [],
      "bloodline": []
    },
    "level": 5,
    "clOffset": 0,
    "slOffset": 0,
    "school": "abj",
    "subschool": "",
    "types": "",
    "nonlethal": false,
    "conditionals": [],
    "components": {
      "value": "",
      "verbal": true,
      "somatic": true,
      "material": false,
      "focus": false,
      "divineFocus": 1
    },
    "castTime": "",
    "materials": {
      "value": "",
      "focus": "",
      "gpValue": 0
    },
    "spellbook": "primary",
    "preparation": {
      "preparedAmount": 0,
      "maxAmount": 0,
      "autoDeductCharges": true,
      "spontaneousPrepared": true,
      "mode": "prepared"
    },
    "atWill": false,
    "sr": true,
    "shortDescription": "<p>You create a luminescent sphere of orbiting energy that harms incorporeal creatures and dispossesses them of any stolen bodies. An incorporeal creature must succeed at a Will save to enter a space overlapping with the sphere; failure means the creature cannot pass through the sphere, as though it were a <i>Wall of Force</i>. If the incorporeal creature succeeds, it may pass through the sphere at will, though if it ends its turn within the sphere, it takes a number of points of force damage equal to 1d6 + 1 per caster level (maximum +10).</p><p>If a creature possessing another creature's body (via either <i>magic jar</i> or a similar effect) enters a <i>Sphere of Warding</i>, that creature is immediately ejected from its host body, the host's spirit returns to its body if it's able, and the possession immediately ends. When ejected, the body enters the sphere, while the possessing creature takes the appropriate amount of force damage (no save) and is shunted to the exterior of the sphere.</p>",
    "spellDuration": "1 hour/level",
    "spellEffect": "10-ft.-radius sphere emanating from point touched",
    "spellArea": "",
    "showInQuickbar": false,
    "spellPoints": {
      "cost": "1 + @sl"
    },
    "domain": false,
    "slotCost": 1
  },
  "flags": {},
  "img": "systems/pf1/icons/misc/magic-swirl.png",
  "effects": []
}