{
  "_id": "c99w6rm28rpz14xu",
  "name": "Spirit-Bound Blade",
  "permission": {
    "default": 0
  },
  "type": "spell",
  "data": {
    "description": {
      "value": "<div class=\"spell-description\">\n  <p>\n    <strong>School</strong>&nbsp;evocation;\n    <strong>Level</strong>&nbsp;medium 4, occultist 4, shaman 4, spiritualist 3;\n    \n    \n    \n    <strong>Bloodline</strong>&nbsp;Ectoplasm 4;\n  </p>\n  <p>\n    <strong>Casting Time</strong>&nbsp;1 standard action<br>\n    <strong>Components</strong>&nbsp;S<br>\n  </p>\n  <p>\n    <strong>Range</strong>&nbsp;touch<br>\n    \n    <strong>Targets</strong>&nbsp;weapon touched<br>\n    \n    <strong>Duration</strong>&nbsp;1 minute/level<br>\n    <strong>Saving Throw</strong>&nbsp;Will negates (harmless, object);&nbsp;<strong>Spell Resistance</strong>&nbsp;no<br>\n  </p>\n  <h2>Description</h2>\n  <p>You focus emotional energy and weave it into a shroud of hardened ectoplasm around the weapon you touch, infusing it with a ghostly glow and great power. The weapon becomes a <i>ghost touch</i> weapon, and gains one of the following additional benefits, depending on the type of emotion you  infuse into the weapon. If a special ability wouldn't apply to the chosen weapon (such as <i>vicious</i> on a ranged weapon), the weapon doesn't gain that benefit.  <b>Anger</b>: The weapon also gains the <i>vicious</i> special ability.  <b>Dedication</b>: The weapon also gains the <i>returning</i> special ability.  <b>Despair</b>: The weapon also gains the cruelUE special ability.  <b>Fear</b>: The weapon also gains the menacingUE special ability.  <b>Hatred</b>: The weapon also gains the cunningUE special ability.  <b>Jealousy</b>: The weapon also gains the mimeticUE special ability.  <b>Zeal</b>: The weapon also gains the <i>keen</i> special ability.  If you are a spiritualist and the type of emotional energy you choose matches the emotional focus of your phantom, the weapon grants its wielder a +2 bonus on skill checks with both skills you gain Skill Focus in from your phantom's emotional focus.</p>\n</div>\n",
      "chat": "",
      "unidentified": ""
    },
    "tags": [],
    "activation": {
      "cost": 1,
      "type": "standard"
    },
    "unchainedAction": {
      "activation": {
        "cost": 2,
        "type": "action"
      }
    },
    "duration": {
      "value": null,
      "units": ""
    },
    "target": {
      "value": "weapon touched"
    },
    "range": {
      "value": null,
      "units": "touch",
      "maxIncrements": 1,
      "minValue": null,
      "minUnits": ""
    },
    "uses": {
      "value": 0,
      "max": 0,
      "per": "",
      "autoDeductCharges": true,
      "autoDeductChargesCost": "1"
    },
    "measureTemplate": {
      "type": "",
      "size": "0",
      "overrideColor": false,
      "customColor": "",
      "overrideTexture": false,
      "customTexture": ""
    },
    "attackName": "",
    "actionType": "spellsave",
    "attackBonus": "",
    "critConfirmBonus": "",
    "damage": {
      "parts": [],
      "critParts": [],
      "nonCritParts": []
    },
    "attackParts": [],
    "formula": "",
    "ability": {
      "attack": "",
      "damage": "",
      "damageMult": 1,
      "critRange": 20,
      "critMult": 2
    },
    "save": {
      "dc": "0",
      "type": "will",
      "description": "Will negates (harmless, object)"
    },
    "effectNotes": "",
    "attackNotes": "",
    "soundEffect": "",
    "links": {
      "children": []
    },
    "learnedAt": {
      "class": [
        [
          "shaman",
          4
        ],
        [
          "medium",
          4
        ],
        [
          "occultist",
          4
        ],
        [
          "spiritualist",
          3
        ]
      ],
      "domain": [],
      "subDomain": [],
      "elementalSchool": [],
      "bloodline": [
        [
          "Ectoplasm",
          4
        ]
      ]
    },
    "level": 4,
    "clOffset": 0,
    "slOffset": 0,
    "school": "evo",
    "subschool": "",
    "types": "",
    "nonlethal": false,
    "conditionals": [],
    "components": {
      "value": "",
      "verbal": false,
      "somatic": true,
      "material": false,
      "focus": false,
      "divineFocus": 0
    },
    "castTime": "",
    "materials": {
      "value": "",
      "focus": "",
      "gpValue": 0
    },
    "spellbook": "primary",
    "preparation": {
      "preparedAmount": 0,
      "maxAmount": 0,
      "autoDeductCharges": true,
      "spontaneousPrepared": true,
      "mode": "prepared"
    },
    "atWill": false,
    "sr": false,
    "shortDescription": "<p>You focus emotional energy and weave it into a shroud of hardened ectoplasm around the weapon you touch, infusing it with a ghostly glow and great power. The weapon becomes a <i>ghost touch</i> weapon, and gains one of the following additional benefits, depending on the type of emotion you  infuse into the weapon. If a special ability wouldn't apply to the chosen weapon (such as <i>vicious</i> on a ranged weapon), the weapon doesn't gain that benefit.  <b>Anger</b>: The weapon also gains the <i>vicious</i> special ability.  <b>Dedication</b>: The weapon also gains the <i>returning</i> special ability.  <b>Despair</b>: The weapon also gains the cruelUE special ability.  <b>Fear</b>: The weapon also gains the menacingUE special ability.  <b>Hatred</b>: The weapon also gains the cunningUE special ability.  <b>Jealousy</b>: The weapon also gains the mimeticUE special ability.  <b>Zeal</b>: The weapon also gains the <i>keen</i> special ability.  If you are a spiritualist and the type of emotional energy you choose matches the emotional focus of your phantom, the weapon grants its wielder a +2 bonus on skill checks with both skills you gain Skill Focus in from your phantom's emotional focus.</p>",
    "spellDuration": "1 minute/level",
    "spellEffect": "",
    "spellArea": "",
    "showInQuickbar": false,
    "spellPoints": {
      "cost": "1 + @sl"
    },
    "domain": false,
    "slotCost": 1
  },
  "flags": {},
  "img": "systems/pf1/icons/misc/magic-swirl.png",
  "effects": []
}