{
  "_id": "53ie187gupbkvy4w",
  "name": "Summon Totem Creature",
  "permission": {
    "default": 0
  },
  "type": "spell",
  "data": {
    "description": {
      "value": "<div class=\"spell-description\">\n  <p>\n    <strong>School</strong>&nbsp;conjuration&nbsp;(summoning);\n    <strong>Level</strong>&nbsp;cleric/oracle 3, druid 3, hunter 3, ranger 3, sorcerer/wizard 3, summoner 3, unchained Summoner 3;\n    \n    \n    \n    \n  </p>\n  <p>\n    <strong>Casting Time</strong>&nbsp;10 minutes<br>\n    <strong>Components</strong>&nbsp;V, S, M/DF (a piece of bone from any one of your totem animals)<br>\n  </p>\n  <p>\n    <strong>Range</strong>&nbsp;close (25 ft. + 5 ft./2 levels)<br>\n    \n    \n    <strong>Effect</strong>&nbsp;one summoned creature<br>\n    <strong>Duration</strong>&nbsp;1 hour (D)<br>\n    <strong>Saving Throw</strong>&nbsp;none;&nbsp;<strong>Spell Resistance</strong>&nbsp;no<br>\n  </p>\n  <h2>Description</h2>\n  <p>The Shoanti revere more than the deities of distant planes, but also the animals and natural forces of the rugged lands they call home. Shoanti spellcasters have learned ways to call upon the might of their quahs' totem creatures in times of need. A character must have been raised by the Shoanti and be considered part of a quah to be able to cast this spell. Characters with access to this spell can only summon creatures revered by the quah they are a part of, as noted on the following lists. Except as noted above, this spell functions as summon nature's ally III.</p><p><b>Lyrune-Quah (Moon Clan</b>): air elemental (small), 1d3 bats, wolf, 1d3 owls.</p><p><b>Shadde-Quah (Axe Clan</b>): 1d3 eagles, earth elemental (small), water elemental (small).</p><p><b>Shriikirri-Quah (Hawk Clan</b>): air elemental (small), 1d3+1 hawks (familiars), horse.</p><p><b>Shundar-Quah (Spire Clan</b>): air elemental (small), earth elemental (small), 1d3 eagles.</p><p><b>Sklar-Quah (Sun Clan</b>): 1d3 fire beetles, fire elemental (small), horse.</p><p><b>Skoan-Quah (Skull Clan</b>): 1d3+1 eagles (vultures), 1d3 fire beetles, 1d3 giant centipedes.</p><p><b>Tamiir-Quah (Wind Clan</b>): air elemental (small), 1d3 eagles, earth elemental (small).</p>\n</div>\n",
      "chat": "",
      "unidentified": ""
    },
    "tags": [],
    "activation": {
      "cost": 10,
      "type": "minute"
    },
    "unchainedAction": {
      "activation": {
        "cost": 10,
        "type": "minute"
      }
    },
    "duration": {
      "value": null,
      "units": ""
    },
    "target": {
      "value": ""
    },
    "range": {
      "value": null,
      "units": "close",
      "maxIncrements": 1,
      "minValue": null,
      "minUnits": ""
    },
    "uses": {
      "value": 0,
      "max": 0,
      "per": "",
      "autoDeductCharges": true,
      "autoDeductChargesCost": "1"
    },
    "measureTemplate": {
      "type": "",
      "size": "0",
      "overrideColor": false,
      "customColor": "",
      "overrideTexture": false,
      "customTexture": ""
    },
    "attackName": "",
    "actionType": "other",
    "attackBonus": "",
    "critConfirmBonus": "",
    "damage": {
      "parts": [],
      "critParts": [],
      "nonCritParts": []
    },
    "attackParts": [],
    "formula": "",
    "ability": {
      "attack": "",
      "damage": "",
      "damageMult": 1,
      "critRange": 20,
      "critMult": 2
    },
    "save": {
      "dc": "0",
      "type": "",
      "description": ""
    },
    "effectNotes": "",
    "attackNotes": "",
    "soundEffect": "",
    "links": {
      "children": []
    },
    "learnedAt": {
      "class": [
        [
          "sorcerer/wizard",
          3
        ],
        [
          "cleric/oracle",
          3
        ],
        [
          "druid",
          3
        ],
        [
          "ranger",
          3
        ],
        [
          "summoner",
          3
        ],
        [
          "hunter",
          3
        ],
        [
          "unchained Summoner",
          3
        ]
      ],
      "domain": [],
      "subDomain": [],
      "elementalSchool": [],
      "bloodline": []
    },
    "level": 3,
    "clOffset": 0,
    "slOffset": 0,
    "school": "con",
    "subschool": "summoning",
    "types": "",
    "nonlethal": false,
    "conditionals": [],
    "components": {
      "value": "",
      "verbal": true,
      "somatic": true,
      "material": true,
      "focus": false,
      "divineFocus": 2
    },
    "castTime": "",
    "materials": {
      "value": "a piece of bone from any one of your totem animals",
      "focus": "",
      "gpValue": 0
    },
    "spellbook": "primary",
    "preparation": {
      "preparedAmount": 0,
      "maxAmount": 0,
      "autoDeductCharges": true,
      "spontaneousPrepared": true,
      "mode": "prepared"
    },
    "atWill": false,
    "sr": false,
    "shortDescription": "<p>The Shoanti revere more than the deities of distant planes, but also the animals and natural forces of the rugged lands they call home. Shoanti spellcasters have learned ways to call upon the might of their quahs' totem creatures in times of need. A character must have been raised by the Shoanti and be considered part of a quah to be able to cast this spell. Characters with access to this spell can only summon creatures revered by the quah they are a part of, as noted on the following lists. Except as noted above, this spell functions as summon nature's ally III.</p><p><b>Lyrune-Quah (Moon Clan</b>): air elemental (small), 1d3 bats, wolf, 1d3 owls.</p><p><b>Shadde-Quah (Axe Clan</b>): 1d3 eagles, earth elemental (small), water elemental (small).</p><p><b>Shriikirri-Quah (Hawk Clan</b>): air elemental (small), 1d3+1 hawks (familiars), horse.</p><p><b>Shundar-Quah (Spire Clan</b>): air elemental (small), earth elemental (small), 1d3 eagles.</p><p><b>Sklar-Quah (Sun Clan</b>): 1d3 fire beetles, fire elemental (small), horse.</p><p><b>Skoan-Quah (Skull Clan</b>): 1d3+1 eagles (vultures), 1d3 fire beetles, 1d3 giant centipedes.</p><p><b>Tamiir-Quah (Wind Clan</b>): air elemental (small), 1d3 eagles, earth elemental (small).</p>",
    "spellDuration": "1 hour (D)",
    "spellEffect": "one summoned creature",
    "spellArea": "",
    "showInQuickbar": false,
    "spellPoints": {
      "cost": "1 + @sl"
    },
    "domain": false,
    "slotCost": 1
  },
  "flags": {},
  "img": "systems/pf1/icons/misc/magic-swirl.png",
  "effects": []
}