{
  "_id": "sh0sci8zflhtmaqx",
  "name": "Talismanic Implement",
  "permission": {
    "default": 0
  },
  "type": "spell",
  "data": {
    "description": {
      "value": "<div class=\"spell-description\">\n  <p>\n    <strong>School</strong>&nbsp;evocation;\n    <strong>Level</strong>&nbsp;occultist 3;\n    \n    \n    \n    \n  </p>\n  <p>\n    <strong>Casting Time</strong>&nbsp;10 minutes<br>\n    <strong>Components</strong>&nbsp;V<br>\n  </p>\n  <p>\n    <strong>Range</strong>&nbsp;personal<br>\n    \n    <strong>Targets</strong>&nbsp;you<br>\n    \n    <strong>Duration</strong>&nbsp;1 hour/level (D) or until discharged<br>\n    \n  </p>\n  <h2>Description</h2>\n  <p>This spell functions as <i>contingency</i>, but you invest a spell whose level doesn't exceed one-quarter of your level (rounded down, maximum spell level 3rd) into one of your implements that holds 2 or more points of mental focus. The spell's school must match that of the implement, and the spell must be one that affects only your person. Casting <i>talismanic implement</i> reduces the selected implement's mental focus by 2, including for the purposes of determining the effects of resonant powers. When you refresh your mental focus, <i>talismanic implement</i> ends automatically, even if the duration hasn't elapsed. Unlike <i>contingency</i>, you may have multiple <i>talismanic implement</i>s simultaneously, though a single implement can hold only one <i>talismanic implement</i> spell, and if you have any <i>talismanic implement</i>s, you can't have any other kind of <i>contingency</i> in effect.</p>\n</div>\n",
      "chat": "",
      "unidentified": ""
    },
    "tags": [],
    "activation": {
      "cost": 10,
      "type": "minute"
    },
    "unchainedAction": {
      "activation": {
        "cost": 10,
        "type": "minute"
      }
    },
    "duration": {
      "value": null,
      "units": ""
    },
    "target": {
      "value": "you"
    },
    "range": {
      "value": null,
      "units": "personal",
      "maxIncrements": 1,
      "minValue": null,
      "minUnits": ""
    },
    "uses": {
      "value": 0,
      "max": 0,
      "per": "",
      "autoDeductCharges": true,
      "autoDeductChargesCost": "1"
    },
    "measureTemplate": {
      "type": "",
      "size": "0",
      "overrideColor": false,
      "customColor": "",
      "overrideTexture": false,
      "customTexture": ""
    },
    "attackName": "",
    "actionType": "",
    "attackBonus": "",
    "critConfirmBonus": "",
    "damage": {
      "parts": [],
      "critParts": [],
      "nonCritParts": []
    },
    "attackParts": [],
    "formula": "",
    "ability": {
      "attack": "",
      "damage": "",
      "damageMult": 1,
      "critRange": 20,
      "critMult": 2
    },
    "save": {
      "dc": "0",
      "type": "",
      "description": ""
    },
    "effectNotes": "",
    "attackNotes": "",
    "soundEffect": "",
    "links": {
      "children": []
    },
    "learnedAt": {
      "class": [
        [
          "occultist",
          3
        ]
      ],
      "domain": [],
      "subDomain": [],
      "elementalSchool": [],
      "bloodline": []
    },
    "level": 3,
    "clOffset": 0,
    "slOffset": 0,
    "school": "evo",
    "subschool": "",
    "types": "",
    "nonlethal": false,
    "conditionals": [],
    "components": {
      "value": "",
      "verbal": true,
      "somatic": false,
      "material": false,
      "focus": false,
      "divineFocus": 0
    },
    "castTime": "",
    "materials": {
      "value": "",
      "focus": "",
      "gpValue": 0
    },
    "spellbook": "primary",
    "preparation": {
      "preparedAmount": 0,
      "maxAmount": 0,
      "autoDeductCharges": true,
      "spontaneousPrepared": true,
      "mode": "prepared"
    },
    "atWill": false,
    "sr": false,
    "shortDescription": "<p>This spell functions as <i>contingency</i>, but you invest a spell whose level doesn't exceed one-quarter of your level (rounded down, maximum spell level 3rd) into one of your implements that holds 2 or more points of mental focus. The spell's school must match that of the implement, and the spell must be one that affects only your person. Casting <i>talismanic implement</i> reduces the selected implement's mental focus by 2, including for the purposes of determining the effects of resonant powers. When you refresh your mental focus, <i>talismanic implement</i> ends automatically, even if the duration hasn't elapsed. Unlike <i>contingency</i>, you may have multiple <i>talismanic implement</i>s simultaneously, though a single implement can hold only one <i>talismanic implement</i> spell, and if you have any <i>talismanic implement</i>s, you can't have any other kind of <i>contingency</i> in effect.</p>",
    "spellDuration": "1 hour/level (D) or until discharged",
    "spellEffect": "",
    "spellArea": "",
    "showInQuickbar": false,
    "spellPoints": {
      "cost": "1 + @sl"
    },
    "domain": false,
    "slotCost": 1
  },
  "flags": {},
  "img": "systems/pf1/icons/misc/magic-swirl.png",
  "effects": []
}