{
  "_id": "o3lkcnlt91matmbb",
  "name": "Terraform",
  "permission": {
    "default": 0
  },
  "type": "spell",
  "data": {
    "description": {
      "value": "<div class=\"spell-description\">\n  <p>\n    <strong>School</strong>&nbsp;transmutation;\n    <strong>Level</strong>&nbsp;cleric/oracle 7, druid 6, hunter 6, psychic 7, sorcerer/wizard 7, witch 7;\n    \n    \n    \n    \n  </p>\n  <p>\n    <strong>Casting Time</strong>&nbsp;1 hour<br>\n    <strong>Components</strong>&nbsp;V, S, M (10,000 gp worth of precious minerals, see text)<br>\n  </p>\n  <p>\n    <strong>Range</strong>&nbsp;100 feet<br>\n    <strong>Area</strong>&nbsp;100-foot-radius emanation, centered on you<br>\n    \n    \n    <strong>Duration</strong>&nbsp;1 day/level (see text)<br>\n      <strong>Saving Throw</strong>&nbsp;none;&nbsp;\n      <strong>Spell Resistance</strong>&nbsp;no<br>\n  </p>\n  <h2>Description</h2>\n  <p>You alter the area's terrain and climate to a new terrain and climate type appropriate to the planet or plane. For example, you might transform a desert to plains. To cast this spell, you must expend 10 uses of mythic power along with the material cost. This magically alters the area's climate and normal plants to those appropriate to the new terrain, but doesn't affect creatures or the configuration of the earth. Transforming rocky hills into forested areas converts grasses into shrubs and small trees, but doesn't flatten the hills or change the animals to suit the new environment.  You can alter the climate by one step (warm, temperate, or cold). The maximum extent of the terrain change is up to the GM, but in general is to a similar terrain type or one step within that terrain type (such as from a typical forest to a forest with massive trees or light undergrowth, from a shallow bog to a deep bog, and so on). You might be able to shift the land to a similar terrain type, such as turning a sparse forest into a relatively dry swamp. Local creatures adversely affected by these alterations either flee the area or quickly die, depending on their mobility and awareness of the change.  Multiple castings of the spell in the same area can create an area with radically different terrain and climate than the surrounding land. The GM can decide that certain terrain shifts are unsustainable and shorten the duration, or that some are suitable for the area and extend the duration.  This spell could have many secondary effects based on the nature of the change, the type of bordering terrain, and so on; these should be determined by the GM on a case-by-case basis. For example, transforming a desert requires drawing water up from underground to sustain the plants, which could deplete the water table in nearby areas. Creating a warm desert in the middle of a snowy tundra will create a bordering area of mud and frequent storms from the clash of hot and cold air fronts.  If you're at least 8th tier, you can expend 20 uses of mythic power instead of 10 to increase the range to 1 mile, the area to a 1-mile-radius emanation centered on you, and the duration to 1 month per caster level.</p>\n</div>\n",
      "chat": "",
      "unidentified": ""
    },
    "tags": [],
    "activation": {
      "cost": 1,
      "type": "hour"
    },
    "unchainedAction": {
      "activation": {
        "cost": 1,
        "type": "hour"
      }
    },
    "duration": {
      "value": null,
      "units": ""
    },
    "target": {
      "value": ""
    },
    "range": {
      "value": "100",
      "units": "ft",
      "maxIncrements": 1,
      "minValue": null,
      "minUnits": ""
    },
    "uses": {
      "value": 0,
      "max": 0,
      "per": "",
      "autoDeductCharges": true,
      "autoDeductChargesCost": "1"
    },
    "measureTemplate": {
      "type": "",
      "size": "0",
      "overrideColor": false,
      "customColor": "",
      "overrideTexture": false,
      "customTexture": ""
    },
    "attackName": "",
    "actionType": "",
    "attackBonus": "",
    "critConfirmBonus": "",
    "damage": {
      "parts": [],
      "critParts": [],
      "nonCritParts": []
    },
    "attackParts": [],
    "formula": "",
    "ability": {
      "attack": "",
      "damage": "",
      "damageMult": 1,
      "critRange": 20,
      "critMult": 2
    },
    "save": {
      "dc": "0",
      "type": "",
      "description": ""
    },
    "effectNotes": "",
    "attackNotes": "",
    "soundEffect": "",
    "links": {
      "children": []
    },
    "learnedAt": {
      "class": [
        [
          "sorcerer/wizard",
          7
        ],
        [
          "cleric/oracle",
          7
        ],
        [
          "druid",
          6
        ],
        [
          "witch",
          7
        ],
        [
          "psychic",
          7
        ],
        [
          "hunter",
          6
        ]
      ],
      "domain": [],
      "subDomain": [],
      "elementalSchool": [],
      "bloodline": []
    },
    "level": 7,
    "clOffset": 0,
    "slOffset": 0,
    "school": "trs",
    "subschool": "",
    "types": "",
    "nonlethal": false,
    "conditionals": [],
    "components": {
      "value": "",
      "verbal": true,
      "somatic": true,
      "material": true,
      "focus": false,
      "divineFocus": 0
    },
    "castTime": "",
    "materials": {
      "value": "10,000 gp worth of precious minerals, see text",
      "focus": "",
      "gpValue": 10000
    },
    "spellbook": "",
    "preparation": {
      "preparedAmount": 0,
      "maxAmount": 0,
      "autoDeductCharges": false,
      "spontaneousPrepared": false,
      "mode": "prepared"
    },
    "atWill": false,
    "sr": false,
    "shortDescription": "<p>You alter the area's terrain and climate to a new terrain and climate type appropriate to the planet or plane. For example, you might transform a desert to plains. To cast this spell, you must expend 10 uses of mythic power along with the material cost. This magically alters the area's climate and normal plants to those appropriate to the new terrain, but doesn't affect creatures or the configuration of the earth. Transforming rocky hills into forested areas converts grasses into shrubs and small trees, but doesn't flatten the hills or change the animals to suit the new environment.  You can alter the climate by one step (warm, temperate, or cold). The maximum extent of the terrain change is up to the GM, but in general is to a similar terrain type or one step within that terrain type (such as from a typical forest to a forest with massive trees or light undergrowth, from a shallow bog to a deep bog, and so on). You might be able to shift the land to a similar terrain type, such as turning a sparse forest into a relatively dry swamp. Local creatures adversely affected by these alterations either flee the area or quickly die, depending on their mobility and awareness of the change.  Multiple castings of the spell in the same area can create an area with radically different terrain and climate than the surrounding land. The GM can decide that certain terrain shifts are unsustainable and shorten the duration, or that some are suitable for the area and extend the duration.  This spell could have many secondary effects based on the nature of the change, the type of bordering terrain, and so on; these should be determined by the GM on a case-by-case basis. For example, transforming a desert requires drawing water up from underground to sustain the plants, which could deplete the water table in nearby areas. Creating a warm desert in the middle of a snowy tundra will create a bordering area of mud and frequent storms from the clash of hot and cold air fronts.  If you're at least 8th tier, you can expend 20 uses of mythic power instead of 10 to increase the range to 1 mile, the area to a 1-mile-radius emanation centered on you, and the duration to 1 month per caster level.</p>",
    "spellDuration": "1 day/level (see text)",
    "spellEffect": "",
    "spellArea": "100-foot-radius emanation, centered on you",
    "showInQuickbar": false,
    "spellPoints": {
      "cost": ""
    },
    "domain": false,
    "slotCost": 1
  },
  "flags": {},
  "img": "systems/pf1/icons/misc/magic-swirl.png",
  "effects": []
}