{
  "_id": "002n6r18wbatfu9y",
  "name": "Tidal Surge",
  "permission": {
    "default": 0
  },
  "type": "spell",
  "data": {
    "description": {
      "value": "<div class=\"spell-description\">\n  <p>\n    <strong>School</strong>&nbsp;conjuration&nbsp;(creation)&nbsp;[water];\n    <strong>Level</strong>&nbsp;druid 5, hunter 5, shaman 5;\n    \n    \n    \n    \n  </p>\n  <p>\n    <strong>Casting Time</strong>&nbsp;1 standard action<br>\n    <strong>Components</strong>&nbsp;V, S<br>\n  </p>\n  <p>\n    <strong>Range</strong>&nbsp;30 feet<br>\n    <strong>Area</strong>&nbsp;cone-shaped burst or line; see text<br>\n    \n    \n    <strong>Duration</strong>&nbsp;instantaneous<br>\n    <strong>Saving Throw</strong>&nbsp;Reflex half;&nbsp;<strong>Spell Resistance</strong>&nbsp;no<br>\n  </p>\n  <h2>Description</h2>\n  <p>If you cast <i>tidal surge</i> on land, you create an onrushing surge of water 10 feet high in a 30-foot cone that deals 1d6 points of bludgeoning damage for every 2 caster levels you have (maximum 10d6 at 20th level) and extinguishes all nonmagical fires in the area. Magical fire effects in the area of a <i>tidal surge</i> are affected as if you had cast <i>dispel magic</i>. In addition to taking damage, creatures that fail their Reflex saves are pushed 1d4x5 feet away from you, and Medium or smaller creatures are also knocked prone.</p><p>If you cast this spell in or on a body of water at least 30 feet across, you can shape the spell either as the cone described above or as a 60-foot line. In either shape, the water deals 1d10 points of bludgeoning damage for every 2 caster levels you have in addition to pushing away creatures that fail their Reflex saves.</p>\n</div>\n",
      "chat": "",
      "unidentified": ""
    },
    "tags": [],
    "activation": {
      "cost": 1,
      "type": "standard"
    },
    "unchainedAction": {
      "activation": {
        "cost": 2,
        "type": "action"
      }
    },
    "duration": {
      "value": null,
      "units": ""
    },
    "target": {
      "value": ""
    },
    "range": {
      "value": 30,
      "units": "ft",
      "maxIncrements": 1,
      "minValue": null,
      "minUnits": ""
    },
    "uses": {
      "value": 0,
      "max": 0,
      "per": "",
      "autoDeductCharges": true,
      "autoDeductChargesCost": "1"
    },
    "measureTemplate": {
      "type": "",
      "size": "0",
      "overrideColor": false,
      "customColor": "",
      "overrideTexture": false,
      "customTexture": ""
    },
    "attackName": "",
    "actionType": "spellsave",
    "attackBonus": "",
    "critConfirmBonus": "",
    "damage": {
      "parts": [],
      "critParts": [],
      "nonCritParts": []
    },
    "attackParts": [],
    "formula": "",
    "ability": {
      "attack": "",
      "damage": "",
      "damageMult": 1,
      "critRange": 20,
      "critMult": 2
    },
    "save": {
      "dc": "0",
      "type": "ref",
      "description": "Reflex half"
    },
    "effectNotes": "",
    "attackNotes": "",
    "soundEffect": "",
    "links": {
      "children": []
    },
    "learnedAt": {
      "class": [
        [
          "druid",
          5
        ],
        [
          "shaman",
          5
        ],
        [
          "hunter",
          5
        ]
      ],
      "domain": [],
      "subDomain": [],
      "elementalSchool": [],
      "bloodline": []
    },
    "level": 5,
    "clOffset": 0,
    "slOffset": 0,
    "school": "con",
    "subschool": "creation",
    "types": "water",
    "nonlethal": false,
    "conditionals": [],
    "components": {
      "value": "",
      "verbal": true,
      "somatic": true,
      "material": false,
      "focus": false,
      "divineFocus": 0
    },
    "castTime": "",
    "materials": {
      "value": "",
      "focus": "",
      "gpValue": 0
    },
    "spellbook": "primary",
    "preparation": {
      "preparedAmount": 0,
      "maxAmount": 0,
      "autoDeductCharges": true,
      "spontaneousPrepared": true,
      "mode": "prepared"
    },
    "atWill": false,
    "sr": false,
    "shortDescription": "<p>If you cast <i>tidal surge</i> on land, you create an onrushing surge of water 10 feet high in a 30-foot cone that deals 1d6 points of bludgeoning damage for every 2 caster levels you have (maximum 10d6 at 20th level) and extinguishes all nonmagical fires in the area. Magical fire effects in the area of a <i>tidal surge</i> are affected as if you had cast <i>dispel magic</i>. In addition to taking damage, creatures that fail their Reflex saves are pushed 1d4x5 feet away from you, and Medium or smaller creatures are also knocked prone.</p><p>If you cast this spell in or on a body of water at least 30 feet across, you can shape the spell either as the cone described above or as a 60-foot line. In either shape, the water deals 1d10 points of bludgeoning damage for every 2 caster levels you have in addition to pushing away creatures that fail their Reflex saves.</p>",
    "spellDuration": "instantaneous",
    "spellEffect": "",
    "spellArea": "cone-shaped burst or line; see text",
    "showInQuickbar": false,
    "spellPoints": {
      "cost": "1 + @sl"
    },
    "domain": false,
    "slotCost": 1
  },
  "flags": {},
  "img": "systems/pf1/icons/misc/magic-swirl.png",
  "effects": []
}