{
  "_id": "igvtsp96ytiqnumi",
  "name": "Unerring Tracker",
  "permission": {
    "default": 0
  },
  "type": "spell",
  "data": {
    "description": {
      "value": "<div class=\"spell-description\">\n  <p>\n    <strong>School</strong>&nbsp;divination;\n    <strong>Level</strong>&nbsp;alchemist 5, druid 6, hunter 4, occultist 4, ranger 4;\n    \n    \n    \n    \n  </p>\n  <p>\n    <strong>Casting Time</strong>&nbsp;10 minutes<br>\n    <strong>Components</strong>&nbsp;V, S, DF<br>\n  </p>\n  <p>\n    <strong>Range</strong>&nbsp;personal<br>\n    \n    <strong>Targets</strong>&nbsp;you<br>\n    \n    <strong>Duration</strong>&nbsp;10 minutes/level<br>\n    \n  </p>\n  <h2>Description</h2>\n  <p>During this spell's duration, you can touch the sign of a creature's passage that you have identified using the Survival skill to make the other steps in the creature's path perfectly clear to you, no matter how minute. This trail can't be more than 24 hours old. You can follow the trail at any speed, provided you have line of sight to the trail. You can distinguish the trail of the particular creature followed even if it joins and splits with other trails. Once you have selected a trail to follow using this spell, it can't be changed.  The spell is unable to follow teleportation or interplanar travel for any distance. The trail appears to end where the creature teleported (though a successful Spellcraft check allows you to determine the method of teleportation, if a spell was used). <i>Unerring tracker</i> can't track creatures under the effect of a <i>pass without trace</i> spell, as those creatures leave no trail at all, but can track creatures using <i>nondetection</i> (though not <i>mind</i> blank).  This spell can be used to track flying creatures, but the trail must at least begin on a solid surface.  This spell doesn't reveal the creature's current position or any shorter path than the one it followed (for instance, it will not reveal that the creature doubled back upon the trail until you reach the point where the creature turned around.) It doesn't reveal traps or other hazards along the trail.</p>\n</div>\n",
      "chat": "",
      "unidentified": ""
    },
    "tags": [],
    "activation": {
      "cost": 10,
      "type": "minute"
    },
    "unchainedAction": {
      "activation": {
        "cost": 10,
        "type": "minute"
      }
    },
    "duration": {
      "value": null,
      "units": ""
    },
    "target": {
      "value": "you"
    },
    "range": {
      "value": null,
      "units": "personal",
      "maxIncrements": 1,
      "minValue": null,
      "minUnits": ""
    },
    "uses": {
      "value": 0,
      "max": 0,
      "per": "",
      "autoDeductCharges": true,
      "autoDeductChargesCost": "1"
    },
    "measureTemplate": {
      "type": "",
      "size": "0",
      "overrideColor": false,
      "customColor": "",
      "overrideTexture": false,
      "customTexture": ""
    },
    "attackName": "",
    "actionType": "",
    "attackBonus": "",
    "critConfirmBonus": "",
    "damage": {
      "parts": [],
      "critParts": [],
      "nonCritParts": []
    },
    "attackParts": [],
    "formula": "",
    "ability": {
      "attack": "",
      "damage": "",
      "damageMult": 1,
      "critRange": 20,
      "critMult": 2
    },
    "save": {
      "dc": "0",
      "type": "",
      "description": ""
    },
    "effectNotes": "",
    "attackNotes": "",
    "soundEffect": "",
    "links": {
      "children": []
    },
    "learnedAt": {
      "class": [
        [
          "druid",
          6
        ],
        [
          "ranger",
          4
        ],
        [
          "alchemist",
          5
        ],
        [
          "occultist",
          4
        ],
        [
          "hunter",
          4
        ]
      ],
      "domain": [],
      "subDomain": [],
      "elementalSchool": [],
      "bloodline": []
    },
    "level": 6,
    "clOffset": 0,
    "slOffset": 0,
    "school": "div",
    "subschool": "",
    "types": "",
    "nonlethal": false,
    "conditionals": [],
    "components": {
      "value": "",
      "verbal": true,
      "somatic": true,
      "material": false,
      "focus": false,
      "divineFocus": 1
    },
    "castTime": "",
    "materials": {
      "value": "",
      "focus": "",
      "gpValue": 0
    },
    "spellbook": "primary",
    "preparation": {
      "preparedAmount": 0,
      "maxAmount": 0,
      "autoDeductCharges": true,
      "spontaneousPrepared": true,
      "mode": "prepared"
    },
    "atWill": false,
    "sr": false,
    "shortDescription": "<p>During this spell's duration, you can touch the sign of a creature's passage that you have identified using the Survival skill to make the other steps in the creature's path perfectly clear to you, no matter how minute. This trail can't be more than 24 hours old. You can follow the trail at any speed, provided you have line of sight to the trail. You can distinguish the trail of the particular creature followed even if it joins and splits with other trails. Once you have selected a trail to follow using this spell, it can't be changed.  The spell is unable to follow teleportation or interplanar travel for any distance. The trail appears to end where the creature teleported (though a successful Spellcraft check allows you to determine the method of teleportation, if a spell was used). <i>Unerring tracker</i> can't track creatures under the effect of a <i>pass without trace</i> spell, as those creatures leave no trail at all, but can track creatures using <i>nondetection</i> (though not <i>mind</i> blank).  This spell can be used to track flying creatures, but the trail must at least begin on a solid surface.  This spell doesn't reveal the creature's current position or any shorter path than the one it followed (for instance, it will not reveal that the creature doubled back upon the trail until you reach the point where the creature turned around.) It doesn't reveal traps or other hazards along the trail.</p>",
    "spellDuration": "10 minutes/level",
    "spellEffect": "",
    "spellArea": "",
    "showInQuickbar": false,
    "spellPoints": {
      "cost": "1 + @sl"
    },
    "domain": false,
    "slotCost": 1
  },
  "flags": {},
  "img": "systems/pf1/icons/misc/magic-swirl.png",
  "effects": []
}