{
  "_id": "1u9bbze5lx7hhbmf",
  "name": "Unlock Flesh",
  "permission": {
    "default": 0
  },
  "type": "spell",
  "data": {
    "description": {
      "value": "<div class=\"spell-description\">\n  <p>\n    <strong>School</strong>&nbsp;necromancy;\n    <strong>Level</strong>&nbsp;sorcerer/wizard 1, witch 1;\n    \n    \n    \n    \n  </p>\n  <p>\n    <strong>Casting Time</strong>&nbsp;1 standard action<br>\n    <strong>Components</strong>&nbsp;V, S, F (any slashing weapon or cutting tool)<br>\n  </p>\n  <p>\n    <strong>Range</strong>&nbsp;touch<br>\n    <strong>Area</strong>&nbsp;creature touched<br>\n    \n    \n    <strong>Duration</strong>&nbsp;1 round/level (living target) or instantaneous (undead target); see below<br>\n    <strong>Saving Throw</strong>&nbsp;Fort negates;&nbsp;<strong>Spell Resistance</strong>&nbsp;yes<br>\n  </p>\n  <h2>Description</h2>\n  <p>By touching a creature with a bladed instrument, you cause the creature's flesh to loosen and slide against its skeletal moorings. A living creature touched becomes staggered by the disturbing and uncomfortable sensation for 1 round per level. Each round on its turn, the subject can attempt a new saving throw to end the effect. This is a standard action that does not provoke attacks of opportunity. A corporeal undead creature targeted by this spell instead takes 1d6 points of damage per caster level (maximum 5d6 at 5th level) as wet, oozing chunks of flesh slough off its desiccated bones (a successful Fortitude save halves this damage). Incorporeal creatures, or creatures that do not have flesh, are immune to this spell's effects.</p>\n</div>\n",
      "chat": "",
      "unidentified": ""
    },
    "tags": [],
    "activation": {
      "cost": 1,
      "type": "standard"
    },
    "unchainedAction": {
      "activation": {
        "cost": 2,
        "type": "action"
      }
    },
    "duration": {
      "value": null,
      "units": ""
    },
    "target": {
      "value": ""
    },
    "range": {
      "value": null,
      "units": "touch",
      "maxIncrements": 1,
      "minValue": null,
      "minUnits": ""
    },
    "uses": {
      "value": 0,
      "max": 0,
      "per": "",
      "autoDeductCharges": true,
      "autoDeductChargesCost": "1"
    },
    "measureTemplate": {
      "type": "",
      "size": "0",
      "overrideColor": false,
      "customColor": "",
      "overrideTexture": false,
      "customTexture": ""
    },
    "attackName": "",
    "actionType": "spellsave",
    "attackBonus": "",
    "critConfirmBonus": "",
    "damage": {
      "parts": [],
      "critParts": [],
      "nonCritParts": []
    },
    "attackParts": [],
    "formula": "",
    "ability": {
      "attack": "",
      "damage": "",
      "damageMult": 1,
      "critRange": 20,
      "critMult": 2
    },
    "save": {
      "dc": "0",
      "type": "fort",
      "description": "Fort negates"
    },
    "effectNotes": "",
    "attackNotes": "",
    "soundEffect": "",
    "links": {
      "children": []
    },
    "learnedAt": {
      "class": [
        [
          "sorcerer/wizard",
          1
        ],
        [
          "witch",
          1
        ]
      ],
      "domain": [],
      "subDomain": [],
      "elementalSchool": [],
      "bloodline": []
    },
    "level": 1,
    "clOffset": 0,
    "slOffset": 0,
    "school": "nec",
    "subschool": "",
    "types": "",
    "nonlethal": false,
    "conditionals": [],
    "components": {
      "value": "",
      "verbal": true,
      "somatic": true,
      "material": false,
      "focus": true,
      "divineFocus": 0
    },
    "castTime": "",
    "materials": {
      "value": "",
      "focus": "any slashing weapon or cutting tool",
      "gpValue": 0
    },
    "spellbook": "primary",
    "preparation": {
      "preparedAmount": 0,
      "maxAmount": 0,
      "autoDeductCharges": true,
      "spontaneousPrepared": true,
      "mode": "prepared"
    },
    "atWill": false,
    "sr": true,
    "shortDescription": "<p>By touching a creature with a bladed instrument, you cause the creature's flesh to loosen and slide against its skeletal moorings. A living creature touched becomes staggered by the disturbing and uncomfortable sensation for 1 round per level. Each round on its turn, the subject can attempt a new saving throw to end the effect. This is a standard action that does not provoke attacks of opportunity. A corporeal undead creature targeted by this spell instead takes 1d6 points of damage per caster level (maximum 5d6 at 5th level) as wet, oozing chunks of flesh slough off its desiccated bones (a successful Fortitude save halves this damage). Incorporeal creatures, or creatures that do not have flesh, are immune to this spell's effects.</p>",
    "spellDuration": "1 round/level (living target) or instantaneous (undead target); see below",
    "spellEffect": "",
    "spellArea": "creature touched",
    "showInQuickbar": false,
    "spellPoints": {
      "cost": "1 + @sl"
    },
    "domain": false,
    "slotCost": 1
  },
  "flags": {},
  "img": "systems/pf1/icons/misc/magic-swirl.png",
  "effects": []
}