{
  "_id": "oa2hmlla5maks5pg",
  "name": "Voluminous Vocabulary",
  "permission": {
    "default": 0
  },
  "type": "spell",
  "data": {
    "description": {
      "value": "<div class=\"spell-description\">\n  <p>\n    <strong>School</strong>&nbsp;divination;\n    <strong>Level</strong>&nbsp;alchemist 3, bard 2, cleric/oracle 3, inquisitor 2, medium 2, mesmerist 2, occultist 2, psychic 3, shaman 4, sorcerer/wizard 3, spiritualist 3, witch 3;\n    \n    \n    \n    \n  </p>\n  <p>\n    <strong>Casting Time</strong>&nbsp;1 standard action<br>\n    <strong>Components</strong>&nbsp;V, S, M (a quill)<br>\n  </p>\n  <p>\n    <strong>Range</strong>&nbsp;touch<br>\n    \n    <strong>Targets</strong>&nbsp;creature touched<br>\n    \n    <strong>Duration</strong>&nbsp;8 hours (D)<br>\n    <strong>Saving Throw</strong>&nbsp;Will negates (harmless);&nbsp;<strong>Spell Resistance</strong>&nbsp;yes<br>\n  </p>\n  <h2>Description</h2>\n  <p>You choose any language (except for secret languages, such as Druidic). The target gains the ability to speak, understand, read, and write that language. When you cast this spell, you can attempt a DC 15 Linguistics check. If you succeed, choose an additional language, plus one more language for every 10 by which your check result exceeded the DC.  Written material can be read at the rate of one page (250 words) per minute. As with <i>comprehend languages</i>, this spell doesn't impart insight into material the target read, just the literal meaning, and it doesn't allow the target to read magical writing or decipher codes.  If the target lacks the mental capacity to grasp a language, it still gains enough knowledge to respond to and carry out even extremely complex commands or suggestions coached in the language (whether written or spoken). However, since this spell endows the target merely with a temporarily enhanced vocabulary, the person offering instructions to nonsentient creatures must take care to avoid metaphors or any other ambiguity.</p>\n</div>\n",
      "chat": "",
      "unidentified": ""
    },
    "tags": [],
    "activation": {
      "cost": 1,
      "type": "standard"
    },
    "unchainedAction": {
      "activation": {
        "cost": 2,
        "type": "action"
      }
    },
    "duration": {
      "value": null,
      "units": ""
    },
    "target": {
      "value": "creature touched"
    },
    "range": {
      "value": null,
      "units": "touch",
      "maxIncrements": 1,
      "minValue": null,
      "minUnits": ""
    },
    "uses": {
      "value": 0,
      "max": 0,
      "per": "",
      "autoDeductCharges": true,
      "autoDeductChargesCost": "1"
    },
    "measureTemplate": {
      "type": "",
      "size": "0",
      "overrideColor": false,
      "customColor": "",
      "overrideTexture": false,
      "customTexture": ""
    },
    "attackName": "",
    "actionType": "spellsave",
    "attackBonus": "",
    "critConfirmBonus": "",
    "damage": {
      "parts": [],
      "critParts": [],
      "nonCritParts": []
    },
    "attackParts": [],
    "formula": "",
    "ability": {
      "attack": "",
      "damage": "",
      "damageMult": 1,
      "critRange": 20,
      "critMult": 2
    },
    "save": {
      "dc": "0",
      "type": "will",
      "description": "Will negates (harmless)"
    },
    "effectNotes": "",
    "attackNotes": "",
    "soundEffect": "",
    "links": {
      "children": []
    },
    "learnedAt": {
      "class": [
        [
          "sorcerer/wizard",
          3
        ],
        [
          "cleric/oracle",
          3
        ],
        [
          "bard",
          2
        ],
        [
          "alchemist",
          3
        ],
        [
          "witch",
          3
        ],
        [
          "inquisitor",
          2
        ],
        [
          "shaman",
          4
        ],
        [
          "psychic",
          3
        ],
        [
          "medium",
          2
        ],
        [
          "mesmerist",
          2
        ],
        [
          "occultist",
          2
        ],
        [
          "spiritualist",
          3
        ]
      ],
      "domain": [],
      "subDomain": [],
      "elementalSchool": [],
      "bloodline": []
    },
    "level": 3,
    "clOffset": 0,
    "slOffset": 0,
    "school": "div",
    "subschool": "",
    "types": "",
    "nonlethal": false,
    "conditionals": [],
    "components": {
      "value": "",
      "verbal": true,
      "somatic": true,
      "material": true,
      "focus": false,
      "divineFocus": 0
    },
    "castTime": "",
    "materials": {
      "value": "a quill",
      "focus": "",
      "gpValue": 0
    },
    "spellbook": "primary",
    "preparation": {
      "preparedAmount": 0,
      "maxAmount": 0,
      "autoDeductCharges": true,
      "spontaneousPrepared": true,
      "mode": "prepared"
    },
    "atWill": false,
    "sr": true,
    "shortDescription": "<p>You choose any language (except for secret languages, such as Druidic). The target gains the ability to speak, understand, read, and write that language. When you cast this spell, you can attempt a DC 15 Linguistics check. If you succeed, choose an additional language, plus one more language for every 10 by which your check result exceeded the DC.  Written material can be read at the rate of one page (250 words) per minute. As with <i>comprehend languages</i>, this spell doesn't impart insight into material the target read, just the literal meaning, and it doesn't allow the target to read magical writing or decipher codes.  If the target lacks the mental capacity to grasp a language, it still gains enough knowledge to respond to and carry out even extremely complex commands or suggestions coached in the language (whether written or spoken). However, since this spell endows the target merely with a temporarily enhanced vocabulary, the person offering instructions to nonsentient creatures must take care to avoid metaphors or any other ambiguity.</p>",
    "spellDuration": "8 hours (D)",
    "spellEffect": "",
    "spellArea": "",
    "showInQuickbar": false,
    "spellPoints": {
      "cost": "1 + @sl"
    },
    "domain": false,
    "slotCost": 1
  },
  "flags": {},
  "img": "systems/pf1/icons/misc/magic-swirl.png",
  "effects": []
}