{
  "_id": "tpid8izzs2rrfxv3",
  "name": "Vortex",
  "permission": {
    "default": 0
  },
  "type": "spell",
  "data": {
    "description": {
      "value": "<div class=\"spell-description\">\n  <p>\n    <strong>School</strong>&nbsp;evocation&nbsp;[water];\n    <strong>Level</strong>&nbsp;druid 7, shaman 7, sorcerer/wizard 7;\n    \n    \n    \n    \n  </p>\n  <p>\n    <strong>Casting Time</strong>&nbsp;1 standard action<br>\n    <strong>Components</strong>&nbsp;V, S, M/DF (a stirring spoon)<br>\n  </p>\n  <p>\n    <strong>Range</strong>&nbsp;long (400 ft. + 40 ft./level)<br>\n    \n    \n    <strong>Effect</strong>&nbsp;whirlpool 50 ft. deep, 30 ft. wide at top, and 5 ft. wide at base<br>\n    <strong>Duration</strong>&nbsp;1 round/level (D)<br>\n    <strong>Saving Throw</strong>&nbsp;Reflex negates, see text;&nbsp;<strong>Spell Resistance</strong>&nbsp;yes<br>\n  </p>\n  <h2>Description</h2>\n  <p>You create a powerful and immobile whirlpool in any body of liquid large enough to contain the spell's effect. Any Large or smaller creature that comes in contact with the spell effect must succeed on a Reflex save or take 3d6 points of bludgeoning damage. A Medium or smaller creature that fails its first save must succeed on a second one or be pulled into the whirlpool and held suspended in its powerful currents, taking 1d8 points of damage each round on your turn with no save allowed.</p><p>You may direct the whirlpool to eject any carried creatures whenever you wish. A boat that is equal in length or shorter than the vortex's width that passes through a vortex takes 6d6 points of damage and is caught up by the current. If the boat's captain makes a DC 25 Profession (sailor) check (or if the boat is longer than the vortex's width), the boat takes only half damage and is not caught up by the vortex.</p>\n</div>\n",
      "chat": "",
      "unidentified": ""
    },
    "tags": [],
    "activation": {
      "cost": 1,
      "type": "standard"
    },
    "unchainedAction": {
      "activation": {
        "cost": 2,
        "type": "action"
      }
    },
    "duration": {
      "value": null,
      "units": ""
    },
    "target": {
      "value": ""
    },
    "range": {
      "value": null,
      "units": "long",
      "maxIncrements": 1,
      "minValue": null,
      "minUnits": ""
    },
    "uses": {
      "value": 0,
      "max": 0,
      "per": "",
      "autoDeductCharges": true,
      "autoDeductChargesCost": "1"
    },
    "measureTemplate": {
      "type": "",
      "size": "0",
      "overrideColor": false,
      "customColor": "",
      "overrideTexture": false,
      "customTexture": ""
    },
    "attackName": "",
    "actionType": "spellsave",
    "attackBonus": "",
    "critConfirmBonus": "",
    "damage": {
      "parts": [],
      "critParts": [],
      "nonCritParts": []
    },
    "attackParts": [],
    "formula": "",
    "ability": {
      "attack": "",
      "damage": "",
      "damageMult": 1,
      "critRange": 20,
      "critMult": 2
    },
    "save": {
      "dc": "0",
      "type": "ref",
      "description": "Reflex negates, see text"
    },
    "effectNotes": "",
    "attackNotes": "",
    "soundEffect": "",
    "links": {
      "children": []
    },
    "learnedAt": {
      "class": [
        [
          "sorcerer/wizard",
          7
        ],
        [
          "druid",
          7
        ],
        [
          "shaman",
          7
        ]
      ],
      "domain": [],
      "subDomain": [],
      "elementalSchool": [],
      "bloodline": []
    },
    "level": 7,
    "clOffset": 0,
    "slOffset": 0,
    "school": "evo",
    "subschool": "",
    "types": "water",
    "nonlethal": false,
    "conditionals": [],
    "components": {
      "value": "",
      "verbal": true,
      "somatic": true,
      "material": true,
      "focus": false,
      "divineFocus": 2
    },
    "castTime": "",
    "materials": {
      "value": "a stirring spoon",
      "focus": "",
      "gpValue": 0
    },
    "spellbook": "primary",
    "preparation": {
      "preparedAmount": 0,
      "maxAmount": 0,
      "autoDeductCharges": true,
      "spontaneousPrepared": true,
      "mode": "prepared"
    },
    "atWill": false,
    "sr": true,
    "shortDescription": "<p>You create a powerful and immobile whirlpool in any body of liquid large enough to contain the spell's effect. Any Large or smaller creature that comes in contact with the spell effect must succeed on a Reflex save or take 3d6 points of bludgeoning damage. A Medium or smaller creature that fails its first save must succeed on a second one or be pulled into the whirlpool and held suspended in its powerful currents, taking 1d8 points of damage each round on your turn with no save allowed.</p><p>You may direct the whirlpool to eject any carried creatures whenever you wish. A boat that is equal in length or shorter than the vortex's width that passes through a vortex takes 6d6 points of damage and is caught up by the current. If the boat's captain makes a DC 25 Profession (sailor) check (or if the boat is longer than the vortex's width), the boat takes only half damage and is not caught up by the vortex.</p>",
    "spellDuration": "1 round/level (D)",
    "spellEffect": "whirlpool 50 ft. deep, 30 ft. wide at top, and 5 ft. wide at base",
    "spellArea": "",
    "showInQuickbar": false,
    "spellPoints": {
      "cost": "1 + @sl"
    },
    "domain": false,
    "slotCost": 1
  },
  "flags": {},
  "img": "systems/pf1/icons/misc/magic-swirl.png",
  "effects": []
}