{
  "_id": "kg0bw8dv660csdis",
  "name": "Wall of Blindness/Deafness",
  "permission": {
    "default": 0
  },
  "type": "spell",
  "data": {
    "description": {
      "value": "<div class=\"spell-description\">\n  <p>\n    <strong>School</strong>&nbsp;necromancy;\n    <strong>Level</strong>&nbsp;bard 4, cleric/oracle 5, psychic 4, sorcerer/wizard 4, witch 4;\n    \n    \n    \n    \n  </p>\n  <p>\n    <strong>Casting Time</strong>&nbsp;1 standard action<br>\n    <strong>Components</strong>&nbsp;V, S<br>\n  </p>\n  <p>\n    <strong>Range</strong>&nbsp;medium (100 ft. + 10 ft./level)<br>\n    \n    \n    <strong>Effect</strong>&nbsp;translucent wall 20 ft. long/level or a translucent ring with a radius of up to 5 ft./two levels; either form 20 ft. high<br>\n    <strong>Duration</strong>&nbsp;concentration + 1 round/level<br>\n    <strong>Saving Throw</strong>&nbsp;Fortitude negates;&nbsp;<strong>Spell Resistance</strong>&nbsp;yes<br>\n  </p>\n  <h2>Description</h2>\n  <p>You create a translucent wall of energy, within which can be seen indistinct images of faces with their eyes or ears sewn shut. When you create the wall, decide whether it blinds or deafens. Any creature that passes through the wall must save or become permanently blinded or deafened (as blindness/deafness).  The wall must be vertical and either rectangular or a ring. It need not touch the ground. The wall must be continuous and unbroken when formed. If its surface is broken by any object or creature when it is cast, the spell fails.</p>\n</div>\n",
      "chat": "",
      "unidentified": ""
    },
    "tags": [],
    "activation": {
      "cost": 1,
      "type": "standard"
    },
    "unchainedAction": {
      "activation": {
        "cost": 2,
        "type": "action"
      }
    },
    "duration": {
      "value": null,
      "units": ""
    },
    "target": {
      "value": ""
    },
    "range": {
      "value": null,
      "units": "medium",
      "maxIncrements": 1,
      "minValue": null,
      "minUnits": ""
    },
    "uses": {
      "value": 0,
      "max": 0,
      "per": "",
      "autoDeductCharges": true,
      "autoDeductChargesCost": "1"
    },
    "measureTemplate": {
      "type": "",
      "size": "0",
      "overrideColor": false,
      "customColor": "",
      "overrideTexture": false,
      "customTexture": ""
    },
    "attackName": "",
    "actionType": "spellsave",
    "attackBonus": "",
    "critConfirmBonus": "",
    "damage": {
      "parts": [],
      "critParts": [],
      "nonCritParts": []
    },
    "attackParts": [],
    "formula": "",
    "ability": {
      "attack": "",
      "damage": "",
      "damageMult": 1,
      "critRange": 20,
      "critMult": 2
    },
    "save": {
      "dc": "0",
      "type": "fort",
      "description": "Fortitude negates"
    },
    "effectNotes": "",
    "attackNotes": "",
    "soundEffect": "",
    "links": {
      "children": []
    },
    "learnedAt": {
      "class": [
        [
          "sorcerer/wizard",
          4
        ],
        [
          "cleric/oracle",
          5
        ],
        [
          "bard",
          4
        ],
        [
          "witch",
          4
        ],
        [
          "psychic",
          4
        ]
      ],
      "domain": [],
      "subDomain": [],
      "elementalSchool": [],
      "bloodline": []
    },
    "level": 4,
    "clOffset": 0,
    "slOffset": 0,
    "school": "nec",
    "subschool": "",
    "types": "",
    "nonlethal": false,
    "conditionals": [],
    "components": {
      "value": "",
      "verbal": true,
      "somatic": true,
      "material": false,
      "focus": false,
      "divineFocus": 0
    },
    "castTime": "",
    "materials": {
      "value": "",
      "focus": "",
      "gpValue": 0
    },
    "spellbook": "primary",
    "preparation": {
      "preparedAmount": 0,
      "maxAmount": 0,
      "autoDeductCharges": true,
      "spontaneousPrepared": true,
      "mode": "prepared"
    },
    "atWill": false,
    "sr": true,
    "shortDescription": "<p>You create a translucent wall of energy, within which can be seen indistinct images of faces with their eyes or ears sewn shut. When you create the wall, decide whether it blinds or deafens. Any creature that passes through the wall must save or become permanently blinded or deafened (as blindness/deafness).  The wall must be vertical and either rectangular or a ring. It need not touch the ground. The wall must be continuous and unbroken when formed. If its surface is broken by any object or creature when it is cast, the spell fails.</p>",
    "spellDuration": "concentration + 1 round/level",
    "spellEffect": "translucent wall 20 ft. long/level or a translucent ring with a radius of up to 5 ft./two levels; either form 20 ft. high",
    "spellArea": "",
    "showInQuickbar": false,
    "spellPoints": {
      "cost": "1 + @sl"
    },
    "domain": false,
    "slotCost": 1
  },
  "flags": {},
  "img": "systems/pf1/icons/misc/magic-swirl.png",
  "effects": []
}