{
  "_id": "hy95c7we5tfxqzri",
  "name": "Wall of Sound",
  "permission": {
    "default": 0
  },
  "type": "spell",
  "data": {
    "description": {
      "value": "<div class=\"spell-description\">\n  <p>\n    <strong>School</strong>&nbsp;evocation&nbsp;[sonic];\n    <strong>Level</strong>&nbsp;bard 4, bloodrager 4, magus 4, psychic 5, sorcerer/wizard 5, spiritualist 5;\n    \n    \n    \n    \n  </p>\n  <p>\n    <strong>Casting Time</strong>&nbsp;1 standard action<br>\n    <strong>Components</strong>&nbsp;V, S, M (a tuning fork and a quartz crystal)<br>\n  </p>\n  <p>\n    <strong>Range</strong>&nbsp;medium (100 ft. + 10 ft./level)<br>\n    \n    \n    <strong>Effect</strong>&nbsp;translucent wall of sound up to 20 ft. long/level or a ring of sound with a radius of up to 5 ft./two levels; either form 20 ft. high<br>\n    <strong>Duration</strong>&nbsp;concentration + 1 round/level<br>\n    <strong>Saving Throw</strong>&nbsp;none;&nbsp;<strong>Spell Resistance</strong>&nbsp;yes<br>\n  </p>\n  <h2>Description</h2>\n  <p>A translucent barrier of pure sound springs into existence. This wall is silent except for a faint hum, but bursts with discordant noise when touched by an object or creature. The wall deflects arrows, bolts, loose debris, and Small or smaller flying creatures like a <i>wind wall</i> spell, except these things rebound harmlessly rather than being directed upward. The burst of discordant noise deals 2d4 points of sonic damage to creatures within 10 feet of the triggering object or creature; touching or passing through the wall deals 2d6 points of sonic damage + 1 point of sonic damage per caster level (maximum +20). If you evoke the wall so that it appears where creatures are, each creature takes damage as if passing through the wall. A <i>silence</i> spell suppresses the wall within its area, but the wall reappears when the <i>silence</i> ends.</p>\n</div>\n",
      "chat": "",
      "unidentified": ""
    },
    "tags": [],
    "activation": {
      "cost": 1,
      "type": "standard"
    },
    "unchainedAction": {
      "activation": {
        "cost": 2,
        "type": "action"
      }
    },
    "duration": {
      "value": null,
      "units": ""
    },
    "target": {
      "value": ""
    },
    "range": {
      "value": null,
      "units": "medium",
      "maxIncrements": 1,
      "minValue": null,
      "minUnits": ""
    },
    "uses": {
      "value": 0,
      "max": 0,
      "per": "",
      "autoDeductCharges": true,
      "autoDeductChargesCost": "1"
    },
    "measureTemplate": {
      "type": "",
      "size": "0",
      "overrideColor": false,
      "customColor": "",
      "overrideTexture": false,
      "customTexture": ""
    },
    "attackName": "",
    "actionType": "other",
    "attackBonus": "",
    "critConfirmBonus": "",
    "damage": {
      "parts": [],
      "critParts": [],
      "nonCritParts": []
    },
    "attackParts": [],
    "formula": "",
    "ability": {
      "attack": "",
      "damage": "",
      "damageMult": 1,
      "critRange": 20,
      "critMult": 2
    },
    "save": {
      "dc": "0",
      "type": "",
      "description": ""
    },
    "effectNotes": "",
    "attackNotes": "",
    "soundEffect": "",
    "links": {
      "children": []
    },
    "learnedAt": {
      "class": [
        [
          "sorcerer/wizard",
          5
        ],
        [
          "bard",
          4
        ],
        [
          "magus",
          4
        ],
        [
          "bloodrager",
          4
        ],
        [
          "psychic",
          5
        ],
        [
          "spiritualist",
          5
        ]
      ],
      "domain": [],
      "subDomain": [],
      "elementalSchool": [],
      "bloodline": []
    },
    "level": 5,
    "clOffset": 0,
    "slOffset": 0,
    "school": "evo",
    "subschool": "",
    "types": "sonic",
    "nonlethal": false,
    "conditionals": [],
    "components": {
      "value": "",
      "verbal": true,
      "somatic": true,
      "material": true,
      "focus": false,
      "divineFocus": 0
    },
    "castTime": "",
    "materials": {
      "value": "a tuning fork and a quartz crystal",
      "focus": "",
      "gpValue": 0
    },
    "spellbook": "primary",
    "preparation": {
      "preparedAmount": 0,
      "maxAmount": 0,
      "autoDeductCharges": true,
      "spontaneousPrepared": true,
      "mode": "prepared"
    },
    "atWill": false,
    "sr": true,
    "shortDescription": "<p>A translucent barrier of pure sound springs into existence. This wall is silent except for a faint hum, but bursts with discordant noise when touched by an object or creature. The wall deflects arrows, bolts, loose debris, and Small or smaller flying creatures like a <i>wind wall</i> spell, except these things rebound harmlessly rather than being directed upward. The burst of discordant noise deals 2d4 points of sonic damage to creatures within 10 feet of the triggering object or creature; touching or passing through the wall deals 2d6 points of sonic damage + 1 point of sonic damage per caster level (maximum +20). If you evoke the wall so that it appears where creatures are, each creature takes damage as if passing through the wall. A <i>silence</i> spell suppresses the wall within its area, but the wall reappears when the <i>silence</i> ends.</p>",
    "spellDuration": "concentration + 1 round/level",
    "spellEffect": "translucent wall of sound up to 20 ft. long/level or a ring of sound with a radius of up to 5 ft./two levels; either form 20 ft. high",
    "spellArea": "",
    "showInQuickbar": false,
    "spellPoints": {
      "cost": "1 + @sl"
    },
    "domain": false,
    "slotCost": 1
  },
  "flags": {},
  "img": "systems/pf1/icons/misc/magic-swirl.png",
  "effects": []
}