{
  "_id": "zo78sdakjwa65431",
  "name": "Wall of Clockwork",
  "permission": {
    "default": 0
  },
  "type": "spell",
  "data": {
    "description": {
      "value": "<div class=\"spell-description\">\n  <p>\n    <strong>School</strong>&nbsp;conjuration&nbsp;(creation);\n    <strong>Level</strong>&nbsp;cleric/oracle 5, sorcerer/wizard 5;\n    \n    \n    \n    \n  </p>\n  <p>\n    <strong>Casting Time</strong>&nbsp;1 standard action<br>\n    <strong>Components</strong>&nbsp;V, S<br>\n  </p>\n  <p>\n    <strong>Range</strong>&nbsp;medium (100 ft. + 10 ft./level)<br>\n    \n    \n    <strong>Effect</strong>&nbsp;wall of bronze clockworks whose area is up to one 5-ft.-square/level (S)<br>\n    <strong>Duration</strong>&nbsp;1 minute/level<br>\n    <strong>Saving Throw</strong>&nbsp;Reflex half or Reflex negates; see text;&nbsp;<strong>Spell Resistance</strong>&nbsp;yes<br>\n  </p>\n  <h2>Description</h2>\n  <p>An immobile, vertical wall of spinning cogs and gears springs into existence. Any creature passing through the wall takes 1d6 points of piercing  and slashing damage per 2 caster levels (maximum 10d6); a successful Reflex save halves the damage.  The wall cannot be conjured so that it occupies the same space as a creature or another object. It must always be a flat plane, though you can shape its edges to fit the available space.  A <i>Wall of Clockwork</i> provides cover (+4 bonus to AC, +2 bonus on Reflex saves) against attacks made through it.  A <i>Wall of Clockwork</i> is 1 inch thick per 4 caster levels. You can double the wall's area by halving its thickness. Each 5-foot square of the wall has 30 hit points per inch of thickness and hardness 9. A section of wall whose hit points drop to 0 is breached. If a creature tries to break through the wall with a single attack, the DC for the Strength check is 25 + 2 per inch of thickness. If an attacker an attack roll of a natural 20 (and only a natural 20, regardless of the weapon's threat range) and confirms the critical hit (even though the wall is otherwise immune to critical hits), that section of wall gains the broken condition. If already broken, that section of wall is destroyed instead.  Bronze created by this spell is not suitable for use in the creation of other objects (even for the limited duration of the spell) and cannot be sold.</p>\n</div>\n",
      "chat": "",
      "unidentified": ""
    },
    "tags": [],
    "activation": {
      "cost": 1,
      "type": "standard"
    },
    "unchainedAction": {
      "activation": {
        "cost": 2,
        "type": "action"
      }
    },
    "duration": {
      "value": null,
      "units": ""
    },
    "target": {
      "value": ""
    },
    "range": {
      "value": null,
      "units": "medium",
      "maxIncrements": 1,
      "minValue": null,
      "minUnits": ""
    },
    "uses": {
      "value": 0,
      "max": 0,
      "per": "",
      "autoDeductCharges": true,
      "autoDeductChargesCost": "1"
    },
    "measureTemplate": {
      "type": "",
      "size": "0",
      "overrideColor": false,
      "customColor": "",
      "overrideTexture": false,
      "customTexture": ""
    },
    "attackName": "",
    "actionType": "spellsave",
    "attackBonus": "",
    "critConfirmBonus": "",
    "damage": {
      "parts": [],
      "critParts": [],
      "nonCritParts": []
    },
    "attackParts": [],
    "formula": "",
    "ability": {
      "attack": "",
      "damage": "",
      "damageMult": 1,
      "critRange": 20,
      "critMult": 2
    },
    "save": {
      "dc": "0",
      "type": "ref",
      "description": "Reflex half or Reflex negates; see text"
    },
    "effectNotes": "",
    "attackNotes": "",
    "soundEffect": "",
    "links": {
      "children": []
    },
    "learnedAt": {
      "class": [
        [
          "sorcerer/wizard",
          5
        ],
        [
          "cleric/oracle",
          5
        ]
      ],
      "domain": [],
      "subDomain": [],
      "elementalSchool": [],
      "bloodline": []
    },
    "level": 5,
    "clOffset": 0,
    "slOffset": 0,
    "school": "con",
    "subschool": "creation",
    "types": "",
    "nonlethal": false,
    "conditionals": [],
    "components": {
      "value": "",
      "verbal": true,
      "somatic": true,
      "material": false,
      "focus": false,
      "divineFocus": 0
    },
    "castTime": "",
    "materials": {
      "value": "",
      "focus": "",
      "gpValue": 0
    },
    "spellbook": "primary",
    "preparation": {
      "preparedAmount": 0,
      "maxAmount": 0,
      "autoDeductCharges": true,
      "spontaneousPrepared": true,
      "mode": "prepared"
    },
    "atWill": false,
    "sr": true,
    "shortDescription": "<p>An immobile, vertical wall of spinning cogs and gears springs into existence. Any creature passing through the wall takes 1d6 points of piercing  and slashing damage per 2 caster levels (maximum 10d6); a successful Reflex save halves the damage.  The wall cannot be conjured so that it occupies the same space as a creature or another object. It must always be a flat plane, though you can shape its edges to fit the available space.  A <i>Wall of Clockwork</i> provides cover (+4 bonus to AC, +2 bonus on Reflex saves) against attacks made through it.  A <i>Wall of Clockwork</i> is 1 inch thick per 4 caster levels. You can double the wall's area by halving its thickness. Each 5-foot square of the wall has 30 hit points per inch of thickness and hardness 9. A section of wall whose hit points drop to 0 is breached. If a creature tries to break through the wall with a single attack, the DC for the Strength check is 25 + 2 per inch of thickness. If an attacker an attack roll of a natural 20 (and only a natural 20, regardless of the weapon's threat range) and confirms the critical hit (even though the wall is otherwise immune to critical hits), that section of wall gains the broken condition. If already broken, that section of wall is destroyed instead.  Bronze created by this spell is not suitable for use in the creation of other objects (even for the limited duration of the spell) and cannot be sold.</p>",
    "spellDuration": "1 minute/level",
    "spellEffect": "wall of bronze clockworks whose area is up to one 5-ft.-square/level (S)",
    "spellArea": "",
    "showInQuickbar": false,
    "spellPoints": {
      "cost": "1 + @sl"
    },
    "domain": false,
    "slotCost": 1
  },
  "flags": {},
  "img": "systems/pf1/icons/misc/magic-swirl.png",
  "effects": []
}